{"frames": {

"P16_BACKGROUND.png":
{
	"frame": {"x":2,"y":2,"w":1366,"h":768},
	"rotated": false,
	"trimmed": false,
	"spriteSourceSize": {"x":0,"y":0,"w":1366,"h":768},
	"sourceSize": {"w":1366,"h":768}
},
"P16_BLUEBERRYKIN_0001.png":
{
	"frame": {"x":1600,"y":962,"w":124,"h":198},
	"rotated": true,
	"trimmed": true,
	"spriteSourceSize": {"x":4,"y":50,"w":124,"h":198},
	"sourceSize": {"w":150,"h":250}
},
"P16_BLUEBERRYKIN_0002.png":
{
	"frame": {"x":1458,"y":764,"w":140,"h":208},
	"rotated": false,
	"trimmed": true,
	"spriteSourceSize": {"x":0,"y":6,"w":140,"h":208},
	"sourceSize": {"w":150,"h":250}
},
"P16_CHAIRS.png":
{
	"frame": {"x":2,"y":772,"w":1454,"h":198},
	"rotated": false,
	"trimmed": true,
	"spriteSourceSize": {"x":0,"y":0,"w":1454,"h":198},
	"sourceSize": {"w":1456,"h":200}
},
"P16_ORANGEBERRYKIN_0001.png":
{
	"frame": {"x":1570,"y":630,"w":124,"h":198},
	"rotated": true,
	"trimmed": true,
	"spriteSourceSize": {"x":14,"y":41,"w":124,"h":198},
	"sourceSize": {"w":142,"h":240}
},
"P16_ORANGEBERRYKIN_0002.png":
{
	"frame": {"x":1664,"y":418,"w":140,"h":208},
	"rotated": false,
	"trimmed": true,
	"spriteSourceSize": {"x":0,"y":0,"w":140,"h":208},
	"sourceSize": {"w":142,"h":240}
},
"P16_PINKBERRYKIN_0001.png":
{
	"frame": {"x":1370,"y":638,"w":124,"h":198},
	"rotated": true,
	"trimmed": true,
	"spriteSourceSize": {"x":14,"y":60,"w":124,"h":198},
	"sourceSize": {"w":148,"h":260}
},
"P16_PINKBERRYKIN_0002.png":
{
	"frame": {"x":1514,"y":418,"w":148,"h":210},
	"rotated": false,
	"trimmed": true,
	"spriteSourceSize": {"x":0,"y":1,"w":148,"h":210},
	"sourceSize": {"w":148,"h":260}
},
"P16_PURPLEBERRYKIN_0001.png":
{
	"frame": {"x":1784,"y":2,"w":122,"h":198},
	"rotated": false,
	"trimmed": true,
	"spriteSourceSize": {"x":12,"y":47,"w":122,"h":198},
	"sourceSize": {"w":146,"h":248}
},
"P16_PURPLEBERRYKIN_0002.png":
{
	"frame": {"x":1370,"y":418,"w":142,"h":218},
	"rotated": false,
	"trimmed": true,
	"spriteSourceSize": {"x":1,"y":2,"w":142,"h":218},
	"sourceSize": {"w":146,"h":248}
},
"P16_YELLOWBERRYKIN_0001.png":
{
	"frame": {"x":1752,"y":756,"w":124,"h":200},
	"rotated": false,
	"trimmed": true,
	"spriteSourceSize": {"x":13,"y":37,"w":124,"h":200},
	"sourceSize": {"w":152,"h":238}
},
"P16_YELLOWBERRYKIN_0002.png":
{
	"frame": {"x":1600,"y":756,"w":150,"h":204},
	"rotated": false,
	"trimmed": true,
	"spriteSourceSize": {"x":0,"y":2,"w":150,"h":204},
	"sourceSize": {"w":152,"h":238}
},
"P19_Flash.png":
{
	"frame": {"x":1370,"y":2,"w":412,"h":414},
	"rotated": false,
	"trimmed": true,
	"spriteSourceSize": {"x":3,"y":2,"w":412,"h":414},
	"sourceSize": {"w":420,"h":420}
},
"P19_STAGELIGHTS.png":
{
	"frame": {"x":2,"y":972,"w":1382,"h":118},
	"rotated": false,
	"trimmed": false,
	"spriteSourceSize": {"x":0,"y":0,"w":1382,"h":118},
	"sourceSize": {"w":1382,"h":118}
}},
"meta": {
	"app": "http://www.codeandweb.com/texturepacker ",
	"version": "1.0",
	"image": "Page.png",
	"format": "RGBA8888",
	"size": {"w":1908,"h":1092},
	"scale": "1",
	"smartupdate": "$TexturePacker:SmartUpdate:771ef2e000165e338c6b7b36d172fbdd$"
}
}
