{"frames": {

"P01_BUTTERFLY0000.png":
{
	"frame": {"x":281,"y":2,"w":95,"h":101},
	"rotated": false,
	"trimmed": true,
	"spriteSourceSize": {"x":17,"y":6,"w":95,"h":101},
	"sourceSize": {"w":117,"h":115}
},
"P01_BUTTERFLY0001.png":
{
	"frame": {"x":188,"y":2,"w":91,"h":103},
	"rotated": false,
	"trimmed": true,
	"spriteSourceSize": {"x":17,"y":5,"w":91,"h":103},
	"sourceSize": {"w":117,"h":115}
},
"P01_BUTTERFLY0002.png":
{
	"frame": {"x":95,"y":2,"w":91,"h":103},
	"rotated": false,
	"trimmed": true,
	"spriteSourceSize": {"x":16,"y":5,"w":91,"h":103},
	"sourceSize": {"w":117,"h":115}
},
"P01_BUTTERFLY0003.png":
{
	"frame": {"x":2,"y":2,"w":91,"h":103},
	"rotated": false,
	"trimmed": true,
	"spriteSourceSize": {"x":17,"y":5,"w":91,"h":103},
	"sourceSize": {"w":117,"h":115}
},
"P01_BUTTERFLY0004.png":
{
	"frame": {"x":281,"y":2,"w":95,"h":101},
	"rotated": false,
	"trimmed": true,
	"spriteSourceSize": {"x":17,"y":6,"w":95,"h":101},
	"sourceSize": {"w":117,"h":115}
},
"P01_BUTTERFLY0005.png":
{
	"frame": {"x":473,"y":2,"w":93,"h":95},
	"rotated": false,
	"trimmed": true,
	"spriteSourceSize": {"x":16,"y":14,"w":93,"h":95},
	"sourceSize": {"w":117,"h":115}
},
"P01_BUTTERFLY0006.png":
{
	"frame": {"x":661,"y":2,"w":91,"h":89},
	"rotated": false,
	"trimmed": true,
	"spriteSourceSize": {"x":16,"y":21,"w":91,"h":89},
	"sourceSize": {"w":117,"h":115}
},
"P01_BUTTERFLY0007.png":
{
	"frame": {"x":851,"y":2,"w":95,"h":85},
	"rotated": false,
	"trimmed": true,
	"spriteSourceSize": {"x":14,"y":25,"w":95,"h":85},
	"sourceSize": {"w":117,"h":115}
},
"P01_BUTTERFLY0008.png":
{
	"frame": {"x":948,"y":2,"w":95,"h":83},
	"rotated": false,
	"trimmed": true,
	"spriteSourceSize": {"x":15,"y":27,"w":95,"h":83},
	"sourceSize": {"w":117,"h":115}
},
"P01_BUTTERFLY0009.png":
{
	"frame": {"x":754,"y":2,"w":95,"h":85},
	"rotated": false,
	"trimmed": true,
	"spriteSourceSize": {"x":14,"y":25,"w":95,"h":85},
	"sourceSize": {"w":117,"h":115}
},
"P01_BUTTERFLY0010.png":
{
	"frame": {"x":568,"y":2,"w":91,"h":89},
	"rotated": false,
	"trimmed": true,
	"spriteSourceSize": {"x":16,"y":21,"w":91,"h":89},
	"sourceSize": {"w":117,"h":115}
},
"P01_BUTTERFLY0011.png":
{
	"frame": {"x":378,"y":2,"w":93,"h":95},
	"rotated": false,
	"trimmed": true,
	"spriteSourceSize": {"x":16,"y":14,"w":93,"h":95},
	"sourceSize": {"w":117,"h":115}
}},
"meta": {
	"app": "http://www.texturepacker.com",
	"version": "1.0",
	"image": "P01_BUTTERFLY.png",
	"format": "RGBA8888",
	"size": {"w":1045,"h":107},
	"scale": "1",
	"smartupdate": "$TexturePacker:SmartUpdate:f7ac0bfb7654f90a13c1df6898c7e2a1$"
}
}
