{"frames": {

"P01_DOOR0000.png":
{
	"frame": {"x":2,"y":902,"w":172,"h":286},
	"rotated": false,
	"trimmed": true,
	"spriteSourceSize": {"x":2,"y":0,"w":172,"h":286},
	"sourceSize": {"w":176,"h":312}
},
"P01_DOOR0001.png":
{
	"frame": {"x":2,"y":902,"w":172,"h":286},
	"rotated": false,
	"trimmed": true,
	"spriteSourceSize": {"x":2,"y":0,"w":172,"h":286},
	"sourceSize": {"w":176,"h":312}
},
"P01_DOOR0002.png":
{
	"frame": {"x":2,"y":614,"w":172,"h":286},
	"rotated": false,
	"trimmed": true,
	"spriteSourceSize": {"x":2,"y":1,"w":172,"h":286},
	"sourceSize": {"w":176,"h":312}
},
"P01_DOOR0003.png":
{
	"frame": {"x":2,"y":614,"w":172,"h":286},
	"rotated": false,
	"trimmed": true,
	"spriteSourceSize": {"x":2,"y":1,"w":172,"h":286},
	"sourceSize": {"w":176,"h":312}
},
"P01_DOOR0004.png":
{
	"frame": {"x":2,"y":314,"w":172,"h":298},
	"rotated": false,
	"trimmed": true,
	"spriteSourceSize": {"x":2,"y":1,"w":172,"h":298},
	"sourceSize": {"w":176,"h":312}
},
"P01_DOOR0005.png":
{
	"frame": {"x":2,"y":314,"w":172,"h":298},
	"rotated": false,
	"trimmed": true,
	"spriteSourceSize": {"x":2,"y":1,"w":172,"h":298},
	"sourceSize": {"w":176,"h":312}
},
"P01_DOOR0006.png":
{
	"frame": {"x":2,"y":2,"w":172,"h":310},
	"rotated": false,
	"trimmed": true,
	"spriteSourceSize": {"x":2,"y":1,"w":172,"h":310},
	"sourceSize": {"w":176,"h":312}
},
"P01_DOOR0007.png":
{
	"frame": {"x":2,"y":2,"w":172,"h":310},
	"rotated": false,
	"trimmed": true,
	"spriteSourceSize": {"x":2,"y":1,"w":172,"h":310},
	"sourceSize": {"w":176,"h":312}
}},
"meta": {
	"app": "http://www.texturepacker.com",
	"version": "1.0",
	"image": "P01_DOOR.png",
	"format": "RGBA8888",
	"size": {"w":176,"h":1190},
	"scale": "1",
	"smartupdate": "$TexturePacker:SmartUpdate:186aa4c4c896b2f618cce8c433311b36$"
}
}
