{"frames": {

"P01_BG.png":
{
	"frame": {"x":2,"y":2,"w":1366,"h":768},
	"rotated": true,
	"trimmed": false,
	"spriteSourceSize": {"x":0,"y":0,"w":1366,"h":768},
	"sourceSize": {"w":1366,"h":768}
},
"P01_BUTTERFLY_0001.png":
{
	"frame": {"x":965,"y":1903,"w":95,"h":101},
	"rotated": false,
	"trimmed": true,
	"spriteSourceSize": {"x":17,"y":6,"w":95,"h":101},
	"sourceSize": {"w":117,"h":115}
},
"P01_DOOR_0001.png":
{
	"frame": {"x":900,"y":901,"w":95,"h":158},
	"rotated": false,
	"trimmed": true,
	"spriteSourceSize": {"x":0,"y":0,"w":95,"h":158},
	"sourceSize": {"w":95,"h":172}
},
"P01_FLOWER1.png":
{
	"frame": {"x":772,"y":2,"w":179,"h":360},
	"rotated": false,
	"trimmed": true,
	"spriteSourceSize": {"x":1,"y":0,"w":179,"h":360},
	"sourceSize": {"w":181,"h":360}
},
"P01_FLOWER2.png":
{
	"frame": {"x":772,"y":364,"w":192,"h":273},
	"rotated": false,
	"trimmed": false,
	"spriteSourceSize": {"x":0,"y":0,"w":192,"h":273},
	"sourceSize": {"w":192,"h":273}
},
"P01_HOUSE1_OL.png":
{
	"frame": {"x":2,"y":1370,"w":584,"h":639},
	"rotated": true,
	"trimmed": true,
	"spriteSourceSize": {"x":8,"y":0,"w":584,"h":639},
	"sourceSize": {"w":592,"h":645}
},
"P01_HOUSE2_OL.png":
{
	"frame": {"x":643,"y":1370,"w":423,"h":409},
	"rotated": true,
	"trimmed": false,
	"spriteSourceSize": {"x":0,"y":0,"w":423,"h":409},
	"sourceSize": {"w":423,"h":409}
},
"P01_HOUSE3_OL.png":
{
	"frame": {"x":643,"y":1795,"w":212,"h":172},
	"rotated": true,
	"trimmed": false,
	"spriteSourceSize": {"x":0,"y":0,"w":212,"h":172},
	"sourceSize": {"w":212,"h":172}
},
"P01_LEMON_0001.png":
{
	"frame": {"x":966,"y":298,"w":128,"h":274},
	"rotated": false,
	"trimmed": true,
	"spriteSourceSize": {"x":13,"y":6,"w":128,"h":274},
	"sourceSize": {"w":142,"h":282}
},
"P01_LEMON_0002.png":
{
	"frame": {"x":772,"y":941,"w":126,"h":282},
	"rotated": false,
	"trimmed": true,
	"spriteSourceSize": {"x":1,"y":0,"w":126,"h":282},
	"sourceSize": {"w":142,"h":282}
},
"P01_PUPCAKE_0012.png":
{
	"frame": {"x":1000,"y":704,"w":91,"h":106},
	"rotated": false,
	"trimmed": true,
	"spriteSourceSize": {"x":16,"y":34,"w":91,"h":106},
	"sourceSize": {"w":161,"h":144}
},
"P01_PURPLE.png":
{
	"frame": {"x":817,"y":1903,"w":146,"h":104},
	"rotated": false,
	"trimmed": true,
	"spriteSourceSize": {"x":0,"y":1,"w":146,"h":104},
	"sourceSize": {"w":146,"h":106}
},
"P01_RASPBERRY_0001.png":
{
	"frame": {"x":896,"y":639,"w":102,"h":260},
	"rotated": false,
	"trimmed": true,
	"spriteSourceSize": {"x":18,"y":1,"w":102,"h":260},
	"sourceSize": {"w":128,"h":264}
},
"P01_RASPBERRY_0002.png":
{
	"frame": {"x":817,"y":1795,"w":106,"h":246},
	"rotated": true,
	"trimmed": true,
	"spriteSourceSize": {"x":18,"y":15,"w":106,"h":246},
	"sourceSize": {"w":128,"h":264}
},
"P01_STRAWBERRY1.png":
{
	"frame": {"x":900,"y":1061,"w":154,"h":147},
	"rotated": true,
	"trimmed": false,
	"spriteSourceSize": {"x":0,"y":0,"w":154,"h":147},
	"sourceSize": {"w":154,"h":147}
},
"P01_STRAWBERRY2.png":
{
	"frame": {"x":772,"y":1225,"w":155,"h":143},
	"rotated": false,
	"trimmed": false,
	"spriteSourceSize": {"x":0,"y":0,"w":155,"h":143},
	"sourceSize": {"w":155,"h":143}
},
"P01_STRAWBERRY3.png":
{
	"frame": {"x":929,"y":1217,"w":112,"h":147},
	"rotated": false,
	"trimmed": false,
	"spriteSourceSize": {"x":0,"y":0,"w":112,"h":147},
	"sourceSize": {"w":112,"h":147}
},
"P01_STRAWBERRY_0001.png":
{
	"frame": {"x":953,"y":2,"w":122,"h":294},
	"rotated": false,
	"trimmed": true,
	"spriteSourceSize": {"x":32,"y":27,"w":122,"h":294},
	"sourceSize": {"w":178,"h":322}
},
"P01_STRAWBERRY_0002.png":
{
	"frame": {"x":772,"y":639,"w":122,"h":300},
	"rotated": false,
	"trimmed": true,
	"spriteSourceSize": {"x":16,"y":21,"w":122,"h":300},
	"sourceSize": {"w":178,"h":322}
},
"P01_WATERFALL_0001.png":
{
	"frame": {"x":1000,"y":574,"w":85,"h":128},
	"rotated": false,
	"trimmed": true,
	"spriteSourceSize": {"x":5,"y":0,"w":85,"h":128},
	"sourceSize": {"w":93,"h":128}
}},
"meta": {
	"app": "http://www.codeandweb.com/texturepacker ",
	"version": "1.0",
	"image": "Page.png",
	"format": "RGBA8888",
	"size": {"w":1096,"h":2009},
	"scale": "1",
	"smartupdate": "$TexturePacker:SmartUpdate:4d3f71dc31e08b1b7a0c97de759df6de$"
}
}
