{"frames": {

"P03_BERRYKINS0000.png":
{
	"frame": {"x":146,"y":2,"w":70,"h":78},
	"rotated": false,
	"trimmed": true,
	"spriteSourceSize": {"x":3,"y":1,"w":70,"h":78},
	"sourceSize": {"w":80,"h":80}
},
"P03_BERRYKINS0001.png":
{
	"frame": {"x":74,"y":2,"w":70,"h":78},
	"rotated": false,
	"trimmed": true,
	"spriteSourceSize": {"x":3,"y":1,"w":70,"h":78},
	"sourceSize": {"w":80,"h":80}
},
"P03_BERRYKINS0002.png":
{
	"frame": {"x":2,"y":2,"w":70,"h":78},
	"rotated": false,
	"trimmed": true,
	"spriteSourceSize": {"x":3,"y":1,"w":70,"h":78},
	"sourceSize": {"w":80,"h":80}
}},
"meta": {
	"app": "http://www.texturepacker.com",
	"version": "1.0",
	"image": "P03_BERRYKINS.png",
	"format": "RGBA8888",
	"size": {"w":218,"h":82},
	"scale": "1",
	"smartupdate": "$TexturePacker:SmartUpdate:c2ef98ee6f9d4e502b59038b5c61f9be$"
}
}
