{"frames": {

"P03_WHIRR0000.png":
{
	"frame": {"x":53,"y":146,"w":1,"h":1},
	"rotated": false,
	"trimmed": true,
	"spriteSourceSize": {"x":0,"y":0,"w":1,"h":1},
	"sourceSize": {"w":57,"h":80}
},
"P03_WHIRR0001.png":
{
	"frame": {"x":53,"y":146,"w":1,"h":1},
	"rotated": false,
	"trimmed": true,
	"spriteSourceSize": {"x":0,"y":0,"w":1,"h":1},
	"sourceSize": {"w":57,"h":80}
},
"P03_WHIRR0002.png":
{
	"frame": {"x":2,"y":2,"w":55,"h":78},
	"rotated": false,
	"trimmed": true,
	"spriteSourceSize": {"x":1,"y":0,"w":55,"h":78},
	"sourceSize": {"w":57,"h":80}
},
"P03_WHIRR0003.png":
{
	"frame": {"x":2,"y":2,"w":55,"h":78},
	"rotated": false,
	"trimmed": true,
	"spriteSourceSize": {"x":1,"y":0,"w":55,"h":78},
	"sourceSize": {"w":57,"h":80}
},
"P03_WHIRR0004.png":
{
	"frame": {"x":2,"y":218,"w":47,"h":72},
	"rotated": false,
	"trimmed": true,
	"spriteSourceSize": {"x":3,"y":7,"w":47,"h":72},
	"sourceSize": {"w":57,"h":80}
},
"P03_WHIRR0005.png":
{
	"frame": {"x":2,"y":218,"w":47,"h":72},
	"rotated": false,
	"trimmed": true,
	"spriteSourceSize": {"x":3,"y":7,"w":47,"h":72},
	"sourceSize": {"w":57,"h":80}
},
"P03_WHIRR0006.png":
{
	"frame": {"x":2,"y":146,"w":49,"h":70},
	"rotated": false,
	"trimmed": true,
	"spriteSourceSize": {"x":5,"y":9,"w":49,"h":70},
	"sourceSize": {"w":57,"h":80}
},
"P03_WHIRR0007.png":
{
	"frame": {"x":2,"y":146,"w":49,"h":70},
	"rotated": false,
	"trimmed": true,
	"spriteSourceSize": {"x":5,"y":9,"w":49,"h":70},
	"sourceSize": {"w":57,"h":80}
},
"P03_WHIRR0008.png":
{
	"frame": {"x":2,"y":82,"w":55,"h":62},
	"rotated": false,
	"trimmed": true,
	"spriteSourceSize": {"x":1,"y":13,"w":55,"h":62},
	"sourceSize": {"w":57,"h":80}
},
"P03_WHIRR0009.png":
{
	"frame": {"x":2,"y":82,"w":55,"h":62},
	"rotated": false,
	"trimmed": true,
	"spriteSourceSize": {"x":1,"y":13,"w":55,"h":62},
	"sourceSize": {"w":57,"h":80}
}},
"meta": {
	"app": "http://www.texturepacker.com",
	"version": "1.0",
	"image": "P03_WHIRR.png",
	"format": "RGBA8888",
	"size": {"w":59,"h":292},
	"scale": "1",
	"smartupdate": "$TexturePacker:SmartUpdate:dc172b1be906a54418d264c9622ba111$"
}
}
