{"frames": {

"P18_FLOOR_GLOW0000.png":
{
	"frame": {"x":2,"y":754,"w":882,"h":186},
	"rotated": false,
	"trimmed": false,
	"spriteSourceSize": {"x":0,"y":0,"w":882,"h":186},
	"sourceSize": {"w":882,"h":186}
},
"P18_FLOOR_GLOW0001.png":
{
	"frame": {"x":2,"y":566,"w":882,"h":186},
	"rotated": false,
	"trimmed": false,
	"spriteSourceSize": {"x":0,"y":0,"w":882,"h":186},
	"sourceSize": {"w":882,"h":186}
},
"P18_FLOOR_GLOW0002.png":
{
	"frame": {"x":2,"y":378,"w":882,"h":186},
	"rotated": false,
	"trimmed": false,
	"spriteSourceSize": {"x":0,"y":0,"w":882,"h":186},
	"sourceSize": {"w":882,"h":186}
},
"P18_FLOOR_GLOW0003.png":
{
	"frame": {"x":2,"y":190,"w":882,"h":186},
	"rotated": false,
	"trimmed": false,
	"spriteSourceSize": {"x":0,"y":0,"w":882,"h":186},
	"sourceSize": {"w":882,"h":186}
},
"P18_FLOOR_GLOW0004.png":
{
	"frame": {"x":2,"y":2,"w":882,"h":186},
	"rotated": false,
	"trimmed": false,
	"spriteSourceSize": {"x":0,"y":0,"w":882,"h":186},
	"sourceSize": {"w":882,"h":186}
}},
"meta": {
	"app": "http://www.texturepacker.com",
	"version": "1.0",
	"image": "P18_FLOOR_GLOW.png",
	"format": "RGBA8888",
	"size": {"w":886,"h":942},
	"scale": "1",
	"smartupdate": "$TexturePacker:SmartUpdate:f1e847168de69bf544f4b3e0be449e40$"
}
}
