{"frames": {

"P18_RASPBERRY0000.png":
{
	"frame": {"x":246,"y":426,"w":220,"h":412},
	"rotated": false,
	"trimmed": true,
	"spriteSourceSize": {"x":40,"y":14,"w":220,"h":412},
	"sourceSize": {"w":306,"h":432}
},
"P18_RASPBERRY0001.png":
{
	"frame": {"x":246,"y":426,"w":220,"h":412},
	"rotated": false,
	"trimmed": true,
	"spriteSourceSize": {"x":40,"y":14,"w":220,"h":412},
	"sourceSize": {"w":306,"h":432}
},
"P18_RASPBERRY0002.png":
{
	"frame": {"x":468,"y":426,"w":222,"h":410},
	"rotated": false,
	"trimmed": true,
	"spriteSourceSize": {"x":39,"y":16,"w":222,"h":410},
	"sourceSize": {"w":306,"h":432}
},
"P18_RASPBERRY0003.png":
{
	"frame": {"x":468,"y":426,"w":222,"h":410},
	"rotated": false,
	"trimmed": true,
	"spriteSourceSize": {"x":39,"y":16,"w":222,"h":410},
	"sourceSize": {"w":306,"h":432}
},
"P18_RASPBERRY0004.png":
{
	"frame": {"x":692,"y":424,"w":226,"h":408},
	"rotated": false,
	"trimmed": true,
	"spriteSourceSize": {"x":37,"y":18,"w":226,"h":408},
	"sourceSize": {"w":306,"h":432}
},
"P18_RASPBERRY0005.png":
{
	"frame": {"x":692,"y":424,"w":226,"h":408},
	"rotated": false,
	"trimmed": true,
	"spriteSourceSize": {"x":37,"y":18,"w":226,"h":408},
	"sourceSize": {"w":306,"h":432}
},
"P18_RASPBERRY0006.png":
{
	"frame": {"x":1758,"y":422,"w":234,"h":404},
	"rotated": false,
	"trimmed": true,
	"spriteSourceSize": {"x":32,"y":22,"w":234,"h":404},
	"sourceSize": {"w":306,"h":432}
},
"P18_RASPBERRY0007.png":
{
	"frame": {"x":1758,"y":422,"w":234,"h":404},
	"rotated": false,
	"trimmed": true,
	"spriteSourceSize": {"x":32,"y":22,"w":234,"h":404},
	"sourceSize": {"w":306,"h":432}
},
"P18_RASPBERRY0008.png":
{
	"frame": {"x":2,"y":426,"w":242,"h":412},
	"rotated": false,
	"trimmed": true,
	"spriteSourceSize": {"x":26,"y":13,"w":242,"h":412},
	"sourceSize": {"w":306,"h":432}
},
"P18_RASPBERRY0009.png":
{
	"frame": {"x":1700,"y":2,"w":276,"h":418},
	"rotated": false,
	"trimmed": true,
	"spriteSourceSize": {"x":5,"y":4,"w":276,"h":418},
	"sourceSize": {"w":306,"h":432}
},
"P18_RASPBERRY0010.png":
{
	"frame": {"x":1422,"y":2,"w":276,"h":418},
	"rotated": false,
	"trimmed": true,
	"spriteSourceSize": {"x":0,"y":4,"w":276,"h":418},
	"sourceSize": {"w":306,"h":432}
},
"P18_RASPBERRY0011.png":
{
	"frame": {"x":280,"y":2,"w":276,"h":422},
	"rotated": false,
	"trimmed": true,
	"spriteSourceSize": {"x":6,"y":0,"w":276,"h":422},
	"sourceSize": {"w":306,"h":432}
},
"P18_RASPBERRY0012.png":
{
	"frame": {"x":1480,"y":422,"w":276,"h":416},
	"rotated": false,
	"trimmed": true,
	"spriteSourceSize": {"x":5,"y":0,"w":276,"h":416},
	"sourceSize": {"w":306,"h":432}
},
"P18_RASPBERRY0013.png":
{
	"frame": {"x":920,"y":422,"w":280,"h":416},
	"rotated": false,
	"trimmed": true,
	"spriteSourceSize": {"x":2,"y":0,"w":280,"h":416},
	"sourceSize": {"w":306,"h":432}
},
"P18_RASPBERRY0014.png":
{
	"frame": {"x":1144,"y":2,"w":276,"h":418},
	"rotated": false,
	"trimmed": true,
	"spriteSourceSize": {"x":13,"y":4,"w":276,"h":418},
	"sourceSize": {"w":306,"h":432}
},
"P18_RASPBERRY0015.png":
{
	"frame": {"x":866,"y":2,"w":276,"h":418},
	"rotated": false,
	"trimmed": true,
	"spriteSourceSize": {"x":0,"y":4,"w":276,"h":418},
	"sourceSize": {"w":306,"h":432}
},
"P18_RASPBERRY0016.png":
{
	"frame": {"x":2,"y":2,"w":276,"h":422},
	"rotated": false,
	"trimmed": true,
	"spriteSourceSize": {"x":1,"y":0,"w":276,"h":422},
	"sourceSize": {"w":306,"h":432}
},
"P18_RASPBERRY0017.png":
{
	"frame": {"x":1202,"y":422,"w":276,"h":416},
	"rotated": false,
	"trimmed": true,
	"spriteSourceSize": {"x":5,"y":0,"w":276,"h":416},
	"sourceSize": {"w":306,"h":432}
},
"P18_RASPBERRY0018.png":
{
	"frame": {"x":558,"y":2,"w":306,"h":420},
	"rotated": false,
	"trimmed": true,
	"spriteSourceSize": {"x":0,"y":0,"w":306,"h":420},
	"sourceSize": {"w":306,"h":432}
},
"P18_RASPBERRY0019.png":
{
	"frame": {"x":1700,"y":2,"w":276,"h":418},
	"rotated": false,
	"trimmed": true,
	"spriteSourceSize": {"x":5,"y":4,"w":276,"h":418},
	"sourceSize": {"w":306,"h":432}
},
"P18_RASPBERRY0020.png":
{
	"frame": {"x":1422,"y":2,"w":276,"h":418},
	"rotated": false,
	"trimmed": true,
	"spriteSourceSize": {"x":0,"y":4,"w":276,"h":418},
	"sourceSize": {"w":306,"h":432}
},
"P18_RASPBERRY0021.png":
{
	"frame": {"x":280,"y":2,"w":276,"h":422},
	"rotated": false,
	"trimmed": true,
	"spriteSourceSize": {"x":6,"y":0,"w":276,"h":422},
	"sourceSize": {"w":306,"h":432}
},
"P18_RASPBERRY0022.png":
{
	"frame": {"x":1480,"y":422,"w":276,"h":416},
	"rotated": false,
	"trimmed": true,
	"spriteSourceSize": {"x":5,"y":0,"w":276,"h":416},
	"sourceSize": {"w":306,"h":432}
},
"P18_RASPBERRY0023.png":
{
	"frame": {"x":920,"y":422,"w":280,"h":416},
	"rotated": false,
	"trimmed": true,
	"spriteSourceSize": {"x":2,"y":0,"w":280,"h":416},
	"sourceSize": {"w":306,"h":432}
},
"P18_RASPBERRY0024.png":
{
	"frame": {"x":1144,"y":2,"w":276,"h":418},
	"rotated": false,
	"trimmed": true,
	"spriteSourceSize": {"x":13,"y":4,"w":276,"h":418},
	"sourceSize": {"w":306,"h":432}
},
"P18_RASPBERRY0025.png":
{
	"frame": {"x":866,"y":2,"w":276,"h":418},
	"rotated": false,
	"trimmed": true,
	"spriteSourceSize": {"x":0,"y":4,"w":276,"h":418},
	"sourceSize": {"w":306,"h":432}
},
"P18_RASPBERRY0026.png":
{
	"frame": {"x":2,"y":2,"w":276,"h":422},
	"rotated": false,
	"trimmed": true,
	"spriteSourceSize": {"x":1,"y":0,"w":276,"h":422},
	"sourceSize": {"w":306,"h":432}
},
"P18_RASPBERRY0027.png":
{
	"frame": {"x":1202,"y":422,"w":276,"h":416},
	"rotated": false,
	"trimmed": true,
	"spriteSourceSize": {"x":5,"y":0,"w":276,"h":416},
	"sourceSize": {"w":306,"h":432}
},
"P18_RASPBERRY0028.png":
{
	"frame": {"x":558,"y":2,"w":306,"h":420},
	"rotated": false,
	"trimmed": true,
	"spriteSourceSize": {"x":0,"y":0,"w":306,"h":420},
	"sourceSize": {"w":306,"h":432}
},
"P18_RASPBERRY0029.png":
{
	"frame": {"x":2,"y":426,"w":242,"h":412},
	"rotated": false,
	"trimmed": true,
	"spriteSourceSize": {"x":26,"y":13,"w":242,"h":412},
	"sourceSize": {"w":306,"h":432}
},
"P18_RASPBERRY0030.png":
{
	"frame": {"x":1758,"y":422,"w":234,"h":404},
	"rotated": false,
	"trimmed": true,
	"spriteSourceSize": {"x":32,"y":22,"w":234,"h":404},
	"sourceSize": {"w":306,"h":432}
},
"P18_RASPBERRY0031.png":
{
	"frame": {"x":1758,"y":422,"w":234,"h":404},
	"rotated": false,
	"trimmed": true,
	"spriteSourceSize": {"x":32,"y":22,"w":234,"h":404},
	"sourceSize": {"w":306,"h":432}
},
"P18_RASPBERRY0032.png":
{
	"frame": {"x":692,"y":424,"w":226,"h":408},
	"rotated": false,
	"trimmed": true,
	"spriteSourceSize": {"x":37,"y":18,"w":226,"h":408},
	"sourceSize": {"w":306,"h":432}
},
"P18_RASPBERRY0033.png":
{
	"frame": {"x":692,"y":424,"w":226,"h":408},
	"rotated": false,
	"trimmed": true,
	"spriteSourceSize": {"x":37,"y":18,"w":226,"h":408},
	"sourceSize": {"w":306,"h":432}
},
"P18_RASPBERRY0034.png":
{
	"frame": {"x":468,"y":426,"w":222,"h":410},
	"rotated": false,
	"trimmed": true,
	"spriteSourceSize": {"x":39,"y":16,"w":222,"h":410},
	"sourceSize": {"w":306,"h":432}
},
"P18_RASPBERRY0035.png":
{
	"frame": {"x":468,"y":426,"w":222,"h":410},
	"rotated": false,
	"trimmed": true,
	"spriteSourceSize": {"x":39,"y":16,"w":222,"h":410},
	"sourceSize": {"w":306,"h":432}
},
"P18_RASPBERRY0036.png":
{
	"frame": {"x":246,"y":426,"w":220,"h":412},
	"rotated": false,
	"trimmed": true,
	"spriteSourceSize": {"x":40,"y":14,"w":220,"h":412},
	"sourceSize": {"w":306,"h":432}
},
"P18_RASPBERRY0037.png":
{
	"frame": {"x":246,"y":426,"w":220,"h":412},
	"rotated": false,
	"trimmed": true,
	"spriteSourceSize": {"x":40,"y":14,"w":220,"h":412},
	"sourceSize": {"w":306,"h":432}
}},
"meta": {
	"app": "http://www.texturepacker.com",
	"version": "1.0",
	"image": "P18_RASPBERRY.png",
	"format": "RGBA8888",
	"size": {"w":1994,"h":840},
	"scale": "1",
	"smartupdate": "$TexturePacker:SmartUpdate:fe973a28d35b55ee2e76670fef59e51c$"
}
}
