{"frames": {

"P18_LIGHTS_OL0000.png":
{
	"frame": {"x":2,"y":290,"w":850,"h":142},
	"rotated": false,
	"trimmed": true,
	"spriteSourceSize": {"x":6,"y":7,"w":850,"h":142},
	"sourceSize": {"w":868,"h":164}
},
"P18_LIGHTS_OL0001.png":
{
	"frame": {"x":854,"y":146,"w":850,"h":142},
	"rotated": false,
	"trimmed": true,
	"spriteSourceSize": {"x":6,"y":7,"w":850,"h":142},
	"sourceSize": {"w":868,"h":164}
},
"P18_LIGHTS_OL0002.png":
{
	"frame": {"x":2,"y":146,"w":850,"h":142},
	"rotated": false,
	"trimmed": true,
	"spriteSourceSize": {"x":6,"y":7,"w":850,"h":142},
	"sourceSize": {"w":868,"h":164}
},
"P18_LIGHTS_OL0003.png":
{
	"frame": {"x":854,"y":2,"w":850,"h":142},
	"rotated": false,
	"trimmed": true,
	"spriteSourceSize": {"x":6,"y":7,"w":850,"h":142},
	"sourceSize": {"w":868,"h":164}
},
"P18_LIGHTS_OL0004.png":
{
	"frame": {"x":2,"y":2,"w":850,"h":142},
	"rotated": false,
	"trimmed": true,
	"spriteSourceSize": {"x":6,"y":7,"w":850,"h":142},
	"sourceSize": {"w":868,"h":164}
}},
"meta": {
	"app": "http://www.texturepacker.com",
	"version": "1.0",
	"image": "P18_LIGHTS_OL.png",
	"format": "RGBA8888",
	"size": {"w":1706,"h":434},
	"scale": "1",
	"smartupdate": "$TexturePacker:SmartUpdate:3a64aaaea53d56683a8ada2f426fd7f7$"
}
}
