{"frames": {

"P11_Sparkle.png":
{
	"frame": {"x":1890,"y":560,"w":46,"h":54},
	"rotated": false,
	"trimmed": true,
	"spriteSourceSize": {"x":2,"y":2,"w":46,"h":54},
	"sourceSize": {"w":50,"h":60}
},
"P18_BERRYKINS_OL.png":
{
	"frame": {"x":2,"y":1156,"w":1366,"h":346},
	"rotated": false,
	"trimmed": true,
	"spriteSourceSize": {"x":0,"y":36,"w":1366,"h":346},
	"sourceSize": {"w":1366,"h":382}
},
"P18_BERRYKINS_OL_UL.png":
{
	"frame": {"x":2,"y":772,"w":1366,"h":382},
	"rotated": false,
	"trimmed": true,
	"spriteSourceSize": {"x":0,"y":9,"w":1366,"h":382},
	"sourceSize": {"w":1366,"h":404}
},
"P18_BERRYKINS_UL.png":
{
	"frame": {"x":1370,"y":2,"w":1366,"h":374},
	"rotated": true,
	"trimmed": true,
	"spriteSourceSize": {"x":0,"y":4,"w":1366,"h":374},
	"sourceSize": {"w":1366,"h":384}
},
"P18_BG_01.png":
{
	"frame": {"x":2,"y":2,"w":1366,"h":768},
	"rotated": false,
	"trimmed": false,
	"spriteSourceSize": {"x":0,"y":0,"w":1366,"h":768},
	"sourceSize": {"w":1366,"h":768}
},
"P18_LIGHTS_OL_0001.png":
{
	"frame": {"x":1746,"y":2,"w":848,"h":142},
	"rotated": true,
	"trimmed": true,
	"spriteSourceSize": {"x":7,"y":7,"w":848,"h":142},
	"sourceSize": {"w":868,"h":164}
},
"P18_LIGHTS_UL_0001.png":
{
	"frame": {"x":1890,"y":2,"w":556,"h":144},
	"rotated": true,
	"trimmed": true,
	"spriteSourceSize": {"x":6,"y":5,"w":556,"h":144},
	"sourceSize": {"w":574,"h":154}
},
"P18_PODIUM.png":
{
	"frame": {"x":1746,"y":1266,"w":184,"h":278},
	"rotated": true,
	"trimmed": false,
	"spriteSourceSize": {"x":0,"y":0,"w":184,"h":278},
	"sourceSize": {"w":184,"h":278}
},
"P18_RASPBERRY_0001.png":
{
	"frame": {"x":1746,"y":852,"w":220,"h":412},
	"rotated": false,
	"trimmed": true,
	"spriteSourceSize": {"x":40,"y":14,"w":220,"h":412},
	"sourceSize": {"w":306,"h":432}
},
"P18_SPARKLE.png":
{
	"frame": {"x":1890,"y":560,"w":46,"h":54},
	"rotated": false,
	"trimmed": true,
	"spriteSourceSize": {"x":2,"y":2,"w":46,"h":54},
	"sourceSize": {"w":50,"h":60}
}},
"meta": {
	"app": "http://www.codeandweb.com/texturepacker ",
	"version": "1.0",
	"image": "Page.png",
	"format": "RGBA8888",
	"size": {"w":2036,"h":1504},
	"scale": "1",
	"smartupdate": "$TexturePacker:SmartUpdate:870955beb73e8ed358b6bfb0655db3c2$"
}
}
