{"frames": {

"P05_BERRYKIN_BLUE0000.png":
{
	"frame": {"x":176,"y":382,"w":56,"h":90},
	"rotated": false,
	"trimmed": true,
	"spriteSourceSize": {"x":17,"y":7,"w":56,"h":90},
	"sourceSize": {"w":122,"h":120}
},
"P05_BERRYKIN_BLUE0001.png":
{
	"frame": {"x":176,"y":382,"w":56,"h":90},
	"rotated": false,
	"trimmed": true,
	"spriteSourceSize": {"x":17,"y":7,"w":56,"h":90},
	"sourceSize": {"w":122,"h":120}
},
"P05_BERRYKIN_BLUE0002.png":
{
	"frame": {"x":118,"y":382,"w":56,"h":90},
	"rotated": false,
	"trimmed": true,
	"spriteSourceSize": {"x":18,"y":6,"w":56,"h":90},
	"sourceSize": {"w":122,"h":120}
},
"P05_BERRYKIN_BLUE0003.png":
{
	"frame": {"x":118,"y":382,"w":56,"h":90},
	"rotated": false,
	"trimmed": true,
	"spriteSourceSize": {"x":18,"y":6,"w":56,"h":90},
	"sourceSize": {"w":122,"h":120}
},
"P05_BERRYKIN_BLUE0004.png":
{
	"frame": {"x":2,"y":400,"w":56,"h":86},
	"rotated": false,
	"trimmed": true,
	"spriteSourceSize": {"x":35,"y":32,"w":56,"h":86},
	"sourceSize": {"w":122,"h":120}
},
"P05_BERRYKIN_BLUE0005.png":
{
	"frame": {"x":2,"y":400,"w":56,"h":86},
	"rotated": false,
	"trimmed": true,
	"spriteSourceSize": {"x":35,"y":32,"w":56,"h":86},
	"sourceSize": {"w":122,"h":120}
},
"P05_BERRYKIN_BLUE0006.png":
{
	"frame": {"x":84,"y":298,"w":72,"h":80},
	"rotated": false,
	"trimmed": true,
	"spriteSourceSize": {"x":40,"y":40,"w":72,"h":80},
	"sourceSize": {"w":122,"h":120}
},
"P05_BERRYKIN_BLUE0007.png":
{
	"frame": {"x":84,"y":298,"w":72,"h":80},
	"rotated": false,
	"trimmed": true,
	"spriteSourceSize": {"x":40,"y":40,"w":72,"h":80},
	"sourceSize": {"w":122,"h":120}
},
"P05_BERRYKIN_BLUE0008.png":
{
	"frame": {"x":84,"y":208,"w":78,"h":88},
	"rotated": false,
	"trimmed": true,
	"spriteSourceSize": {"x":35,"y":32,"w":78,"h":88},
	"sourceSize": {"w":122,"h":120}
},
"P05_BERRYKIN_BLUE0009.png":
{
	"frame": {"x":84,"y":208,"w":78,"h":88},
	"rotated": false,
	"trimmed": true,
	"spriteSourceSize": {"x":35,"y":32,"w":78,"h":88},
	"sourceSize": {"w":122,"h":120}
},
"P05_BERRYKIN_BLUE0010.png":
{
	"frame": {"x":86,"y":106,"w":82,"h":100},
	"rotated": false,
	"trimmed": true,
	"spriteSourceSize": {"x":18,"y":6,"w":82,"h":100},
	"sourceSize": {"w":122,"h":120}
},
"P05_BERRYKIN_BLUE0011.png":
{
	"frame": {"x":86,"y":106,"w":82,"h":100},
	"rotated": false,
	"trimmed": true,
	"spriteSourceSize": {"x":18,"y":6,"w":82,"h":100},
	"sourceSize": {"w":122,"h":120}
},
"P05_BERRYKIN_BLUE0012.png":
{
	"frame": {"x":2,"y":100,"w":82,"h":102},
	"rotated": false,
	"trimmed": true,
	"spriteSourceSize": {"x":14,"y":9,"w":82,"h":102},
	"sourceSize": {"w":122,"h":120}
},
"P05_BERRYKIN_BLUE0013.png":
{
	"frame": {"x":2,"y":100,"w":82,"h":102},
	"rotated": false,
	"trimmed": true,
	"spriteSourceSize": {"x":14,"y":9,"w":82,"h":102},
	"sourceSize": {"w":122,"h":120}
},
"P05_BERRYKIN_BLUE0014.png":
{
	"frame": {"x":2,"y":204,"w":80,"h":102},
	"rotated": false,
	"trimmed": true,
	"spriteSourceSize": {"x":13,"y":11,"w":80,"h":102},
	"sourceSize": {"w":122,"h":120}
},
"P05_BERRYKIN_BLUE0015.png":
{
	"frame": {"x":2,"y":204,"w":80,"h":102},
	"rotated": false,
	"trimmed": true,
	"spriteSourceSize": {"x":13,"y":11,"w":80,"h":102},
	"sourceSize": {"w":122,"h":120}
},
"P05_BERRYKIN_BLUE0016.png":
{
	"frame": {"x":100,"y":2,"w":82,"h":102},
	"rotated": false,
	"trimmed": true,
	"spriteSourceSize": {"x":11,"y":12,"w":82,"h":102},
	"sourceSize": {"w":122,"h":120}
},
"P05_BERRYKIN_BLUE0017.png":
{
	"frame": {"x":100,"y":2,"w":82,"h":102},
	"rotated": false,
	"trimmed": true,
	"spriteSourceSize": {"x":11,"y":12,"w":82,"h":102},
	"sourceSize": {"w":122,"h":120}
},
"P05_BERRYKIN_BLUE0018.png":
{
	"frame": {"x":2,"y":2,"w":96,"h":96},
	"rotated": false,
	"trimmed": true,
	"spriteSourceSize": {"x":14,"y":9,"w":96,"h":96},
	"sourceSize": {"w":122,"h":120}
},
"P05_BERRYKIN_BLUE0019.png":
{
	"frame": {"x":2,"y":2,"w":96,"h":96},
	"rotated": false,
	"trimmed": true,
	"spriteSourceSize": {"x":14,"y":9,"w":96,"h":96},
	"sourceSize": {"w":122,"h":120}
},
"P05_BERRYKIN_BLUE0020.png":
{
	"frame": {"x":164,"y":290,"w":68,"h":90},
	"rotated": false,
	"trimmed": true,
	"spriteSourceSize": {"x":21,"y":4,"w":68,"h":90},
	"sourceSize": {"w":122,"h":120}
},
"P05_BERRYKIN_BLUE0021.png":
{
	"frame": {"x":164,"y":290,"w":68,"h":90},
	"rotated": false,
	"trimmed": true,
	"spriteSourceSize": {"x":21,"y":4,"w":68,"h":90},
	"sourceSize": {"w":122,"h":120}
},
"P05_BERRYKIN_BLUE0022.png":
{
	"frame": {"x":60,"y":380,"w":56,"h":90},
	"rotated": false,
	"trimmed": true,
	"spriteSourceSize": {"x":19,"y":8,"w":56,"h":90},
	"sourceSize": {"w":122,"h":120}
},
"P05_BERRYKIN_BLUE0023.png":
{
	"frame": {"x":60,"y":380,"w":56,"h":90},
	"rotated": false,
	"trimmed": true,
	"spriteSourceSize": {"x":19,"y":8,"w":56,"h":90},
	"sourceSize": {"w":122,"h":120}
},
"P05_BERRYKIN_BLUE0024.png":
{
	"frame": {"x":2,"y":308,"w":56,"h":90},
	"rotated": false,
	"trimmed": true,
	"spriteSourceSize": {"x":18,"y":8,"w":56,"h":90},
	"sourceSize": {"w":122,"h":120}
},
"P05_BERRYKIN_BLUE0025.png":
{
	"frame": {"x":2,"y":308,"w":56,"h":90},
	"rotated": false,
	"trimmed": true,
	"spriteSourceSize": {"x":18,"y":8,"w":56,"h":90},
	"sourceSize": {"w":122,"h":120}
},
"P05_BERRYKIN_BLUE0026.png":
{
	"frame": {"x":170,"y":198,"w":56,"h":90},
	"rotated": false,
	"trimmed": true,
	"spriteSourceSize": {"x":17,"y":8,"w":56,"h":90},
	"sourceSize": {"w":122,"h":120}
},
"P05_BERRYKIN_BLUE0027.png":
{
	"frame": {"x":170,"y":198,"w":56,"h":90},
	"rotated": false,
	"trimmed": true,
	"spriteSourceSize": {"x":17,"y":8,"w":56,"h":90},
	"sourceSize": {"w":122,"h":120}
},
"P05_BERRYKIN_BLUE0028.png":
{
	"frame": {"x":170,"y":106,"w":56,"h":90},
	"rotated": false,
	"trimmed": true,
	"spriteSourceSize": {"x":17,"y":7,"w":56,"h":90},
	"sourceSize": {"w":122,"h":120}
},
"P05_BERRYKIN_BLUE0029.png":
{
	"frame": {"x":170,"y":106,"w":56,"h":90},
	"rotated": false,
	"trimmed": true,
	"spriteSourceSize": {"x":17,"y":7,"w":56,"h":90},
	"sourceSize": {"w":122,"h":120}
},
"P05_BERRYKIN_BLUE0030.png":
{
	"frame": {"x":176,"y":382,"w":56,"h":90},
	"rotated": false,
	"trimmed": true,
	"spriteSourceSize": {"x":17,"y":7,"w":56,"h":90},
	"sourceSize": {"w":122,"h":120}
},
"P05_BERRYKIN_BLUE0031.png":
{
	"frame": {"x":176,"y":382,"w":56,"h":90},
	"rotated": false,
	"trimmed": true,
	"spriteSourceSize": {"x":17,"y":7,"w":56,"h":90},
	"sourceSize": {"w":122,"h":120}
}},
"meta": {
	"app": "http://www.texturepacker.com",
	"version": "1.0",
	"image": "P05_BERRYKIN_BLUE.png",
	"format": "RGBA8888",
	"size": {"w":234,"h":488},
	"scale": "1",
	"smartupdate": "$TexturePacker:SmartUpdate:d1b95611ebce1403fe88f41b6842d17b$"
}
}
