{"frames": {

"P15_Fruit0000.png":
{
	"frame": {"x":662,"y":2,"w":210,"h":272},
	"rotated": false,
	"trimmed": true,
	"spriteSourceSize": {"x":31,"y":11,"w":210,"h":272},
	"sourceSize": {"w":254,"h":364}
},
"P15_Fruit0001.png":
{
	"frame": {"x":662,"y":2,"w":210,"h":272},
	"rotated": false,
	"trimmed": true,
	"spriteSourceSize": {"x":31,"y":11,"w":210,"h":272},
	"sourceSize": {"w":254,"h":364}
},
"P15_Fruit0002.png":
{
	"frame": {"x":1228,"y":308,"w":186,"h":340},
	"rotated": false,
	"trimmed": true,
	"spriteSourceSize": {"x":48,"y":15,"w":186,"h":340},
	"sourceSize": {"w":254,"h":364}
},
"P15_Fruit0003.png":
{
	"frame": {"x":1228,"y":308,"w":186,"h":340},
	"rotated": false,
	"trimmed": true,
	"spriteSourceSize": {"x":48,"y":15,"w":186,"h":340},
	"sourceSize": {"w":254,"h":364}
},
"P15_Fruit0004.png":
{
	"frame": {"x":1058,"y":308,"w":168,"h":334},
	"rotated": false,
	"trimmed": true,
	"spriteSourceSize": {"x":47,"y":22,"w":168,"h":334},
	"sourceSize": {"w":254,"h":364}
},
"P15_Fruit0005.png":
{
	"frame": {"x":1058,"y":308,"w":168,"h":334},
	"rotated": false,
	"trimmed": true,
	"spriteSourceSize": {"x":47,"y":22,"w":168,"h":334},
	"sourceSize": {"w":254,"h":364}
},
"P15_Fruit0006.png":
{
	"frame": {"x":212,"y":572,"w":194,"h":342},
	"rotated": false,
	"trimmed": true,
	"spriteSourceSize": {"x":40,"y":12,"w":194,"h":342},
	"sourceSize": {"w":254,"h":364}
},
"P15_Fruit0007.png":
{
	"frame": {"x":212,"y":572,"w":194,"h":342},
	"rotated": false,
	"trimmed": true,
	"spriteSourceSize": {"x":40,"y":12,"w":194,"h":342},
	"sourceSize": {"w":254,"h":364}
},
"P15_Fruit0008.png":
{
	"frame": {"x":874,"y":2,"w":214,"h":304},
	"rotated": false,
	"trimmed": true,
	"spriteSourceSize": {"x":30,"y":13,"w":214,"h":304},
	"sourceSize": {"w":254,"h":364}
},
"P15_Fruit0009.png":
{
	"frame": {"x":874,"y":2,"w":214,"h":304},
	"rotated": false,
	"trimmed": true,
	"spriteSourceSize": {"x":30,"y":13,"w":214,"h":304},
	"sourceSize": {"w":254,"h":364}
},
"P15_Fruit0010.png":
{
	"frame": {"x":432,"y":2,"w":228,"h":262},
	"rotated": false,
	"trimmed": true,
	"spriteSourceSize": {"x":23,"y":20,"w":228,"h":262},
	"sourceSize": {"w":254,"h":364}
},
"P15_Fruit0011.png":
{
	"frame": {"x":432,"y":2,"w":228,"h":262},
	"rotated": false,
	"trimmed": true,
	"spriteSourceSize": {"x":23,"y":20,"w":228,"h":262},
	"sourceSize": {"w":254,"h":364}
},
"P15_Fruit0012.png":
{
	"frame": {"x":420,"y":266,"w":226,"h":326},
	"rotated": false,
	"trimmed": true,
	"spriteSourceSize": {"x":13,"y":29,"w":226,"h":326},
	"sourceSize": {"w":254,"h":364}
},
"P15_Fruit0013.png":
{
	"frame": {"x":420,"y":266,"w":226,"h":326},
	"rotated": false,
	"trimmed": true,
	"spriteSourceSize": {"x":13,"y":29,"w":226,"h":326},
	"sourceSize": {"w":254,"h":364}
},
"P15_Fruit0014.png":
{
	"frame": {"x":2,"y":572,"w":208,"h":336},
	"rotated": false,
	"trimmed": true,
	"spriteSourceSize": {"x":7,"y":20,"w":208,"h":336},
	"sourceSize": {"w":254,"h":364}
},
"P15_Fruit0015.png":
{
	"frame": {"x":2,"y":572,"w":208,"h":336},
	"rotated": false,
	"trimmed": true,
	"spriteSourceSize": {"x":7,"y":20,"w":208,"h":336},
	"sourceSize": {"w":254,"h":364}
},
"P15_Fruit0016.png":
{
	"frame": {"x":408,"y":594,"w":220,"h":340},
	"rotated": false,
	"trimmed": true,
	"spriteSourceSize": {"x":7,"y":14,"w":220,"h":340},
	"sourceSize": {"w":254,"h":364}
},
"P15_Fruit0017.png":
{
	"frame": {"x":408,"y":594,"w":220,"h":340},
	"rotated": false,
	"trimmed": true,
	"spriteSourceSize": {"x":7,"y":14,"w":220,"h":340},
	"sourceSize": {"w":254,"h":364}
},
"P15_Fruit0018.png":
{
	"frame": {"x":1090,"y":2,"w":228,"h":304},
	"rotated": false,
	"trimmed": true,
	"spriteSourceSize": {"x":15,"y":10,"w":228,"h":304},
	"sourceSize": {"w":254,"h":364}
},
"P15_Fruit0019.png":
{
	"frame": {"x":1090,"y":2,"w":228,"h":304},
	"rotated": false,
	"trimmed": true,
	"spriteSourceSize": {"x":15,"y":10,"w":228,"h":304},
	"sourceSize": {"w":254,"h":364}
},
"P15_Fruit0020.png":
{
	"frame": {"x":2,"y":2,"w":218,"h":258},
	"rotated": false,
	"trimmed": true,
	"spriteSourceSize": {"x":29,"y":20,"w":218,"h":258},
	"sourceSize": {"w":254,"h":364}
},
"P15_Fruit0021.png":
{
	"frame": {"x":2,"y":2,"w":218,"h":258},
	"rotated": false,
	"trimmed": true,
	"spriteSourceSize": {"x":29,"y":20,"w":218,"h":258},
	"sourceSize": {"w":254,"h":364}
},
"P15_Fruit0022.png":
{
	"frame": {"x":862,"y":308,"w":194,"h":330},
	"rotated": false,
	"trimmed": true,
	"spriteSourceSize": {"x":44,"y":25,"w":194,"h":330},
	"sourceSize": {"w":254,"h":364}
},
"P15_Fruit0023.png":
{
	"frame": {"x":862,"y":308,"w":194,"h":330},
	"rotated": false,
	"trimmed": true,
	"spriteSourceSize": {"x":44,"y":25,"w":194,"h":330},
	"sourceSize": {"w":254,"h":364}
},
"P15_Fruit0024.png":
{
	"frame": {"x":846,"y":640,"w":180,"h":342},
	"rotated": false,
	"trimmed": true,
	"spriteSourceSize": {"x":43,"y":14,"w":180,"h":342},
	"sourceSize": {"w":254,"h":364}
},
"P15_Fruit0025.png":
{
	"frame": {"x":846,"y":640,"w":180,"h":342},
	"rotated": false,
	"trimmed": true,
	"spriteSourceSize": {"x":43,"y":14,"w":180,"h":342},
	"sourceSize": {"w":254,"h":364}
},
"P15_Fruit0026.png":
{
	"frame": {"x":1240,"y":650,"w":194,"h":352},
	"rotated": false,
	"trimmed": true,
	"spriteSourceSize": {"x":41,"y":9,"w":194,"h":352},
	"sourceSize": {"w":254,"h":364}
},
"P15_Fruit0027.png":
{
	"frame": {"x":1240,"y":650,"w":194,"h":352},
	"rotated": false,
	"trimmed": true,
	"spriteSourceSize": {"x":41,"y":9,"w":194,"h":352},
	"sourceSize": {"w":254,"h":364}
},
"P15_Fruit0028.png":
{
	"frame": {"x":2,"y":262,"w":204,"h":304},
	"rotated": false,
	"trimmed": true,
	"spriteSourceSize": {"x":38,"y":10,"w":204,"h":304},
	"sourceSize": {"w":254,"h":364}
},
"P15_Fruit0029.png":
{
	"frame": {"x":2,"y":262,"w":204,"h":304},
	"rotated": false,
	"trimmed": true,
	"spriteSourceSize": {"x":38,"y":10,"w":204,"h":304},
	"sourceSize": {"w":254,"h":364}
},
"P15_Fruit0030.png":
{
	"frame": {"x":222,"y":2,"w":208,"h":260},
	"rotated": false,
	"trimmed": true,
	"spriteSourceSize": {"x":35,"y":19,"w":208,"h":260},
	"sourceSize": {"w":254,"h":364}
},
"P15_Fruit0031.png":
{
	"frame": {"x":222,"y":2,"w":208,"h":260},
	"rotated": false,
	"trimmed": true,
	"spriteSourceSize": {"x":35,"y":19,"w":208,"h":260},
	"sourceSize": {"w":254,"h":364}
},
"P15_Fruit0032.png":
{
	"frame": {"x":648,"y":276,"w":212,"h":328},
	"rotated": false,
	"trimmed": true,
	"spriteSourceSize": {"x":30,"y":27,"w":212,"h":328},
	"sourceSize": {"w":254,"h":364}
},
"P15_Fruit0033.png":
{
	"frame": {"x":648,"y":276,"w":212,"h":328},
	"rotated": false,
	"trimmed": true,
	"spriteSourceSize": {"x":30,"y":27,"w":212,"h":328},
	"sourceSize": {"w":254,"h":364}
},
"P15_Fruit0034.png":
{
	"frame": {"x":1028,"y":650,"w":210,"h":342},
	"rotated": false,
	"trimmed": true,
	"spriteSourceSize": {"x":26,"y":14,"w":210,"h":342},
	"sourceSize": {"w":254,"h":364}
},
"P15_Fruit0035.png":
{
	"frame": {"x":1028,"y":650,"w":210,"h":342},
	"rotated": false,
	"trimmed": true,
	"spriteSourceSize": {"x":26,"y":14,"w":210,"h":342},
	"sourceSize": {"w":254,"h":364}
},
"P15_Fruit0036.png":
{
	"frame": {"x":630,"y":606,"w":214,"h":340},
	"rotated": false,
	"trimmed": true,
	"spriteSourceSize": {"x":24,"y":13,"w":214,"h":340},
	"sourceSize": {"w":254,"h":364}
},
"P15_Fruit0037.png":
{
	"frame": {"x":630,"y":606,"w":214,"h":340},
	"rotated": false,
	"trimmed": true,
	"spriteSourceSize": {"x":24,"y":13,"w":214,"h":340},
	"sourceSize": {"w":254,"h":364}
},
"P15_Fruit0038.png":
{
	"frame": {"x":208,"y":264,"w":210,"h":306},
	"rotated": false,
	"trimmed": true,
	"spriteSourceSize": {"x":31,"y":8,"w":210,"h":306},
	"sourceSize": {"w":254,"h":364}
},
"P15_Fruit0039.png":
{
	"frame": {"x":208,"y":264,"w":210,"h":306},
	"rotated": false,
	"trimmed": true,
	"spriteSourceSize": {"x":31,"y":8,"w":210,"h":306},
	"sourceSize": {"w":254,"h":364}
}},
"meta": {
	"app": "http://www.texturepacker.com",
	"version": "1.0",
	"image": "P15_Fruit.png",
	"format": "RGBA8888",
	"size": {"w":1436,"h":1004},
	"scale": "1",
	"smartupdate": "$TexturePacker:SmartUpdate:6dd5ee58a0ca6a0c9ade7264b419647a$"
}
}
