{"frames": {

"P04_BERRYKINS_YELLOW0000.png":
{
	"frame": {"x":2,"y":1592,"w":56,"h":90},
	"rotated": false,
	"trimmed": true,
	"spriteSourceSize": {"x":11,"y":4,"w":56,"h":90},
	"sourceSize": {"w":80,"h":104}
},
"P04_BERRYKINS_YELLOW0001.png":
{
	"frame": {"x":2,"y":1592,"w":56,"h":90},
	"rotated": false,
	"trimmed": true,
	"spriteSourceSize": {"x":11,"y":4,"w":56,"h":90},
	"sourceSize": {"w":80,"h":104}
},
"P04_BERRYKINS_YELLOW0002.png":
{
	"frame": {"x":2,"y":1500,"w":56,"h":90},
	"rotated": false,
	"trimmed": true,
	"spriteSourceSize": {"x":11,"y":4,"w":56,"h":90},
	"sourceSize": {"w":80,"h":104}
},
"P04_BERRYKINS_YELLOW0003.png":
{
	"frame": {"x":2,"y":1500,"w":56,"h":90},
	"rotated": false,
	"trimmed": true,
	"spriteSourceSize": {"x":11,"y":4,"w":56,"h":90},
	"sourceSize": {"w":80,"h":104}
},
"P04_BERRYKINS_YELLOW0004.png":
{
	"frame": {"x":2,"y":1408,"w":56,"h":90},
	"rotated": false,
	"trimmed": true,
	"spriteSourceSize": {"x":10,"y":4,"w":56,"h":90},
	"sourceSize": {"w":80,"h":104}
},
"P04_BERRYKINS_YELLOW0005.png":
{
	"frame": {"x":2,"y":1408,"w":56,"h":90},
	"rotated": false,
	"trimmed": true,
	"spriteSourceSize": {"x":10,"y":4,"w":56,"h":90},
	"sourceSize": {"w":80,"h":104}
},
"P04_BERRYKINS_YELLOW0006.png":
{
	"frame": {"x":2,"y":1684,"w":56,"h":88},
	"rotated": false,
	"trimmed": true,
	"spriteSourceSize": {"x":10,"y":5,"w":56,"h":88},
	"sourceSize": {"w":80,"h":104}
},
"P04_BERRYKINS_YELLOW0007.png":
{
	"frame": {"x":2,"y":1684,"w":56,"h":88},
	"rotated": false,
	"trimmed": true,
	"spriteSourceSize": {"x":10,"y":5,"w":56,"h":88},
	"sourceSize": {"w":80,"h":104}
},
"P04_BERRYKINS_YELLOW0008.png":
{
	"frame": {"x":2,"y":1316,"w":56,"h":90},
	"rotated": false,
	"trimmed": true,
	"spriteSourceSize": {"x":10,"y":3,"w":56,"h":90},
	"sourceSize": {"w":80,"h":104}
},
"P04_BERRYKINS_YELLOW0009.png":
{
	"frame": {"x":2,"y":1316,"w":56,"h":90},
	"rotated": false,
	"trimmed": true,
	"spriteSourceSize": {"x":10,"y":3,"w":56,"h":90},
	"sourceSize": {"w":80,"h":104}
},
"P04_BERRYKINS_YELLOW0010.png":
{
	"frame": {"x":2,"y":184,"w":58,"h":92},
	"rotated": false,
	"trimmed": true,
	"spriteSourceSize": {"x":6,"y":1,"w":58,"h":92},
	"sourceSize": {"w":80,"h":104}
},
"P04_BERRYKINS_YELLOW0011.png":
{
	"frame": {"x":2,"y":184,"w":58,"h":92},
	"rotated": false,
	"trimmed": true,
	"spriteSourceSize": {"x":6,"y":1,"w":58,"h":92},
	"sourceSize": {"w":80,"h":104}
},
"P04_BERRYKINS_YELLOW0012.png":
{
	"frame": {"x":2,"y":564,"w":56,"h":94},
	"rotated": false,
	"trimmed": true,
	"spriteSourceSize": {"x":4,"y":0,"w":56,"h":94},
	"sourceSize": {"w":80,"h":104}
},
"P04_BERRYKINS_YELLOW0013.png":
{
	"frame": {"x":2,"y":564,"w":56,"h":94},
	"rotated": false,
	"trimmed": true,
	"spriteSourceSize": {"x":4,"y":0,"w":56,"h":94},
	"sourceSize": {"w":80,"h":104}
},
"P04_BERRYKINS_YELLOW0014.png":
{
	"frame": {"x":2,"y":1130,"w":56,"h":92},
	"rotated": false,
	"trimmed": true,
	"spriteSourceSize": {"x":0,"y":1,"w":56,"h":92},
	"sourceSize": {"w":80,"h":104}
},
"P04_BERRYKINS_YELLOW0015.png":
{
	"frame": {"x":2,"y":1130,"w":56,"h":92},
	"rotated": false,
	"trimmed": true,
	"spriteSourceSize": {"x":0,"y":1,"w":56,"h":92},
	"sourceSize": {"w":80,"h":104}
},
"P04_BERRYKINS_YELLOW0016.png":
{
	"frame": {"x":2,"y":1036,"w":56,"h":92},
	"rotated": false,
	"trimmed": true,
	"spriteSourceSize": {"x":0,"y":1,"w":56,"h":92},
	"sourceSize": {"w":80,"h":104}
},
"P04_BERRYKINS_YELLOW0017.png":
{
	"frame": {"x":2,"y":1036,"w":56,"h":92},
	"rotated": false,
	"trimmed": true,
	"spriteSourceSize": {"x":0,"y":1,"w":56,"h":92},
	"sourceSize": {"w":80,"h":104}
},
"P04_BERRYKINS_YELLOW0018.png":
{
	"frame": {"x":2,"y":468,"w":56,"h":94},
	"rotated": false,
	"trimmed": true,
	"spriteSourceSize": {"x":4,"y":0,"w":56,"h":94},
	"sourceSize": {"w":80,"h":104}
},
"P04_BERRYKINS_YELLOW0019.png":
{
	"frame": {"x":2,"y":468,"w":56,"h":94},
	"rotated": false,
	"trimmed": true,
	"spriteSourceSize": {"x":4,"y":0,"w":56,"h":94},
	"sourceSize": {"w":80,"h":104}
},
"P04_BERRYKINS_YELLOW0020.png":
{
	"frame": {"x":2,"y":370,"w":56,"h":96},
	"rotated": false,
	"trimmed": true,
	"spriteSourceSize": {"x":6,"y":0,"w":56,"h":96},
	"sourceSize": {"w":80,"h":104}
},
"P04_BERRYKINS_YELLOW0021.png":
{
	"frame": {"x":2,"y":370,"w":56,"h":96},
	"rotated": false,
	"trimmed": true,
	"spriteSourceSize": {"x":6,"y":0,"w":56,"h":96},
	"sourceSize": {"w":80,"h":104}
},
"P04_BERRYKINS_YELLOW0022.png":
{
	"frame": {"x":2,"y":942,"w":56,"h":92},
	"rotated": false,
	"trimmed": true,
	"spriteSourceSize": {"x":8,"y":2,"w":56,"h":92},
	"sourceSize": {"w":80,"h":104}
},
"P04_BERRYKINS_YELLOW0023.png":
{
	"frame": {"x":2,"y":942,"w":56,"h":92},
	"rotated": false,
	"trimmed": true,
	"spriteSourceSize": {"x":8,"y":2,"w":56,"h":92},
	"sourceSize": {"w":80,"h":104}
},
"P04_BERRYKINS_YELLOW0024.png":
{
	"frame": {"x":2,"y":1684,"w":56,"h":88},
	"rotated": false,
	"trimmed": true,
	"spriteSourceSize": {"x":10,"y":5,"w":56,"h":88},
	"sourceSize": {"w":80,"h":104}
},
"P04_BERRYKINS_YELLOW0025.png":
{
	"frame": {"x":2,"y":1684,"w":56,"h":88},
	"rotated": false,
	"trimmed": true,
	"spriteSourceSize": {"x":10,"y":5,"w":56,"h":88},
	"sourceSize": {"w":80,"h":104}
},
"P04_BERRYKINS_YELLOW0026.png":
{
	"frame": {"x":2,"y":1408,"w":56,"h":90},
	"rotated": false,
	"trimmed": true,
	"spriteSourceSize": {"x":10,"y":4,"w":56,"h":90},
	"sourceSize": {"w":80,"h":104}
},
"P04_BERRYKINS_YELLOW0027.png":
{
	"frame": {"x":2,"y":1408,"w":56,"h":90},
	"rotated": false,
	"trimmed": true,
	"spriteSourceSize": {"x":10,"y":4,"w":56,"h":90},
	"sourceSize": {"w":80,"h":104}
},
"P04_BERRYKINS_YELLOW0028.png":
{
	"frame": {"x":2,"y":1500,"w":56,"h":90},
	"rotated": false,
	"trimmed": true,
	"spriteSourceSize": {"x":11,"y":4,"w":56,"h":90},
	"sourceSize": {"w":80,"h":104}
},
"P04_BERRYKINS_YELLOW0029.png":
{
	"frame": {"x":2,"y":1500,"w":56,"h":90},
	"rotated": false,
	"trimmed": true,
	"spriteSourceSize": {"x":11,"y":4,"w":56,"h":90},
	"sourceSize": {"w":80,"h":104}
},
"P04_BERRYKINS_YELLOW0030.png":
{
	"frame": {"x":2,"y":1592,"w":56,"h":90},
	"rotated": false,
	"trimmed": true,
	"spriteSourceSize": {"x":11,"y":4,"w":56,"h":90},
	"sourceSize": {"w":80,"h":104}
},
"P04_BERRYKINS_YELLOW0031.png":
{
	"frame": {"x":2,"y":1592,"w":56,"h":90},
	"rotated": false,
	"trimmed": true,
	"spriteSourceSize": {"x":11,"y":4,"w":56,"h":90},
	"sourceSize": {"w":80,"h":104}
},
"P04_BERRYKINS_YELLOW0032.png":
{
	"frame": {"x":2,"y":1592,"w":56,"h":90},
	"rotated": false,
	"trimmed": true,
	"spriteSourceSize": {"x":11,"y":4,"w":56,"h":90},
	"sourceSize": {"w":80,"h":104}
},
"P04_BERRYKINS_YELLOW0033.png":
{
	"frame": {"x":2,"y":1592,"w":56,"h":90},
	"rotated": false,
	"trimmed": true,
	"spriteSourceSize": {"x":11,"y":4,"w":56,"h":90},
	"sourceSize": {"w":80,"h":104}
},
"P04_BERRYKINS_YELLOW0034.png":
{
	"frame": {"x":2,"y":848,"w":56,"h":92},
	"rotated": false,
	"trimmed": true,
	"spriteSourceSize": {"x":11,"y":2,"w":56,"h":92},
	"sourceSize": {"w":80,"h":104}
},
"P04_BERRYKINS_YELLOW0035.png":
{
	"frame": {"x":2,"y":848,"w":56,"h":92},
	"rotated": false,
	"trimmed": true,
	"spriteSourceSize": {"x":11,"y":2,"w":56,"h":92},
	"sourceSize": {"w":80,"h":104}
},
"P04_BERRYKINS_YELLOW0036.png":
{
	"frame": {"x":2,"y":754,"w":56,"h":92},
	"rotated": false,
	"trimmed": true,
	"spriteSourceSize": {"x":12,"y":2,"w":56,"h":92},
	"sourceSize": {"w":80,"h":104}
},
"P04_BERRYKINS_YELLOW0037.png":
{
	"frame": {"x":2,"y":754,"w":56,"h":92},
	"rotated": false,
	"trimmed": true,
	"spriteSourceSize": {"x":12,"y":2,"w":56,"h":92},
	"sourceSize": {"w":80,"h":104}
},
"P04_BERRYKINS_YELLOW0038.png":
{
	"frame": {"x":2,"y":660,"w":56,"h":92},
	"rotated": false,
	"trimmed": true,
	"spriteSourceSize": {"x":13,"y":2,"w":56,"h":92},
	"sourceSize": {"w":80,"h":104}
},
"P04_BERRYKINS_YELLOW0039.png":
{
	"frame": {"x":2,"y":660,"w":56,"h":92},
	"rotated": false,
	"trimmed": true,
	"spriteSourceSize": {"x":13,"y":2,"w":56,"h":92},
	"sourceSize": {"w":80,"h":104}
},
"P04_BERRYKINS_YELLOW0040.png":
{
	"frame": {"x":2,"y":1224,"w":56,"h":90},
	"rotated": false,
	"trimmed": true,
	"spriteSourceSize": {"x":9,"y":4,"w":56,"h":90},
	"sourceSize": {"w":80,"h":104}
},
"P04_BERRYKINS_YELLOW0041.png":
{
	"frame": {"x":2,"y":1224,"w":56,"h":90},
	"rotated": false,
	"trimmed": true,
	"spriteSourceSize": {"x":9,"y":4,"w":56,"h":90},
	"sourceSize": {"w":80,"h":104}
},
"P04_BERRYKINS_YELLOW0042.png":
{
	"frame": {"x":2,"y":94,"w":60,"h":88},
	"rotated": false,
	"trimmed": true,
	"spriteSourceSize": {"x":6,"y":6,"w":60,"h":88},
	"sourceSize": {"w":80,"h":104}
},
"P04_BERRYKINS_YELLOW0043.png":
{
	"frame": {"x":2,"y":94,"w":60,"h":88},
	"rotated": false,
	"trimmed": true,
	"spriteSourceSize": {"x":6,"y":6,"w":60,"h":88},
	"sourceSize": {"w":80,"h":104}
},
"P04_BERRYKINS_YELLOW0044.png":
{
	"frame": {"x":2,"y":2,"w":60,"h":90},
	"rotated": false,
	"trimmed": true,
	"spriteSourceSize": {"x":6,"y":4,"w":60,"h":90},
	"sourceSize": {"w":80,"h":104}
},
"P04_BERRYKINS_YELLOW0045.png":
{
	"frame": {"x":2,"y":2,"w":60,"h":90},
	"rotated": false,
	"trimmed": true,
	"spriteSourceSize": {"x":6,"y":4,"w":60,"h":90},
	"sourceSize": {"w":80,"h":104}
},
"P04_BERRYKINS_YELLOW0046.png":
{
	"frame": {"x":2,"y":278,"w":58,"h":90},
	"rotated": false,
	"trimmed": true,
	"spriteSourceSize": {"x":7,"y":4,"w":58,"h":90},
	"sourceSize": {"w":80,"h":104}
},
"P04_BERRYKINS_YELLOW0047.png":
{
	"frame": {"x":2,"y":278,"w":58,"h":90},
	"rotated": false,
	"trimmed": true,
	"spriteSourceSize": {"x":7,"y":4,"w":58,"h":90},
	"sourceSize": {"w":80,"h":104}
},
"P04_BERRYKINS_YELLOW0048.png":
{
	"frame": {"x":2,"y":278,"w":58,"h":90},
	"rotated": false,
	"trimmed": true,
	"spriteSourceSize": {"x":7,"y":4,"w":58,"h":90},
	"sourceSize": {"w":80,"h":104}
},
"P04_BERRYKINS_YELLOW0049.png":
{
	"frame": {"x":2,"y":278,"w":58,"h":90},
	"rotated": false,
	"trimmed": true,
	"spriteSourceSize": {"x":7,"y":4,"w":58,"h":90},
	"sourceSize": {"w":80,"h":104}
},
"P04_BERRYKINS_YELLOW0050.png":
{
	"frame": {"x":2,"y":278,"w":58,"h":90},
	"rotated": false,
	"trimmed": true,
	"spriteSourceSize": {"x":7,"y":4,"w":58,"h":90},
	"sourceSize": {"w":80,"h":104}
},
"P04_BERRYKINS_YELLOW0051.png":
{
	"frame": {"x":2,"y":278,"w":58,"h":90},
	"rotated": false,
	"trimmed": true,
	"spriteSourceSize": {"x":7,"y":4,"w":58,"h":90},
	"sourceSize": {"w":80,"h":104}
},
"P04_BERRYKINS_YELLOW0052.png":
{
	"frame": {"x":2,"y":278,"w":58,"h":90},
	"rotated": false,
	"trimmed": true,
	"spriteSourceSize": {"x":7,"y":4,"w":58,"h":90},
	"sourceSize": {"w":80,"h":104}
},
"P04_BERRYKINS_YELLOW0053.png":
{
	"frame": {"x":2,"y":278,"w":58,"h":90},
	"rotated": false,
	"trimmed": true,
	"spriteSourceSize": {"x":7,"y":4,"w":58,"h":90},
	"sourceSize": {"w":80,"h":104}
},
"P04_BERRYKINS_YELLOW0054.png":
{
	"frame": {"x":2,"y":2,"w":60,"h":90},
	"rotated": false,
	"trimmed": true,
	"spriteSourceSize": {"x":6,"y":4,"w":60,"h":90},
	"sourceSize": {"w":80,"h":104}
},
"P04_BERRYKINS_YELLOW0055.png":
{
	"frame": {"x":2,"y":2,"w":60,"h":90},
	"rotated": false,
	"trimmed": true,
	"spriteSourceSize": {"x":6,"y":4,"w":60,"h":90},
	"sourceSize": {"w":80,"h":104}
},
"P04_BERRYKINS_YELLOW0056.png":
{
	"frame": {"x":2,"y":94,"w":60,"h":88},
	"rotated": false,
	"trimmed": true,
	"spriteSourceSize": {"x":6,"y":6,"w":60,"h":88},
	"sourceSize": {"w":80,"h":104}
},
"P04_BERRYKINS_YELLOW0057.png":
{
	"frame": {"x":2,"y":94,"w":60,"h":88},
	"rotated": false,
	"trimmed": true,
	"spriteSourceSize": {"x":6,"y":6,"w":60,"h":88},
	"sourceSize": {"w":80,"h":104}
},
"P04_BERRYKINS_YELLOW0058.png":
{
	"frame": {"x":2,"y":1224,"w":56,"h":90},
	"rotated": false,
	"trimmed": true,
	"spriteSourceSize": {"x":9,"y":4,"w":56,"h":90},
	"sourceSize": {"w":80,"h":104}
},
"P04_BERRYKINS_YELLOW0059.png":
{
	"frame": {"x":2,"y":1224,"w":56,"h":90},
	"rotated": false,
	"trimmed": true,
	"spriteSourceSize": {"x":9,"y":4,"w":56,"h":90},
	"sourceSize": {"w":80,"h":104}
},
"P04_BERRYKINS_YELLOW0060.png":
{
	"frame": {"x":2,"y":660,"w":56,"h":92},
	"rotated": false,
	"trimmed": true,
	"spriteSourceSize": {"x":13,"y":2,"w":56,"h":92},
	"sourceSize": {"w":80,"h":104}
},
"P04_BERRYKINS_YELLOW0061.png":
{
	"frame": {"x":2,"y":660,"w":56,"h":92},
	"rotated": false,
	"trimmed": true,
	"spriteSourceSize": {"x":13,"y":2,"w":56,"h":92},
	"sourceSize": {"w":80,"h":104}
},
"P04_BERRYKINS_YELLOW0062.png":
{
	"frame": {"x":2,"y":754,"w":56,"h":92},
	"rotated": false,
	"trimmed": true,
	"spriteSourceSize": {"x":12,"y":2,"w":56,"h":92},
	"sourceSize": {"w":80,"h":104}
},
"P04_BERRYKINS_YELLOW0063.png":
{
	"frame": {"x":2,"y":754,"w":56,"h":92},
	"rotated": false,
	"trimmed": true,
	"spriteSourceSize": {"x":12,"y":2,"w":56,"h":92},
	"sourceSize": {"w":80,"h":104}
},
"P04_BERRYKINS_YELLOW0064.png":
{
	"frame": {"x":2,"y":848,"w":56,"h":92},
	"rotated": false,
	"trimmed": true,
	"spriteSourceSize": {"x":11,"y":2,"w":56,"h":92},
	"sourceSize": {"w":80,"h":104}
},
"P04_BERRYKINS_YELLOW0065.png":
{
	"frame": {"x":2,"y":848,"w":56,"h":92},
	"rotated": false,
	"trimmed": true,
	"spriteSourceSize": {"x":11,"y":2,"w":56,"h":92},
	"sourceSize": {"w":80,"h":104}
},
"P04_BERRYKINS_YELLOW0066.png":
{
	"frame": {"x":2,"y":1592,"w":56,"h":90},
	"rotated": false,
	"trimmed": true,
	"spriteSourceSize": {"x":11,"y":4,"w":56,"h":90},
	"sourceSize": {"w":80,"h":104}
},
"P04_BERRYKINS_YELLOW0067.png":
{
	"frame": {"x":2,"y":1592,"w":56,"h":90},
	"rotated": false,
	"trimmed": true,
	"spriteSourceSize": {"x":11,"y":4,"w":56,"h":90},
	"sourceSize": {"w":80,"h":104}
}},
"meta": {
	"app": "http://www.texturepacker.com",
	"version": "1.0",
	"image": "P04_BERRYKINS_YELLOW.png",
	"format": "RGBA8888",
	"size": {"w":64,"h":1774},
	"scale": "1",
	"smartupdate": "$TexturePacker:SmartUpdate:c3683b9a0858543836da84e245032591$"
}
}
