{"frames": {

"P04_DOOR0000.png":
{
	"frame": {"x":1552,"y":2,"w":224,"h":450},
	"rotated": false,
	"trimmed": true,
	"spriteSourceSize": {"x":0,"y":21,"w":224,"h":450},
	"sourceSize": {"w":224,"h":514}
},
"P04_DOOR0001.png":
{
	"frame": {"x":1552,"y":2,"w":224,"h":450},
	"rotated": false,
	"trimmed": true,
	"spriteSourceSize": {"x":0,"y":21,"w":224,"h":450},
	"sourceSize": {"w":224,"h":514}
},
"P04_DOOR0002.png":
{
	"frame": {"x":1328,"y":2,"w":222,"h":480},
	"rotated": false,
	"trimmed": true,
	"spriteSourceSize": {"x":0,"y":16,"w":222,"h":480},
	"sourceSize": {"w":224,"h":514}
},
"P04_DOOR0003.png":
{
	"frame": {"x":1328,"y":2,"w":222,"h":480},
	"rotated": false,
	"trimmed": true,
	"spriteSourceSize": {"x":0,"y":16,"w":222,"h":480},
	"sourceSize": {"w":224,"h":514}
},
"P04_DOOR0004.png":
{
	"frame": {"x":1106,"y":2,"w":220,"h":492},
	"rotated": false,
	"trimmed": true,
	"spriteSourceSize": {"x":0,"y":13,"w":220,"h":492},
	"sourceSize": {"w":224,"h":514}
},
"P04_DOOR0005.png":
{
	"frame": {"x":1106,"y":2,"w":220,"h":492},
	"rotated": false,
	"trimmed": true,
	"spriteSourceSize": {"x":0,"y":13,"w":220,"h":492},
	"sourceSize": {"w":224,"h":514}
},
"P04_DOOR0006.png":
{
	"frame": {"x":884,"y":2,"w":220,"h":500},
	"rotated": false,
	"trimmed": true,
	"spriteSourceSize": {"x":0,"y":10,"w":220,"h":500},
	"sourceSize": {"w":224,"h":514}
},
"P04_DOOR0007.png":
{
	"frame": {"x":884,"y":2,"w":220,"h":500},
	"rotated": false,
	"trimmed": true,
	"spriteSourceSize": {"x":0,"y":10,"w":220,"h":500},
	"sourceSize": {"w":224,"h":514}
},
"P04_DOOR0008.png":
{
	"frame": {"x":442,"y":2,"w":218,"h":504},
	"rotated": false,
	"trimmed": true,
	"spriteSourceSize": {"x":0,"y":9,"w":218,"h":504},
	"sourceSize": {"w":224,"h":514}
},
"P04_DOOR0009.png":
{
	"frame": {"x":442,"y":2,"w":218,"h":504},
	"rotated": false,
	"trimmed": true,
	"spriteSourceSize": {"x":0,"y":9,"w":218,"h":504},
	"sourceSize": {"w":224,"h":514}
},
"P04_DOOR0010.png":
{
	"frame": {"x":2,"y":2,"w":218,"h":506},
	"rotated": false,
	"trimmed": true,
	"spriteSourceSize": {"x":0,"y":8,"w":218,"h":506},
	"sourceSize": {"w":224,"h":514}
},
"P04_DOOR0011.png":
{
	"frame": {"x":2,"y":2,"w":218,"h":506},
	"rotated": false,
	"trimmed": true,
	"spriteSourceSize": {"x":0,"y":8,"w":218,"h":506},
	"sourceSize": {"w":224,"h":514}
},
"P04_DOOR0012.png":
{
	"frame": {"x":222,"y":2,"w":218,"h":504},
	"rotated": false,
	"trimmed": true,
	"spriteSourceSize": {"x":0,"y":10,"w":218,"h":504},
	"sourceSize": {"w":224,"h":514}
},
"P04_DOOR0013.png":
{
	"frame": {"x":222,"y":2,"w":218,"h":504},
	"rotated": false,
	"trimmed": true,
	"spriteSourceSize": {"x":0,"y":10,"w":218,"h":504},
	"sourceSize": {"w":224,"h":514}
},
"P04_DOOR0014.png":
{
	"frame": {"x":662,"y":2,"w":220,"h":500},
	"rotated": false,
	"trimmed": true,
	"spriteSourceSize": {"x":0,"y":10,"w":220,"h":500},
	"sourceSize": {"w":224,"h":514}
},
"P04_DOOR0015.png":
{
	"frame": {"x":662,"y":2,"w":220,"h":500},
	"rotated": false,
	"trimmed": true,
	"spriteSourceSize": {"x":0,"y":10,"w":220,"h":500},
	"sourceSize": {"w":224,"h":514}
},
"P04_DOOR0016.png":
{
	"frame": {"x":222,"y":2,"w":218,"h":504},
	"rotated": false,
	"trimmed": true,
	"spriteSourceSize": {"x":0,"y":10,"w":218,"h":504},
	"sourceSize": {"w":224,"h":514}
},
"P04_DOOR0017.png":
{
	"frame": {"x":222,"y":2,"w":218,"h":504},
	"rotated": false,
	"trimmed": true,
	"spriteSourceSize": {"x":0,"y":10,"w":218,"h":504},
	"sourceSize": {"w":224,"h":514}
},
"P04_DOOR0018.png":
{
	"frame": {"x":2,"y":2,"w":218,"h":506},
	"rotated": false,
	"trimmed": true,
	"spriteSourceSize": {"x":0,"y":8,"w":218,"h":506},
	"sourceSize": {"w":224,"h":514}
},
"P04_DOOR0019.png":
{
	"frame": {"x":2,"y":2,"w":218,"h":506},
	"rotated": false,
	"trimmed": true,
	"spriteSourceSize": {"x":0,"y":8,"w":218,"h":506},
	"sourceSize": {"w":224,"h":514}
},
"P04_DOOR0020.png":
{
	"frame": {"x":442,"y":2,"w":218,"h":504},
	"rotated": false,
	"trimmed": true,
	"spriteSourceSize": {"x":0,"y":9,"w":218,"h":504},
	"sourceSize": {"w":224,"h":514}
},
"P04_DOOR0021.png":
{
	"frame": {"x":442,"y":2,"w":218,"h":504},
	"rotated": false,
	"trimmed": true,
	"spriteSourceSize": {"x":0,"y":9,"w":218,"h":504},
	"sourceSize": {"w":224,"h":514}
},
"P04_DOOR0022.png":
{
	"frame": {"x":884,"y":2,"w":220,"h":500},
	"rotated": false,
	"trimmed": true,
	"spriteSourceSize": {"x":0,"y":10,"w":220,"h":500},
	"sourceSize": {"w":224,"h":514}
},
"P04_DOOR0023.png":
{
	"frame": {"x":884,"y":2,"w":220,"h":500},
	"rotated": false,
	"trimmed": true,
	"spriteSourceSize": {"x":0,"y":10,"w":220,"h":500},
	"sourceSize": {"w":224,"h":514}
},
"P04_DOOR0024.png":
{
	"frame": {"x":1106,"y":2,"w":220,"h":492},
	"rotated": false,
	"trimmed": true,
	"spriteSourceSize": {"x":0,"y":13,"w":220,"h":492},
	"sourceSize": {"w":224,"h":514}
},
"P04_DOOR0025.png":
{
	"frame": {"x":1106,"y":2,"w":220,"h":492},
	"rotated": false,
	"trimmed": true,
	"spriteSourceSize": {"x":0,"y":13,"w":220,"h":492},
	"sourceSize": {"w":224,"h":514}
},
"P04_DOOR0026.png":
{
	"frame": {"x":1328,"y":2,"w":222,"h":480},
	"rotated": false,
	"trimmed": true,
	"spriteSourceSize": {"x":0,"y":16,"w":222,"h":480},
	"sourceSize": {"w":224,"h":514}
},
"P04_DOOR0027.png":
{
	"frame": {"x":1328,"y":2,"w":222,"h":480},
	"rotated": false,
	"trimmed": true,
	"spriteSourceSize": {"x":0,"y":16,"w":222,"h":480},
	"sourceSize": {"w":224,"h":514}
},
"P04_DOOR0028.png":
{
	"frame": {"x":1552,"y":2,"w":224,"h":450},
	"rotated": false,
	"trimmed": true,
	"spriteSourceSize": {"x":0,"y":21,"w":224,"h":450},
	"sourceSize": {"w":224,"h":514}
},
"P04_DOOR0029.png":
{
	"frame": {"x":1552,"y":2,"w":224,"h":450},
	"rotated": false,
	"trimmed": true,
	"spriteSourceSize": {"x":0,"y":21,"w":224,"h":450},
	"sourceSize": {"w":224,"h":514}
}},
"meta": {
	"app": "http://www.texturepacker.com",
	"version": "1.0",
	"image": "P04_DOOR.png",
	"format": "RGBA8888",
	"size": {"w":1778,"h":510},
	"scale": "1",
	"smartupdate": "$TexturePacker:SmartUpdate:d4b3fc4b6722ea3bb157f8714605484c$"
}
}
