{"frames": {

"P04_BERRYKINS_PINK_0001.png":
{
	"frame": {"x":810,"y":1472,"w":56,"h":90},
	"rotated": true,
	"trimmed": true,
	"spriteSourceSize": {"x":7,"y":5,"w":56,"h":90},
	"sourceSize": {"w":78,"h":96}
},
"P04_BERRYKINS_PINK_POPPER.png":
{
	"frame": {"x":868,"y":1380,"w":56,"h":86},
	"rotated": false,
	"trimmed": true,
	"spriteSourceSize": {"x":15,"y":8,"w":56,"h":86},
	"sourceSize": {"w":80,"h":102}
},
"P04_BERRYKINS_PURPLE_0001.png":
{
	"frame": {"x":810,"y":1380,"w":56,"h":90},
	"rotated": false,
	"trimmed": true,
	"spriteSourceSize": {"x":2,"y":4,"w":56,"h":90},
	"sourceSize": {"w":70,"h":96}
},
"P04_BERRYKINS_PURPLE_POPPER.png":
{
	"frame": {"x":902,"y":1322,"w":56,"h":90},
	"rotated": true,
	"trimmed": true,
	"spriteSourceSize": {"x":4,"y":2,"w":56,"h":90},
	"sourceSize": {"w":68,"h":96}
},
"P04_BERRYKINS_YELLOW_0001.png":
{
	"frame": {"x":810,"y":1322,"w":56,"h":90},
	"rotated": true,
	"trimmed": true,
	"spriteSourceSize": {"x":11,"y":4,"w":56,"h":90},
	"sourceSize": {"w":80,"h":104}
},
"P04_BG_01.png":
{
	"frame": {"x":2,"y":2,"w":1366,"h":768},
	"rotated": true,
	"trimmed": false,
	"spriteSourceSize": {"x":0,"y":0,"w":1366,"h":768},
	"sourceSize": {"w":1366,"h":768}
},
"P04_BLUEBERRY_0001.png":
{
	"frame": {"x":2,"y":1370,"w":184,"h":398},
	"rotated": true,
	"trimmed": true,
	"spriteSourceSize": {"x":20,"y":4,"w":184,"h":398},
	"sourceSize": {"w":216,"h":402}
},
"P04_BLUEBERRY_0002.png":
{
	"frame": {"x":810,"y":924,"w":202,"h":396},
	"rotated": false,
	"trimmed": true,
	"spriteSourceSize": {"x":0,"y":6,"w":202,"h":396},
	"sourceSize": {"w":216,"h":402}
},
"P04_CLOCK_HAND_01.png":
{
	"frame": {"x":998,"y":514,"w":14,"h":28},
	"rotated": false,
	"trimmed": false,
	"spriteSourceSize": {"x":0,"y":0,"w":14,"h":28},
	"sourceSize": {"w":14,"h":28}
},
"P04_CLOCK_HAND_02.png":
{
	"frame": {"x":998,"y":472,"w":14,"h":40},
	"rotated": false,
	"trimmed": false,
	"spriteSourceSize": {"x":0,"y":0,"w":14,"h":40},
	"sourceSize": {"w":14,"h":40}
},
"P04_DOOR_0001.png":
{
	"frame": {"x":772,"y":472,"w":224,"h":450},
	"rotated": false,
	"trimmed": true,
	"spriteSourceSize": {"x":0,"y":21,"w":224,"h":450},
	"sourceSize": {"w":224,"h":514}
},
"P04_PAGES_0001.png":
{
	"frame": {"x":1014,"y":472,"w":1,"h":1},
	"rotated": false,
	"trimmed": true,
	"spriteSourceSize": {"x":0,"y":0,"w":1,"h":1},
	"sourceSize": {"w":68,"h":38}
},
"P04_STRAWBERRY_0017.png":
{
	"frame": {"x":402,"y":1370,"w":138,"h":406},
	"rotated": true,
	"trimmed": true,
	"spriteSourceSize": {"x":0,"y":31,"w":138,"h":406},
	"sourceSize": {"w":170,"h":444}
},
"P04_TABLE.png":
{
	"frame": {"x":772,"y":2,"w":468,"h":248},
	"rotated": true,
	"trimmed": false,
	"spriteSourceSize": {"x":0,"y":0,"w":468,"h":248},
	"sourceSize": {"w":468,"h":248}
}},
"meta": {
	"app": "http://www.codeandweb.com/texturepacker ",
	"version": "1.0",
	"image": "Page.png",
	"format": "RGBA8888",
	"size": {"w":1022,"h":1556},
	"scale": "1",
	"smartupdate": "$TexturePacker:SmartUpdate:8ea5ced2e244a72249d1f5f530cab14b$"
}
}
