{"frames": {

"P12_SPARKLE_010000.png":
{
	"frame": {"x":266,"y":38,"w":14,"h":16},
	"rotated": false,
	"trimmed": true,
	"spriteSourceSize": {"x":21,"y":19,"w":14,"h":16},
	"sourceSize": {"w":56,"h":56}
},
"P12_SPARKLE_010001.png":
{
	"frame": {"x":266,"y":38,"w":14,"h":16},
	"rotated": false,
	"trimmed": true,
	"spriteSourceSize": {"x":21,"y":19,"w":14,"h":16},
	"sourceSize": {"w":56,"h":56}
},
"P12_SPARKLE_010002.png":
{
	"frame": {"x":302,"y":2,"w":24,"h":24},
	"rotated": false,
	"trimmed": true,
	"spriteSourceSize": {"x":15,"y":15,"w":24,"h":24},
	"sourceSize": {"w":56,"h":56}
},
"P12_SPARKLE_010003.png":
{
	"frame": {"x":302,"y":2,"w":24,"h":24},
	"rotated": false,
	"trimmed": true,
	"spriteSourceSize": {"x":15,"y":15,"w":24,"h":24},
	"sourceSize": {"w":56,"h":56}
},
"P12_SPARKLE_010004.png":
{
	"frame": {"x":266,"y":2,"w":34,"h":34},
	"rotated": false,
	"trimmed": true,
	"spriteSourceSize": {"x":9,"y":9,"w":34,"h":34},
	"sourceSize": {"w":56,"h":56}
},
"P12_SPARKLE_010005.png":
{
	"frame": {"x":266,"y":2,"w":34,"h":34},
	"rotated": false,
	"trimmed": true,
	"spriteSourceSize": {"x":9,"y":9,"w":34,"h":34},
	"sourceSize": {"w":56,"h":56}
},
"P12_SPARKLE_010006.png":
{
	"frame": {"x":220,"y":2,"w":44,"h":44},
	"rotated": false,
	"trimmed": true,
	"spriteSourceSize": {"x":5,"y":4,"w":44,"h":44},
	"sourceSize": {"w":56,"h":56}
},
"P12_SPARKLE_010007.png":
{
	"frame": {"x":220,"y":2,"w":44,"h":44},
	"rotated": false,
	"trimmed": true,
	"spriteSourceSize": {"x":5,"y":4,"w":44,"h":44},
	"sourceSize": {"w":56,"h":56}
},
"P12_SPARKLE_010008.png":
{
	"frame": {"x":2,"y":2,"w":54,"h":54},
	"rotated": false,
	"trimmed": true,
	"spriteSourceSize": {"x":1,"y":0,"w":54,"h":54},
	"sourceSize": {"w":56,"h":56}
},
"P12_SPARKLE_010009.png":
{
	"frame": {"x":2,"y":2,"w":54,"h":54},
	"rotated": false,
	"trimmed": true,
	"spriteSourceSize": {"x":1,"y":0,"w":54,"h":54},
	"sourceSize": {"w":56,"h":56}
},
"P12_SPARKLE_010010.png":
{
	"frame": {"x":166,"y":2,"w":52,"h":52},
	"rotated": false,
	"trimmed": true,
	"spriteSourceSize": {"x":1,"y":2,"w":52,"h":52},
	"sourceSize": {"w":56,"h":56}
},
"P12_SPARKLE_010011.png":
{
	"frame": {"x":166,"y":2,"w":52,"h":52},
	"rotated": false,
	"trimmed": true,
	"spriteSourceSize": {"x":1,"y":2,"w":52,"h":52},
	"sourceSize": {"w":56,"h":56}
},
"P12_SPARKLE_010012.png":
{
	"frame": {"x":58,"y":2,"w":52,"h":54},
	"rotated": false,
	"trimmed": true,
	"spriteSourceSize": {"x":0,"y":0,"w":52,"h":54},
	"sourceSize": {"w":56,"h":56}
},
"P12_SPARKLE_010013.png":
{
	"frame": {"x":58,"y":2,"w":52,"h":54},
	"rotated": false,
	"trimmed": true,
	"spriteSourceSize": {"x":0,"y":0,"w":52,"h":54},
	"sourceSize": {"w":56,"h":56}
},
"P12_SPARKLE_010014.png":
{
	"frame": {"x":112,"y":2,"w":52,"h":52},
	"rotated": false,
	"trimmed": true,
	"spriteSourceSize": {"x":2,"y":1,"w":52,"h":52},
	"sourceSize": {"w":56,"h":56}
},
"P12_SPARKLE_010015.png":
{
	"frame": {"x":112,"y":2,"w":52,"h":52},
	"rotated": false,
	"trimmed": true,
	"spriteSourceSize": {"x":2,"y":1,"w":52,"h":52},
	"sourceSize": {"w":56,"h":56}
},
"P12_SPARKLE_010016.png":
{
	"frame": {"x":2,"y":2,"w":54,"h":54},
	"rotated": false,
	"trimmed": true,
	"spriteSourceSize": {"x":1,"y":0,"w":54,"h":54},
	"sourceSize": {"w":56,"h":56}
},
"P12_SPARKLE_010017.png":
{
	"frame": {"x":2,"y":2,"w":54,"h":54},
	"rotated": false,
	"trimmed": true,
	"spriteSourceSize": {"x":1,"y":0,"w":54,"h":54},
	"sourceSize": {"w":56,"h":56}
},
"P12_SPARKLE_010018.png":
{
	"frame": {"x":220,"y":2,"w":44,"h":44},
	"rotated": false,
	"trimmed": true,
	"spriteSourceSize": {"x":5,"y":4,"w":44,"h":44},
	"sourceSize": {"w":56,"h":56}
},
"P12_SPARKLE_010019.png":
{
	"frame": {"x":220,"y":2,"w":44,"h":44},
	"rotated": false,
	"trimmed": true,
	"spriteSourceSize": {"x":5,"y":4,"w":44,"h":44},
	"sourceSize": {"w":56,"h":56}
},
"P12_SPARKLE_010020.png":
{
	"frame": {"x":266,"y":2,"w":34,"h":34},
	"rotated": false,
	"trimmed": true,
	"spriteSourceSize": {"x":9,"y":9,"w":34,"h":34},
	"sourceSize": {"w":56,"h":56}
},
"P12_SPARKLE_010021.png":
{
	"frame": {"x":266,"y":2,"w":34,"h":34},
	"rotated": false,
	"trimmed": true,
	"spriteSourceSize": {"x":9,"y":9,"w":34,"h":34},
	"sourceSize": {"w":56,"h":56}
},
"P12_SPARKLE_010022.png":
{
	"frame": {"x":302,"y":2,"w":24,"h":24},
	"rotated": false,
	"trimmed": true,
	"spriteSourceSize": {"x":15,"y":15,"w":24,"h":24},
	"sourceSize": {"w":56,"h":56}
},
"P12_SPARKLE_010023.png":
{
	"frame": {"x":302,"y":2,"w":24,"h":24},
	"rotated": false,
	"trimmed": true,
	"spriteSourceSize": {"x":15,"y":15,"w":24,"h":24},
	"sourceSize": {"w":56,"h":56}
},
"P12_SPARKLE_010024.png":
{
	"frame": {"x":266,"y":38,"w":14,"h":16},
	"rotated": false,
	"trimmed": true,
	"spriteSourceSize": {"x":21,"y":19,"w":14,"h":16},
	"sourceSize": {"w":56,"h":56}
},
"P12_SPARKLE_010025.png":
{
	"frame": {"x":266,"y":38,"w":14,"h":16},
	"rotated": false,
	"trimmed": true,
	"spriteSourceSize": {"x":21,"y":19,"w":14,"h":16},
	"sourceSize": {"w":56,"h":56}
}},
"meta": {
	"app": "http://www.texturepacker.com",
	"version": "1.0",
	"image": "P12_SPARKLE_01.png",
	"format": "RGBA8888",
	"size": {"w":328,"h":58},
	"scale": "1",
	"smartupdate": "$TexturePacker:SmartUpdate:c62e596b1d306b70b275507d44d59180$"
}
}
