{"frames": {

"SS_P02_BERRYKIN01.png":
{
	"frame": {"x":1988,"y":822,"w":48,"h":76},
	"rotated": false,
	"trimmed": false,
	"spriteSourceSize": {"x":0,"y":0,"w":48,"h":76},
	"sourceSize": {"w":48,"h":76}
},
"SS_P02_BERRYKIN02.png":
{
	"frame": {"x":1988,"y":744,"w":48,"h":76},
	"rotated": false,
	"trimmed": false,
	"spriteSourceSize": {"x":0,"y":0,"w":48,"h":76},
	"sourceSize": {"w":48,"h":76}
},
"SS_P02_BERRYKIN03.png":
{
	"frame": {"x":1988,"y":666,"w":48,"h":76},
	"rotated": false,
	"trimmed": false,
	"spriteSourceSize": {"x":0,"y":0,"w":48,"h":76},
	"sourceSize": {"w":48,"h":76}
},
"SS_P02_BERRYKIN04.png":
{
	"frame": {"x":1880,"y":1314,"w":48,"h":76},
	"rotated": true,
	"trimmed": false,
	"spriteSourceSize": {"x":0,"y":0,"w":48,"h":76},
	"sourceSize": {"w":48,"h":76}
},
"SS_P02_BG.png":
{
	"frame": {"x":2,"y":2,"w":1366,"h":768},
	"rotated": false,
	"trimmed": false,
	"spriteSourceSize": {"x":0,"y":0,"w":1366,"h":768},
	"sourceSize": {"w":1366,"h":768}
},
"SS_P02_BG_UL.png":
{
	"frame": {"x":1370,"y":2,"w":812,"h":414},
	"rotated": true,
	"trimmed": true,
	"spriteSourceSize": {"x":0,"y":0,"w":812,"h":414},
	"sourceSize": {"w":812,"h":422}
},
"SS_P02_BIN_OL.png":
{
	"frame": {"x":1548,"y":816,"w":164,"h":94},
	"rotated": false,
	"trimmed": false,
	"spriteSourceSize": {"x":0,"y":0,"w":164,"h":94},
	"sourceSize": {"w":164,"h":94}
},
"SS_P02_BLUEBERRY_0001.png":
{
	"frame": {"x":686,"y":1062,"w":144,"h":298},
	"rotated": false,
	"trimmed": true,
	"spriteSourceSize": {"x":0,"y":4,"w":144,"h":298},
	"sourceSize": {"w":146,"h":302}
},
"SS_P02_BLUEBERRY_0002.png":
{
	"frame": {"x":1354,"y":1056,"w":114,"h":292},
	"rotated": false,
	"trimmed": true,
	"spriteSourceSize": {"x":13,"y":5,"w":114,"h":292},
	"sourceSize": {"w":146,"h":302}
},
"SS_P02_BLUEBERRY_BUB01_0001.png":
{
	"frame": {"x":1880,"y":1192,"w":70,"h":120},
	"rotated": false,
	"trimmed": true,
	"spriteSourceSize": {"x":10,"y":0,"w":70,"h":120},
	"sourceSize": {"w":88,"h":120}
},
"SS_P02_BLUEBERRY_BUB01_0002.png":
{
	"frame": {"x":1950,"y":1062,"w":72,"h":120},
	"rotated": false,
	"trimmed": true,
	"spriteSourceSize": {"x":2,"y":0,"w":72,"h":120},
	"sourceSize": {"w":88,"h":120}
},
"SS_P02_BUTTERFLY_0001.png":
{
	"frame": {"x":1864,"y":942,"w":108,"h":118},
	"rotated": false,
	"trimmed": true,
	"spriteSourceSize": {"x":11,"y":4,"w":108,"h":118},
	"sourceSize": {"w":136,"h":130}
},
"SS_P02_CHERRY_0001.png":
{
	"frame": {"x":832,"y":1062,"w":118,"h":294},
	"rotated": false,
	"trimmed": true,
	"spriteSourceSize": {"x":1,"y":1,"w":118,"h":294},
	"sourceSize": {"w":144,"h":296}
},
"SS_P02_CHERRY_0002.png":
{
	"frame": {"x":1222,"y":944,"w":110,"h":290},
	"rotated": true,
	"trimmed": true,
	"spriteSourceSize": {"x":6,"y":4,"w":110,"h":290},
	"sourceSize": {"w":144,"h":296}
},
"SS_P02_CH_ST_BUB01_0001.png":
{
	"frame": {"x":1586,"y":1184,"w":98,"h":156},
	"rotated": false,
	"trimmed": true,
	"spriteSourceSize": {"x":1,"y":4,"w":98,"h":156},
	"sourceSize": {"w":100,"h":160}
},
"SS_P02_CH_ST_BUB02_0001.png":
{
	"frame": {"x":1696,"y":942,"w":80,"h":160},
	"rotated": false,
	"trimmed": true,
	"spriteSourceSize": {"x":14,"y":0,"w":80,"h":160},
	"sourceSize": {"w":100,"h":160}
},
"SS_P02_DAISY_0001.png":
{
	"frame": {"x":686,"y":772,"w":224,"h":288},
	"rotated": false,
	"trimmed": true,
	"spriteSourceSize": {"x":34,"y":0,"w":224,"h":288},
	"sourceSize": {"w":304,"h":290}
},
"SS_P02_HOUSE.png":
{
	"frame": {"x":2,"y":772,"w":682,"h":590},
	"rotated": false,
	"trimmed": true,
	"spriteSourceSize": {"x":0,"y":0,"w":682,"h":590},
	"sourceSize": {"w":684,"h":590}
},
"SS_P02_LEMON_0001.png":
{
	"frame": {"x":1090,"y":1058,"w":134,"h":286},
	"rotated": false,
	"trimmed": true,
	"spriteSourceSize": {"x":4,"y":24,"w":134,"h":286},
	"sourceSize": {"w":138,"h":312}
},
"SS_P02_LEMON_0002.png":
{
	"frame": {"x":1470,"y":1056,"w":114,"h":288},
	"rotated": false,
	"trimmed": true,
	"spriteSourceSize": {"x":4,"y":22,"w":114,"h":288},
	"sourceSize": {"w":138,"h":312}
},
"SS_P02_LEMON_BUB_0001.png":
{
	"frame": {"x":1514,"y":944,"w":56,"h":96},
	"rotated": false,
	"trimmed": true,
	"spriteSourceSize": {"x":29,"y":48,"w":56,"h":96},
	"sourceSize": {"w":94,"h":144}
},
"SS_P02_LEMON_BUB_0002.png":
{
	"frame": {"x":1970,"y":396,"w":66,"h":144},
	"rotated": false,
	"trimmed": true,
	"spriteSourceSize": {"x":23,"y":0,"w":66,"h":144},
	"sourceSize": {"w":94,"h":144}
},
"SS_P02_LEMON_BUB_0003.png":
{
	"frame": {"x":1874,"y":1062,"w":74,"h":128},
	"rotated": false,
	"trimmed": true,
	"spriteSourceSize": {"x":13,"y":16,"w":74,"h":128},
	"sourceSize": {"w":94,"h":144}
},
"SS_P02_LEMON_BUB_0004.png":
{
	"frame": {"x":1696,"y":1104,"w":86,"h":140},
	"rotated": false,
	"trimmed": true,
	"spriteSourceSize": {"x":1,"y":4,"w":86,"h":140},
	"sourceSize": {"w":94,"h":144}
},
"SS_P02_ORANGE_0001.png":
{
	"frame": {"x":952,"y":1058,"w":136,"h":304},
	"rotated": false,
	"trimmed": true,
	"spriteSourceSize": {"x":7,"y":11,"w":136,"h":304},
	"sourceSize": {"w":146,"h":316}
},
"SS_P02_ORANGE_0002.png":
{
	"frame": {"x":1226,"y":1056,"w":126,"h":306},
	"rotated": false,
	"trimmed": true,
	"spriteSourceSize": {"x":0,"y":9,"w":126,"h":306},
	"sourceSize": {"w":146,"h":316}
},
"SS_P02_ORANGE_BUB_0001.png":
{
	"frame": {"x":1778,"y":942,"w":84,"h":150},
	"rotated": false,
	"trimmed": true,
	"spriteSourceSize": {"x":1,"y":4,"w":84,"h":150},
	"sourceSize": {"w":90,"h":154}
},
"SS_P02_PLUM_0001.png":
{
	"frame": {"x":912,"y":772,"w":146,"h":324},
	"rotated": true,
	"trimmed": true,
	"spriteSourceSize": {"x":26,"y":0,"w":146,"h":324},
	"sourceSize": {"w":184,"h":328}
},
"SS_P02_PLUM_0002.png":
{
	"frame": {"x":1786,"y":396,"w":182,"h":318},
	"rotated": false,
	"trimmed": true,
	"spriteSourceSize": {"x":0,"y":10,"w":182,"h":318},
	"sourceSize": {"w":184,"h":328}
},
"SS_P02_PLUM_BUB_0001.png":
{
	"frame": {"x":1952,"y":1184,"w":66,"h":114},
	"rotated": false,
	"trimmed": true,
	"spriteSourceSize": {"x":25,"y":9,"w":66,"h":114},
	"sourceSize": {"w":108,"h":124}
},
"SS_P02_PLUM_BUB_0002.png":
{
	"frame": {"x":1794,"y":1222,"w":84,"h":118},
	"rotated": false,
	"trimmed": true,
	"spriteSourceSize": {"x":12,"y":4,"w":84,"h":118},
	"sourceSize": {"w":108,"h":124}
},
"SS_P02_PLUM_BUB_0003.png":
{
	"frame": {"x":1974,"y":942,"w":62,"h":108},
	"rotated": false,
	"trimmed": true,
	"spriteSourceSize": {"x":21,"y":13,"w":62,"h":108},
	"sourceSize": {"w":108,"h":124}
},
"SS_P02_PLUM_BUB_0004.png":
{
	"frame": {"x":1970,"y":542,"w":66,"h":122},
	"rotated": false,
	"trimmed": true,
	"spriteSourceSize": {"x":35,"y":0,"w":66,"h":122},
	"sourceSize": {"w":108,"h":124}
},
"SS_P02_PLUM_BUB_0005.png":
{
	"frame": {"x":1686,"y":1246,"w":106,"h":86},
	"rotated": false,
	"trimmed": true,
	"spriteSourceSize": {"x":1,"y":35,"w":106,"h":86},
	"sourceSize": {"w":108,"h":124}
},
"SS_P02_RASPBERRY_0001.png":
{
	"frame": {"x":1714,"y":832,"w":108,"h":272},
	"rotated": true,
	"trimmed": true,
	"spriteSourceSize": {"x":2,"y":1,"w":108,"h":272},
	"sourceSize": {"w":124,"h":274}
},
"SS_P02_RASPBERRY_0002.png":
{
	"frame": {"x":1586,"y":912,"w":108,"h":270},
	"rotated": false,
	"trimmed": true,
	"spriteSourceSize": {"x":10,"y":3,"w":108,"h":270},
	"sourceSize": {"w":124,"h":274}
},
"SS_P02_RASPBERRY_BUB_0001.png":
{
	"frame": {"x":1784,"y":1094,"w":88,"h":126},
	"rotated": false,
	"trimmed": true,
	"spriteSourceSize": {"x":3,"y":0,"w":88,"h":126},
	"sourceSize": {"w":92,"h":128}
},
"SS_P02_ROSE_0001.png":
{
	"frame": {"x":1786,"y":2,"w":236,"h":392},
	"rotated": false,
	"trimmed": true,
	"spriteSourceSize": {"x":3,"y":5,"w":236,"h":392},
	"sourceSize": {"w":266,"h":404}
},
"SS_P02_STRAWBERRY_0001.png":
{
	"frame": {"x":912,"y":920,"w":136,"h":308},
	"rotated": true,
	"trimmed": true,
	"spriteSourceSize": {"x":2,"y":1,"w":136,"h":308},
	"sourceSize": {"w":146,"h":312}
},
"SS_P02_STRAWBERRY_0002.png":
{
	"frame": {"x":1238,"y":816,"w":126,"h":308},
	"rotated": true,
	"trimmed": true,
	"spriteSourceSize": {"x":13,"y":1,"w":126,"h":308},
	"sourceSize": {"w":146,"h":312}
},
"SS_P02_WATERFALL_0001.png":
{
	"frame": {"x":1786,"y":716,"w":114,"h":194},
	"rotated": true,
	"trimmed": true,
	"spriteSourceSize": {"x":8,"y":0,"w":114,"h":194},
	"sourceSize": {"w":126,"h":194}
}},
"meta": {
	"app": "http://www.codeandweb.com/texturepacker ",
	"version": "1.0",
	"image": "Page.png",
	"format": "RGBA8888",
	"size": {"w":2038,"h":1364},
	"scale": "1",
	"smartupdate": "$TexturePacker:SmartUpdate:75650a87d1581f83ab033d9ed088dc4b$"
}
}
