{"frames": {

"SS_P02_RASPBERRY_BUB0000.png":
{
	"frame": {"x":2,"y":898,"w":88,"h":126},
	"rotated": false,
	"trimmed": true,
	"spriteSourceSize": {"x":3,"y":0,"w":88,"h":126},
	"sourceSize": {"w":92,"h":128}
},
"SS_P02_RASPBERRY_BUB0001.png":
{
	"frame": {"x":2,"y":898,"w":88,"h":126},
	"rotated": false,
	"trimmed": true,
	"spriteSourceSize": {"x":3,"y":0,"w":88,"h":126},
	"sourceSize": {"w":92,"h":128}
},
"SS_P02_RASPBERRY_BUB0002.png":
{
	"frame": {"x":2,"y":642,"w":90,"h":126},
	"rotated": false,
	"trimmed": true,
	"spriteSourceSize": {"x":1,"y":0,"w":90,"h":126},
	"sourceSize": {"w":92,"h":128}
},
"SS_P02_RASPBERRY_BUB0003.png":
{
	"frame": {"x":2,"y":642,"w":90,"h":126},
	"rotated": false,
	"trimmed": true,
	"spriteSourceSize": {"x":1,"y":0,"w":90,"h":126},
	"sourceSize": {"w":92,"h":128}
},
"SS_P02_RASPBERRY_BUB0004.png":
{
	"frame": {"x":2,"y":514,"w":90,"h":126},
	"rotated": false,
	"trimmed": true,
	"spriteSourceSize": {"x":1,"y":0,"w":90,"h":126},
	"sourceSize": {"w":92,"h":128}
},
"SS_P02_RASPBERRY_BUB0005.png":
{
	"frame": {"x":2,"y":514,"w":90,"h":126},
	"rotated": false,
	"trimmed": true,
	"spriteSourceSize": {"x":1,"y":0,"w":90,"h":126},
	"sourceSize": {"w":92,"h":128}
},
"SS_P02_RASPBERRY_BUB0006.png":
{
	"frame": {"x":2,"y":386,"w":90,"h":126},
	"rotated": false,
	"trimmed": true,
	"spriteSourceSize": {"x":1,"y":0,"w":90,"h":126},
	"sourceSize": {"w":92,"h":128}
},
"SS_P02_RASPBERRY_BUB0007.png":
{
	"frame": {"x":2,"y":386,"w":90,"h":126},
	"rotated": false,
	"trimmed": true,
	"spriteSourceSize": {"x":1,"y":0,"w":90,"h":126},
	"sourceSize": {"w":92,"h":128}
},
"SS_P02_RASPBERRY_BUB0008.png":
{
	"frame": {"x":2,"y":2,"w":92,"h":126},
	"rotated": false,
	"trimmed": true,
	"spriteSourceSize": {"x":0,"y":0,"w":92,"h":126},
	"sourceSize": {"w":92,"h":128}
},
"SS_P02_RASPBERRY_BUB0009.png":
{
	"frame": {"x":2,"y":2,"w":92,"h":126},
	"rotated": false,
	"trimmed": true,
	"spriteSourceSize": {"x":0,"y":0,"w":92,"h":126},
	"sourceSize": {"w":92,"h":128}
},
"SS_P02_RASPBERRY_BUB0010.png":
{
	"frame": {"x":2,"y":258,"w":90,"h":126},
	"rotated": false,
	"trimmed": true,
	"spriteSourceSize": {"x":1,"y":0,"w":90,"h":126},
	"sourceSize": {"w":92,"h":128}
},
"SS_P02_RASPBERRY_BUB0011.png":
{
	"frame": {"x":2,"y":258,"w":90,"h":126},
	"rotated": false,
	"trimmed": true,
	"spriteSourceSize": {"x":1,"y":0,"w":90,"h":126},
	"sourceSize": {"w":92,"h":128}
},
"SS_P02_RASPBERRY_BUB0012.png":
{
	"frame": {"x":2,"y":130,"w":90,"h":126},
	"rotated": false,
	"trimmed": true,
	"spriteSourceSize": {"x":1,"y":0,"w":90,"h":126},
	"sourceSize": {"w":92,"h":128}
},
"SS_P02_RASPBERRY_BUB0013.png":
{
	"frame": {"x":2,"y":130,"w":90,"h":126},
	"rotated": false,
	"trimmed": true,
	"spriteSourceSize": {"x":1,"y":0,"w":90,"h":126},
	"sourceSize": {"w":92,"h":128}
},
"SS_P02_RASPBERRY_BUB0014.png":
{
	"frame": {"x":2,"y":770,"w":88,"h":126},
	"rotated": false,
	"trimmed": true,
	"spriteSourceSize": {"x":3,"y":0,"w":88,"h":126},
	"sourceSize": {"w":92,"h":128}
},
"SS_P02_RASPBERRY_BUB0015.png":
{
	"frame": {"x":2,"y":770,"w":88,"h":126},
	"rotated": false,
	"trimmed": true,
	"spriteSourceSize": {"x":3,"y":0,"w":88,"h":126},
	"sourceSize": {"w":92,"h":128}
},
"SS_P02_RASPBERRY_BUB0016.png":
{
	"frame": {"x":2,"y":1026,"w":88,"h":124},
	"rotated": false,
	"trimmed": true,
	"spriteSourceSize": {"x":3,"y":2,"w":88,"h":124},
	"sourceSize": {"w":92,"h":128}
},
"SS_P02_RASPBERRY_BUB0017.png":
{
	"frame": {"x":2,"y":1026,"w":88,"h":124},
	"rotated": false,
	"trimmed": true,
	"spriteSourceSize": {"x":3,"y":2,"w":88,"h":124},
	"sourceSize": {"w":92,"h":128}
},
"SS_P02_RASPBERRY_BUB0018.png":
{
	"frame": {"x":2,"y":770,"w":88,"h":126},
	"rotated": false,
	"trimmed": true,
	"spriteSourceSize": {"x":3,"y":0,"w":88,"h":126},
	"sourceSize": {"w":92,"h":128}
},
"SS_P02_RASPBERRY_BUB0019.png":
{
	"frame": {"x":2,"y":770,"w":88,"h":126},
	"rotated": false,
	"trimmed": true,
	"spriteSourceSize": {"x":3,"y":0,"w":88,"h":126},
	"sourceSize": {"w":92,"h":128}
},
"SS_P02_RASPBERRY_BUB0020.png":
{
	"frame": {"x":2,"y":130,"w":90,"h":126},
	"rotated": false,
	"trimmed": true,
	"spriteSourceSize": {"x":1,"y":0,"w":90,"h":126},
	"sourceSize": {"w":92,"h":128}
},
"SS_P02_RASPBERRY_BUB0021.png":
{
	"frame": {"x":2,"y":130,"w":90,"h":126},
	"rotated": false,
	"trimmed": true,
	"spriteSourceSize": {"x":1,"y":0,"w":90,"h":126},
	"sourceSize": {"w":92,"h":128}
},
"SS_P02_RASPBERRY_BUB0022.png":
{
	"frame": {"x":2,"y":258,"w":90,"h":126},
	"rotated": false,
	"trimmed": true,
	"spriteSourceSize": {"x":1,"y":0,"w":90,"h":126},
	"sourceSize": {"w":92,"h":128}
},
"SS_P02_RASPBERRY_BUB0023.png":
{
	"frame": {"x":2,"y":258,"w":90,"h":126},
	"rotated": false,
	"trimmed": true,
	"spriteSourceSize": {"x":1,"y":0,"w":90,"h":126},
	"sourceSize": {"w":92,"h":128}
},
"SS_P02_RASPBERRY_BUB0024.png":
{
	"frame": {"x":2,"y":2,"w":92,"h":126},
	"rotated": false,
	"trimmed": true,
	"spriteSourceSize": {"x":0,"y":0,"w":92,"h":126},
	"sourceSize": {"w":92,"h":128}
},
"SS_P02_RASPBERRY_BUB0025.png":
{
	"frame": {"x":2,"y":2,"w":92,"h":126},
	"rotated": false,
	"trimmed": true,
	"spriteSourceSize": {"x":0,"y":0,"w":92,"h":126},
	"sourceSize": {"w":92,"h":128}
},
"SS_P02_RASPBERRY_BUB0026.png":
{
	"frame": {"x":2,"y":386,"w":90,"h":126},
	"rotated": false,
	"trimmed": true,
	"spriteSourceSize": {"x":1,"y":0,"w":90,"h":126},
	"sourceSize": {"w":92,"h":128}
},
"SS_P02_RASPBERRY_BUB0027.png":
{
	"frame": {"x":2,"y":386,"w":90,"h":126},
	"rotated": false,
	"trimmed": true,
	"spriteSourceSize": {"x":1,"y":0,"w":90,"h":126},
	"sourceSize": {"w":92,"h":128}
},
"SS_P02_RASPBERRY_BUB0028.png":
{
	"frame": {"x":2,"y":514,"w":90,"h":126},
	"rotated": false,
	"trimmed": true,
	"spriteSourceSize": {"x":1,"y":0,"w":90,"h":126},
	"sourceSize": {"w":92,"h":128}
},
"SS_P02_RASPBERRY_BUB0029.png":
{
	"frame": {"x":2,"y":514,"w":90,"h":126},
	"rotated": false,
	"trimmed": true,
	"spriteSourceSize": {"x":1,"y":0,"w":90,"h":126},
	"sourceSize": {"w":92,"h":128}
},
"SS_P02_RASPBERRY_BUB0030.png":
{
	"frame": {"x":2,"y":642,"w":90,"h":126},
	"rotated": false,
	"trimmed": true,
	"spriteSourceSize": {"x":1,"y":0,"w":90,"h":126},
	"sourceSize": {"w":92,"h":128}
},
"SS_P02_RASPBERRY_BUB0031.png":
{
	"frame": {"x":2,"y":642,"w":90,"h":126},
	"rotated": false,
	"trimmed": true,
	"spriteSourceSize": {"x":1,"y":0,"w":90,"h":126},
	"sourceSize": {"w":92,"h":128}
},
"SS_P02_RASPBERRY_BUB0032.png":
{
	"frame": {"x":2,"y":898,"w":88,"h":126},
	"rotated": false,
	"trimmed": true,
	"spriteSourceSize": {"x":3,"y":0,"w":88,"h":126},
	"sourceSize": {"w":92,"h":128}
},
"SS_P02_RASPBERRY_BUB0033.png":
{
	"frame": {"x":2,"y":898,"w":88,"h":126},
	"rotated": false,
	"trimmed": true,
	"spriteSourceSize": {"x":3,"y":0,"w":88,"h":126},
	"sourceSize": {"w":92,"h":128}
}},
"meta": {
	"app": "http://www.texturepacker.com",
	"version": "1.0",
	"image": "SS_P02_RASPBERRY_BUB.png",
	"format": "RGBA8888",
	"size": {"w":96,"h":1152},
	"scale": "1",
	"smartupdate": "$TexturePacker:SmartUpdate:ffd8d2cd1a62f3d3320611dc335be518$"
}
}
