{"frames": {

"SS_P02_CH_ST_BUB020000.png":
{
	"frame": {"x":84,"y":164,"w":80,"h":160},
	"rotated": false,
	"trimmed": true,
	"spriteSourceSize": {"x":14,"y":0,"w":80,"h":160},
	"sourceSize": {"w":100,"h":160}
},
"SS_P02_CH_ST_BUB020001.png":
{
	"frame": {"x":84,"y":164,"w":80,"h":160},
	"rotated": false,
	"trimmed": true,
	"spriteSourceSize": {"x":14,"y":0,"w":80,"h":160},
	"sourceSize": {"w":100,"h":160}
},
"SS_P02_CH_ST_BUB020002.png":
{
	"frame": {"x":2,"y":326,"w":80,"h":160},
	"rotated": false,
	"trimmed": true,
	"spriteSourceSize": {"x":14,"y":0,"w":80,"h":160},
	"sourceSize": {"w":100,"h":160}
},
"SS_P02_CH_ST_BUB020003.png":
{
	"frame": {"x":2,"y":326,"w":80,"h":160},
	"rotated": false,
	"trimmed": true,
	"spriteSourceSize": {"x":14,"y":0,"w":80,"h":160},
	"sourceSize": {"w":100,"h":160}
},
"SS_P02_CH_ST_BUB020004.png":
{
	"frame": {"x":2,"y":164,"w":80,"h":160},
	"rotated": false,
	"trimmed": true,
	"spriteSourceSize": {"x":13,"y":0,"w":80,"h":160},
	"sourceSize": {"w":100,"h":160}
},
"SS_P02_CH_ST_BUB020005.png":
{
	"frame": {"x":2,"y":164,"w":80,"h":160},
	"rotated": false,
	"trimmed": true,
	"spriteSourceSize": {"x":13,"y":0,"w":80,"h":160},
	"sourceSize": {"w":100,"h":160}
},
"SS_P02_CH_ST_BUB020006.png":
{
	"frame": {"x":164,"y":326,"w":78,"h":160},
	"rotated": false,
	"trimmed": true,
	"spriteSourceSize": {"x":13,"y":0,"w":78,"h":160},
	"sourceSize": {"w":100,"h":160}
},
"SS_P02_CH_ST_BUB020007.png":
{
	"frame": {"x":164,"y":326,"w":78,"h":160},
	"rotated": false,
	"trimmed": true,
	"spriteSourceSize": {"x":13,"y":0,"w":78,"h":160},
	"sourceSize": {"w":100,"h":160}
},
"SS_P02_CH_ST_BUB020008.png":
{
	"frame": {"x":84,"y":326,"w":78,"h":160},
	"rotated": false,
	"trimmed": true,
	"spriteSourceSize": {"x":13,"y":0,"w":78,"h":160},
	"sourceSize": {"w":100,"h":160}
},
"SS_P02_CH_ST_BUB020009.png":
{
	"frame": {"x":84,"y":326,"w":78,"h":160},
	"rotated": false,
	"trimmed": true,
	"spriteSourceSize": {"x":13,"y":0,"w":78,"h":160},
	"sourceSize": {"w":100,"h":160}
},
"SS_P02_CH_ST_BUB020010.png":
{
	"frame": {"x":84,"y":2,"w":80,"h":160},
	"rotated": false,
	"trimmed": true,
	"spriteSourceSize": {"x":13,"y":0,"w":80,"h":160},
	"sourceSize": {"w":100,"h":160}
},
"SS_P02_CH_ST_BUB020011.png":
{
	"frame": {"x":84,"y":2,"w":80,"h":160},
	"rotated": false,
	"trimmed": true,
	"spriteSourceSize": {"x":13,"y":0,"w":80,"h":160},
	"sourceSize": {"w":100,"h":160}
},
"SS_P02_CH_ST_BUB020012.png":
{
	"frame": {"x":2,"y":2,"w":80,"h":160},
	"rotated": false,
	"trimmed": true,
	"spriteSourceSize": {"x":14,"y":0,"w":80,"h":160},
	"sourceSize": {"w":100,"h":160}
},
"SS_P02_CH_ST_BUB020013.png":
{
	"frame": {"x":2,"y":2,"w":80,"h":160},
	"rotated": false,
	"trimmed": true,
	"spriteSourceSize": {"x":14,"y":0,"w":80,"h":160},
	"sourceSize": {"w":100,"h":160}
},
"SS_P02_CH_ST_BUB020014.png":
{
	"frame": {"x":84,"y":2,"w":80,"h":160},
	"rotated": false,
	"trimmed": true,
	"spriteSourceSize": {"x":13,"y":0,"w":80,"h":160},
	"sourceSize": {"w":100,"h":160}
},
"SS_P02_CH_ST_BUB020015.png":
{
	"frame": {"x":84,"y":2,"w":80,"h":160},
	"rotated": false,
	"trimmed": true,
	"spriteSourceSize": {"x":13,"y":0,"w":80,"h":160},
	"sourceSize": {"w":100,"h":160}
},
"SS_P02_CH_ST_BUB020016.png":
{
	"frame": {"x":84,"y":326,"w":78,"h":160},
	"rotated": false,
	"trimmed": true,
	"spriteSourceSize": {"x":13,"y":0,"w":78,"h":160},
	"sourceSize": {"w":100,"h":160}
},
"SS_P02_CH_ST_BUB020017.png":
{
	"frame": {"x":84,"y":326,"w":78,"h":160},
	"rotated": false,
	"trimmed": true,
	"spriteSourceSize": {"x":13,"y":0,"w":78,"h":160},
	"sourceSize": {"w":100,"h":160}
},
"SS_P02_CH_ST_BUB020018.png":
{
	"frame": {"x":164,"y":326,"w":78,"h":160},
	"rotated": false,
	"trimmed": true,
	"spriteSourceSize": {"x":13,"y":0,"w":78,"h":160},
	"sourceSize": {"w":100,"h":160}
},
"SS_P02_CH_ST_BUB020019.png":
{
	"frame": {"x":164,"y":326,"w":78,"h":160},
	"rotated": false,
	"trimmed": true,
	"spriteSourceSize": {"x":13,"y":0,"w":78,"h":160},
	"sourceSize": {"w":100,"h":160}
},
"SS_P02_CH_ST_BUB020020.png":
{
	"frame": {"x":2,"y":164,"w":80,"h":160},
	"rotated": false,
	"trimmed": true,
	"spriteSourceSize": {"x":13,"y":0,"w":80,"h":160},
	"sourceSize": {"w":100,"h":160}
},
"SS_P02_CH_ST_BUB020021.png":
{
	"frame": {"x":2,"y":164,"w":80,"h":160},
	"rotated": false,
	"trimmed": true,
	"spriteSourceSize": {"x":13,"y":0,"w":80,"h":160},
	"sourceSize": {"w":100,"h":160}
},
"SS_P02_CH_ST_BUB020022.png":
{
	"frame": {"x":2,"y":326,"w":80,"h":160},
	"rotated": false,
	"trimmed": true,
	"spriteSourceSize": {"x":14,"y":0,"w":80,"h":160},
	"sourceSize": {"w":100,"h":160}
},
"SS_P02_CH_ST_BUB020023.png":
{
	"frame": {"x":2,"y":326,"w":80,"h":160},
	"rotated": false,
	"trimmed": true,
	"spriteSourceSize": {"x":14,"y":0,"w":80,"h":160},
	"sourceSize": {"w":100,"h":160}
},
"SS_P02_CH_ST_BUB020024.png":
{
	"frame": {"x":84,"y":164,"w":80,"h":160},
	"rotated": false,
	"trimmed": true,
	"spriteSourceSize": {"x":14,"y":0,"w":80,"h":160},
	"sourceSize": {"w":100,"h":160}
},
"SS_P02_CH_ST_BUB020025.png":
{
	"frame": {"x":84,"y":164,"w":80,"h":160},
	"rotated": false,
	"trimmed": true,
	"spriteSourceSize": {"x":14,"y":0,"w":80,"h":160},
	"sourceSize": {"w":100,"h":160}
}},
"meta": {
	"app": "http://www.texturepacker.com",
	"version": "1.0",
	"image": "SS_P02_CH_ST_BUB02.png",
	"format": "RGBA8888",
	"size": {"w":244,"h":488},
	"scale": "1",
	"smartupdate": "$TexturePacker:SmartUpdate:ca27e366f3d7aaf9491d3759f8672399$"
}
}
