{"frames": {

"SS_P02_ORANGE_BUB instance 10000.png":
{
	"frame": {"x":2,"y":159,"w":83,"h":151},
	"rotated": false,
	"trimmed": true,
	"spriteSourceSize": {"x":2,"y":4,"w":83,"h":151},
	"sourceSize": {"w":91,"h":155}
},
"SS_P02_ORANGE_BUB instance 10001.png":
{
	"frame": {"x":2,"y":159,"w":83,"h":151},
	"rotated": false,
	"trimmed": true,
	"spriteSourceSize": {"x":2,"y":4,"w":83,"h":151},
	"sourceSize": {"w":91,"h":155}
},
"SS_P02_ORANGE_BUB instance 10002.png":
{
	"frame": {"x":2,"y":2,"w":83,"h":155},
	"rotated": false,
	"trimmed": true,
	"spriteSourceSize": {"x":2,"y":0,"w":83,"h":155},
	"sourceSize": {"w":91,"h":155}
},
"SS_P02_ORANGE_BUB instance 10003.png":
{
	"frame": {"x":2,"y":2,"w":83,"h":155},
	"rotated": false,
	"trimmed": true,
	"spriteSourceSize": {"x":2,"y":0,"w":83,"h":155},
	"sourceSize": {"w":91,"h":155}
},
"SS_P02_ORANGE_BUB instance 10004.png":
{
	"frame": {"x":2,"y":312,"w":81,"h":151},
	"rotated": false,
	"trimmed": true,
	"spriteSourceSize": {"x":4,"y":4,"w":81,"h":151},
	"sourceSize": {"w":91,"h":155}
},
"SS_P02_ORANGE_BUB instance 10005.png":
{
	"frame": {"x":2,"y":312,"w":81,"h":151},
	"rotated": false,
	"trimmed": true,
	"spriteSourceSize": {"x":4,"y":4,"w":81,"h":151},
	"sourceSize": {"w":91,"h":155}
},
"SS_P02_ORANGE_BUB instance 10006.png":
{
	"frame": {"x":2,"y":622,"w":75,"h":151},
	"rotated": false,
	"trimmed": true,
	"spriteSourceSize": {"x":10,"y":4,"w":75,"h":151},
	"sourceSize": {"w":91,"h":155}
},
"SS_P02_ORANGE_BUB instance 10007.png":
{
	"frame": {"x":2,"y":622,"w":75,"h":151},
	"rotated": false,
	"trimmed": true,
	"spriteSourceSize": {"x":10,"y":4,"w":75,"h":151},
	"sourceSize": {"w":91,"h":155}
},
"SS_P02_ORANGE_BUB instance 10008.png":
{
	"frame": {"x":2,"y":465,"w":77,"h":155},
	"rotated": false,
	"trimmed": true,
	"spriteSourceSize": {"x":9,"y":0,"w":77,"h":155},
	"sourceSize": {"w":91,"h":155}
},
"SS_P02_ORANGE_BUB instance 10009.png":
{
	"frame": {"x":2,"y":465,"w":77,"h":155},
	"rotated": false,
	"trimmed": true,
	"spriteSourceSize": {"x":9,"y":0,"w":77,"h":155},
	"sourceSize": {"w":91,"h":155}
},
"SS_P02_ORANGE_BUB instance 10010.png":
{
	"frame": {"x":2,"y":159,"w":83,"h":151},
	"rotated": false,
	"trimmed": true,
	"spriteSourceSize": {"x":2,"y":4,"w":83,"h":151},
	"sourceSize": {"w":91,"h":155}
},
"SS_P02_ORANGE_BUB instance 10011.png":
{
	"frame": {"x":2,"y":159,"w":83,"h":151},
	"rotated": false,
	"trimmed": true,
	"spriteSourceSize": {"x":2,"y":4,"w":83,"h":151},
	"sourceSize": {"w":91,"h":155}
},
"SS_P02_ORANGE_BUB instance 10012.png":
{
	"frame": {"x":2,"y":2,"w":83,"h":155},
	"rotated": false,
	"trimmed": true,
	"spriteSourceSize": {"x":2,"y":0,"w":83,"h":155},
	"sourceSize": {"w":91,"h":155}
},
"SS_P02_ORANGE_BUB instance 10013.png":
{
	"frame": {"x":2,"y":2,"w":83,"h":155},
	"rotated": false,
	"trimmed": true,
	"spriteSourceSize": {"x":2,"y":0,"w":83,"h":155},
	"sourceSize": {"w":91,"h":155}
},
"SS_P02_ORANGE_BUB instance 10014.png":
{
	"frame": {"x":2,"y":312,"w":81,"h":151},
	"rotated": false,
	"trimmed": true,
	"spriteSourceSize": {"x":4,"y":4,"w":81,"h":151},
	"sourceSize": {"w":91,"h":155}
},
"SS_P02_ORANGE_BUB instance 10015.png":
{
	"frame": {"x":2,"y":312,"w":81,"h":151},
	"rotated": false,
	"trimmed": true,
	"spriteSourceSize": {"x":4,"y":4,"w":81,"h":151},
	"sourceSize": {"w":91,"h":155}
},
"SS_P02_ORANGE_BUB instance 10016.png":
{
	"frame": {"x":2,"y":622,"w":75,"h":151},
	"rotated": false,
	"trimmed": true,
	"spriteSourceSize": {"x":10,"y":4,"w":75,"h":151},
	"sourceSize": {"w":91,"h":155}
},
"SS_P02_ORANGE_BUB instance 10017.png":
{
	"frame": {"x":2,"y":622,"w":75,"h":151},
	"rotated": false,
	"trimmed": true,
	"spriteSourceSize": {"x":10,"y":4,"w":75,"h":151},
	"sourceSize": {"w":91,"h":155}
},
"SS_P02_ORANGE_BUB instance 10018.png":
{
	"frame": {"x":2,"y":465,"w":77,"h":155},
	"rotated": false,
	"trimmed": true,
	"spriteSourceSize": {"x":9,"y":0,"w":77,"h":155},
	"sourceSize": {"w":91,"h":155}
},
"SS_P02_ORANGE_BUB instance 10019.png":
{
	"frame": {"x":2,"y":465,"w":77,"h":155},
	"rotated": false,
	"trimmed": true,
	"spriteSourceSize": {"x":9,"y":0,"w":77,"h":155},
	"sourceSize": {"w":91,"h":155}
},
"SS_P02_ORANGE_BUB instance 10020.png":
{
	"frame": {"x":2,"y":159,"w":83,"h":151},
	"rotated": false,
	"trimmed": true,
	"spriteSourceSize": {"x":2,"y":4,"w":83,"h":151},
	"sourceSize": {"w":91,"h":155}
},
"SS_P02_ORANGE_BUB instance 10021.png":
{
	"frame": {"x":2,"y":159,"w":83,"h":151},
	"rotated": false,
	"trimmed": true,
	"spriteSourceSize": {"x":2,"y":4,"w":83,"h":151},
	"sourceSize": {"w":91,"h":155}
},
"SS_P02_ORANGE_BUB instance 10022.png":
{
	"frame": {"x":2,"y":2,"w":83,"h":155},
	"rotated": false,
	"trimmed": true,
	"spriteSourceSize": {"x":2,"y":0,"w":83,"h":155},
	"sourceSize": {"w":91,"h":155}
},
"SS_P02_ORANGE_BUB instance 10023.png":
{
	"frame": {"x":2,"y":2,"w":83,"h":155},
	"rotated": false,
	"trimmed": true,
	"spriteSourceSize": {"x":2,"y":0,"w":83,"h":155},
	"sourceSize": {"w":91,"h":155}
},
"SS_P02_ORANGE_BUB instance 10024.png":
{
	"frame": {"x":2,"y":312,"w":81,"h":151},
	"rotated": false,
	"trimmed": true,
	"spriteSourceSize": {"x":4,"y":4,"w":81,"h":151},
	"sourceSize": {"w":91,"h":155}
},
"SS_P02_ORANGE_BUB instance 10025.png":
{
	"frame": {"x":2,"y":312,"w":81,"h":151},
	"rotated": false,
	"trimmed": true,
	"spriteSourceSize": {"x":4,"y":4,"w":81,"h":151},
	"sourceSize": {"w":91,"h":155}
},
"SS_P02_ORANGE_BUB instance 10026.png":
{
	"frame": {"x":2,"y":622,"w":75,"h":151},
	"rotated": false,
	"trimmed": true,
	"spriteSourceSize": {"x":10,"y":4,"w":75,"h":151},
	"sourceSize": {"w":91,"h":155}
},
"SS_P02_ORANGE_BUB instance 10027.png":
{
	"frame": {"x":2,"y":622,"w":75,"h":151},
	"rotated": false,
	"trimmed": true,
	"spriteSourceSize": {"x":10,"y":4,"w":75,"h":151},
	"sourceSize": {"w":91,"h":155}
},
"SS_P02_ORANGE_BUB instance 10028.png":
{
	"frame": {"x":2,"y":465,"w":77,"h":155},
	"rotated": false,
	"trimmed": true,
	"spriteSourceSize": {"x":9,"y":0,"w":77,"h":155},
	"sourceSize": {"w":91,"h":155}
},
"SS_P02_ORANGE_BUB instance 10029.png":
{
	"frame": {"x":2,"y":465,"w":77,"h":155},
	"rotated": false,
	"trimmed": true,
	"spriteSourceSize": {"x":9,"y":0,"w":77,"h":155},
	"sourceSize": {"w":91,"h":155}
}},
"meta": {
	"app": "http://www.texturepacker.com",
	"version": "1.0",
	"image": "SS_P02_ORANGE_BUB.png",
	"format": "RGBA8888",
	"size": {"w":87,"h":775},
	"scale": "1",
	"smartupdate": "$TexturePacker:SmartUpdate:e885c3e25de0f50c6f847ba88bf7dfbc$"
}
}
