{"frames": {

"SS_P02_BLUEBERRY_BUB03 instance 10000.png":
{
	"frame": {"x":2,"y":158,"w":23,"h":37},
	"rotated": false,
	"trimmed": true,
	"spriteSourceSize": {"x":4,"y":0,"w":23,"h":37},
	"sourceSize": {"w":27,"h":37}
},
"SS_P02_BLUEBERRY_BUB03 instance 10001.png":
{
	"frame": {"x":2,"y":158,"w":23,"h":37},
	"rotated": false,
	"trimmed": true,
	"spriteSourceSize": {"x":4,"y":0,"w":23,"h":37},
	"sourceSize": {"w":27,"h":37}
},
"SS_P02_BLUEBERRY_BUB03 instance 10002.png":
{
	"frame": {"x":2,"y":119,"w":23,"h":37},
	"rotated": false,
	"trimmed": true,
	"spriteSourceSize": {"x":4,"y":0,"w":23,"h":37},
	"sourceSize": {"w":27,"h":37}
},
"SS_P02_BLUEBERRY_BUB03 instance 10003.png":
{
	"frame": {"x":2,"y":119,"w":23,"h":37},
	"rotated": false,
	"trimmed": true,
	"spriteSourceSize": {"x":4,"y":0,"w":23,"h":37},
	"sourceSize": {"w":27,"h":37}
},
"SS_P02_BLUEBERRY_BUB03 instance 10004.png":
{
	"frame": {"x":2,"y":382,"w":23,"h":35},
	"rotated": false,
	"trimmed": true,
	"spriteSourceSize": {"x":2,"y":2,"w":23,"h":35},
	"sourceSize": {"w":27,"h":37}
},
"SS_P02_BLUEBERRY_BUB03 instance 10005.png":
{
	"frame": {"x":2,"y":382,"w":23,"h":35},
	"rotated": false,
	"trimmed": true,
	"spriteSourceSize": {"x":2,"y":2,"w":23,"h":35},
	"sourceSize": {"w":27,"h":37}
},
"SS_P02_BLUEBERRY_BUB03 instance 10006.png":
{
	"frame": {"x":2,"y":345,"w":23,"h":35},
	"rotated": false,
	"trimmed": true,
	"spriteSourceSize": {"x":2,"y":2,"w":23,"h":35},
	"sourceSize": {"w":27,"h":37}
},
"SS_P02_BLUEBERRY_BUB03 instance 10007.png":
{
	"frame": {"x":2,"y":345,"w":23,"h":35},
	"rotated": false,
	"trimmed": true,
	"spriteSourceSize": {"x":2,"y":2,"w":23,"h":35},
	"sourceSize": {"w":27,"h":37}
},
"SS_P02_BLUEBERRY_BUB03 instance 10008.png":
{
	"frame": {"x":2,"y":308,"w":23,"h":35},
	"rotated": false,
	"trimmed": true,
	"spriteSourceSize": {"x":2,"y":0,"w":23,"h":35},
	"sourceSize": {"w":27,"h":37}
},
"SS_P02_BLUEBERRY_BUB03 instance 10009.png":
{
	"frame": {"x":2,"y":308,"w":23,"h":35},
	"rotated": false,
	"trimmed": true,
	"spriteSourceSize": {"x":2,"y":0,"w":23,"h":35},
	"sourceSize": {"w":27,"h":37}
},
"SS_P02_BLUEBERRY_BUB03 instance 10010.png":
{
	"frame": {"x":2,"y":80,"w":23,"h":37},
	"rotated": false,
	"trimmed": true,
	"spriteSourceSize": {"x":2,"y":0,"w":23,"h":37},
	"sourceSize": {"w":27,"h":37}
},
"SS_P02_BLUEBERRY_BUB03 instance 10011.png":
{
	"frame": {"x":2,"y":80,"w":23,"h":37},
	"rotated": false,
	"trimmed": true,
	"spriteSourceSize": {"x":2,"y":0,"w":23,"h":37},
	"sourceSize": {"w":27,"h":37}
},
"SS_P02_BLUEBERRY_BUB03 instance 10012.png":
{
	"frame": {"x":2,"y":271,"w":23,"h":35},
	"rotated": false,
	"trimmed": true,
	"spriteSourceSize": {"x":0,"y":0,"w":23,"h":35},
	"sourceSize": {"w":27,"h":37}
},
"SS_P02_BLUEBERRY_BUB03 instance 10013.png":
{
	"frame": {"x":2,"y":271,"w":23,"h":35},
	"rotated": false,
	"trimmed": true,
	"spriteSourceSize": {"x":0,"y":0,"w":23,"h":35},
	"sourceSize": {"w":27,"h":37}
},
"SS_P02_BLUEBERRY_BUB03 instance 10014.png":
{
	"frame": {"x":2,"y":234,"w":23,"h":35},
	"rotated": false,
	"trimmed": true,
	"spriteSourceSize": {"x":0,"y":0,"w":23,"h":35},
	"sourceSize": {"w":27,"h":37}
},
"SS_P02_BLUEBERRY_BUB03 instance 10015.png":
{
	"frame": {"x":2,"y":234,"w":23,"h":35},
	"rotated": false,
	"trimmed": true,
	"spriteSourceSize": {"x":0,"y":0,"w":23,"h":35},
	"sourceSize": {"w":27,"h":37}
},
"SS_P02_BLUEBERRY_BUB03 instance 10016.png":
{
	"frame": {"x":2,"y":197,"w":23,"h":35},
	"rotated": false,
	"trimmed": true,
	"spriteSourceSize": {"x":0,"y":0,"w":23,"h":35},
	"sourceSize": {"w":27,"h":37}
},
"SS_P02_BLUEBERRY_BUB03 instance 10017.png":
{
	"frame": {"x":2,"y":197,"w":23,"h":35},
	"rotated": false,
	"trimmed": true,
	"spriteSourceSize": {"x":0,"y":0,"w":23,"h":35},
	"sourceSize": {"w":27,"h":37}
},
"SS_P02_BLUEBERRY_BUB03 instance 10018.png":
{
	"frame": {"x":2,"y":41,"w":23,"h":37},
	"rotated": false,
	"trimmed": true,
	"spriteSourceSize": {"x":0,"y":0,"w":23,"h":37},
	"sourceSize": {"w":27,"h":37}
},
"SS_P02_BLUEBERRY_BUB03 instance 10019.png":
{
	"frame": {"x":2,"y":41,"w":23,"h":37},
	"rotated": false,
	"trimmed": true,
	"spriteSourceSize": {"x":0,"y":0,"w":23,"h":37},
	"sourceSize": {"w":27,"h":37}
},
"SS_P02_BLUEBERRY_BUB03 instance 10020.png":
{
	"frame": {"x":2,"y":2,"w":23,"h":37},
	"rotated": false,
	"trimmed": true,
	"spriteSourceSize": {"x":1,"y":0,"w":23,"h":37},
	"sourceSize": {"w":27,"h":37}
},
"SS_P02_BLUEBERRY_BUB03 instance 10021.png":
{
	"frame": {"x":2,"y":2,"w":23,"h":37},
	"rotated": false,
	"trimmed": true,
	"spriteSourceSize": {"x":1,"y":0,"w":23,"h":37},
	"sourceSize": {"w":27,"h":37}
},
"SS_P02_BLUEBERRY_BUB03 instance 10022.png":
{
	"frame": {"x":2,"y":308,"w":23,"h":35},
	"rotated": false,
	"trimmed": true,
	"spriteSourceSize": {"x":2,"y":0,"w":23,"h":35},
	"sourceSize": {"w":27,"h":37}
},
"SS_P02_BLUEBERRY_BUB03 instance 10023.png":
{
	"frame": {"x":2,"y":308,"w":23,"h":35},
	"rotated": false,
	"trimmed": true,
	"spriteSourceSize": {"x":2,"y":0,"w":23,"h":35},
	"sourceSize": {"w":27,"h":37}
},
"SS_P02_BLUEBERRY_BUB03 instance 10024.png":
{
	"frame": {"x":2,"y":345,"w":23,"h":35},
	"rotated": false,
	"trimmed": true,
	"spriteSourceSize": {"x":2,"y":2,"w":23,"h":35},
	"sourceSize": {"w":27,"h":37}
},
"SS_P02_BLUEBERRY_BUB03 instance 10025.png":
{
	"frame": {"x":2,"y":345,"w":23,"h":35},
	"rotated": false,
	"trimmed": true,
	"spriteSourceSize": {"x":2,"y":2,"w":23,"h":35},
	"sourceSize": {"w":27,"h":37}
},
"SS_P02_BLUEBERRY_BUB03 instance 10026.png":
{
	"frame": {"x":2,"y":382,"w":23,"h":35},
	"rotated": false,
	"trimmed": true,
	"spriteSourceSize": {"x":2,"y":2,"w":23,"h":35},
	"sourceSize": {"w":27,"h":37}
},
"SS_P02_BLUEBERRY_BUB03 instance 10027.png":
{
	"frame": {"x":2,"y":382,"w":23,"h":35},
	"rotated": false,
	"trimmed": true,
	"spriteSourceSize": {"x":2,"y":2,"w":23,"h":35},
	"sourceSize": {"w":27,"h":37}
},
"SS_P02_BLUEBERRY_BUB03 instance 10028.png":
{
	"frame": {"x":2,"y":119,"w":23,"h":37},
	"rotated": false,
	"trimmed": true,
	"spriteSourceSize": {"x":4,"y":0,"w":23,"h":37},
	"sourceSize": {"w":27,"h":37}
},
"SS_P02_BLUEBERRY_BUB03 instance 10029.png":
{
	"frame": {"x":2,"y":119,"w":23,"h":37},
	"rotated": false,
	"trimmed": true,
	"spriteSourceSize": {"x":4,"y":0,"w":23,"h":37},
	"sourceSize": {"w":27,"h":37}
},
"SS_P02_BLUEBERRY_BUB03 instance 10030.png":
{
	"frame": {"x":2,"y":158,"w":23,"h":37},
	"rotated": false,
	"trimmed": true,
	"spriteSourceSize": {"x":4,"y":0,"w":23,"h":37},
	"sourceSize": {"w":27,"h":37}
},
"SS_P02_BLUEBERRY_BUB03 instance 10031.png":
{
	"frame": {"x":2,"y":158,"w":23,"h":37},
	"rotated": false,
	"trimmed": true,
	"spriteSourceSize": {"x":4,"y":0,"w":23,"h":37},
	"sourceSize": {"w":27,"h":37}
}},
"meta": {
	"app": "http://www.texturepacker.com",
	"version": "1.0",
	"image": "SS_P02_BLUEBERRY_BUB03.png",
	"format": "RGBA8888",
	"size": {"w":27,"h":419},
	"scale": "1",
	"smartupdate": "$TexturePacker:SmartUpdate:80c756ef45936d2ba6e133cf08c16a5f$"
}
}
