{"frames": {

"Spray instance 10000":
{
	"frame": {"x":0,"y":0,"w":57,"h":81},
	"rotated": false,
	"trimmed": false,
	"spriteSourceSize": {"x":0,"y":0,"w":57,"h":81},
	"sourceSize": {"w":57,"h":81}
},
"Spray instance 10001":
{
	"frame": {"x":0,"y":0,"w":57,"h":81},
	"rotated": false,
	"trimmed": false,
	"spriteSourceSize": {"x":0,"y":0,"w":57,"h":81},
	"sourceSize": {"w":57,"h":81}
},
"Spray instance 10002":
{
	"frame": {"x":0,"y":81,"w":57,"h":81},
	"rotated": false,
	"trimmed": false,
	"spriteSourceSize": {"x":0,"y":0,"w":57,"h":81},
	"sourceSize": {"w":57,"h":81}
},
"Spray instance 10003":
{
	"frame": {"x":0,"y":81,"w":57,"h":81},
	"rotated": false,
	"trimmed": false,
	"spriteSourceSize": {"x":0,"y":0,"w":57,"h":81},
	"sourceSize": {"w":57,"h":81}
},
"Spray instance 10004":
{
	"frame": {"x":0,"y":162,"w":57,"h":81},
	"rotated": false,
	"trimmed": false,
	"spriteSourceSize": {"x":0,"y":0,"w":57,"h":81},
	"sourceSize": {"w":57,"h":81}
},
"Spray instance 10005":
{
	"frame": {"x":0,"y":162,"w":57,"h":81},
	"rotated": false,
	"trimmed": false,
	"spriteSourceSize": {"x":0,"y":0,"w":57,"h":81},
	"sourceSize": {"w":57,"h":81}
},
"Spray instance 10006":
{
	"frame": {"x":57,"y":0,"w":57,"h":81},
	"rotated": false,
	"trimmed": false,
	"spriteSourceSize": {"x":0,"y":0,"w":57,"h":81},
	"sourceSize": {"w":57,"h":81}
},
"Spray instance 10007":
{
	"frame": {"x":57,"y":0,"w":57,"h":81},
	"rotated": false,
	"trimmed": false,
	"spriteSourceSize": {"x":0,"y":0,"w":57,"h":81},
	"sourceSize": {"w":57,"h":81}
},
"Spray instance 10008":
{
	"frame": {"x":114,"y":0,"w":57,"h":81},
	"rotated": false,
	"trimmed": false,
	"spriteSourceSize": {"x":0,"y":0,"w":57,"h":81},
	"sourceSize": {"w":57,"h":81}
},
"Spray instance 10009":
{
	"frame": {"x":114,"y":0,"w":57,"h":81},
	"rotated": false,
	"trimmed": false,
	"spriteSourceSize": {"x":0,"y":0,"w":57,"h":81},
	"sourceSize": {"w":57,"h":81}
},
"Spray instance 10010":
{
	"frame": {"x":171,"y":0,"w":57,"h":81},
	"rotated": false,
	"trimmed": false,
	"spriteSourceSize": {"x":0,"y":0,"w":57,"h":81},
	"sourceSize": {"w":57,"h":81}
},
"Spray instance 10011":
{
	"frame": {"x":171,"y":0,"w":57,"h":81},
	"rotated": false,
	"trimmed": false,
	"spriteSourceSize": {"x":0,"y":0,"w":57,"h":81},
	"sourceSize": {"w":57,"h":81}
},
"Spray instance 10012":
{
	"frame": {"x":57,"y":81,"w":57,"h":81},
	"rotated": false,
	"trimmed": false,
	"spriteSourceSize": {"x":0,"y":0,"w":57,"h":81},
	"sourceSize": {"w":57,"h":81}
},
"Spray instance 10013":
{
	"frame": {"x":57,"y":81,"w":57,"h":81},
	"rotated": false,
	"trimmed": false,
	"spriteSourceSize": {"x":0,"y":0,"w":57,"h":81},
	"sourceSize": {"w":57,"h":81}
},
"Spray instance 10014":
{
	"frame": {"x":57,"y":162,"w":57,"h":81},
	"rotated": false,
	"trimmed": false,
	"spriteSourceSize": {"x":0,"y":0,"w":57,"h":81},
	"sourceSize": {"w":57,"h":81}
},
"Spray instance 10015":
{
	"frame": {"x":57,"y":162,"w":57,"h":81},
	"rotated": false,
	"trimmed": false,
	"spriteSourceSize": {"x":0,"y":0,"w":57,"h":81},
	"sourceSize": {"w":57,"h":81}
},
"Spray instance 10016":
{
	"frame": {"x":114,"y":81,"w":57,"h":81},
	"rotated": false,
	"trimmed": false,
	"spriteSourceSize": {"x":0,"y":0,"w":57,"h":81},
	"sourceSize": {"w":57,"h":81}
},
"Spray instance 10017":
{
	"frame": {"x":114,"y":81,"w":57,"h":81},
	"rotated": false,
	"trimmed": false,
	"spriteSourceSize": {"x":0,"y":0,"w":57,"h":81},
	"sourceSize": {"w":57,"h":81}
},
"Spray instance 10018":
{
	"frame": {"x":114,"y":162,"w":57,"h":81},
	"rotated": false,
	"trimmed": false,
	"spriteSourceSize": {"x":0,"y":0,"w":57,"h":81},
	"sourceSize": {"w":57,"h":81}
},
"Spray instance 10019":
{
	"frame": {"x":114,"y":162,"w":57,"h":81},
	"rotated": false,
	"trimmed": false,
	"spriteSourceSize": {"x":0,"y":0,"w":57,"h":81},
	"sourceSize": {"w":57,"h":81}
},
"Spray instance 10020":
{
	"frame": {"x":171,"y":81,"w":57,"h":81},
	"rotated": false,
	"trimmed": false,
	"spriteSourceSize": {"x":0,"y":0,"w":57,"h":81},
	"sourceSize": {"w":57,"h":81}
},
"Spray instance 10021":
{
	"frame": {"x":171,"y":81,"w":57,"h":81},
	"rotated": false,
	"trimmed": false,
	"spriteSourceSize": {"x":0,"y":0,"w":57,"h":81},
	"sourceSize": {"w":57,"h":81}
},
"Spray instance 10022":
{
	"frame": {"x":171,"y":162,"w":57,"h":81},
	"rotated": false,
	"trimmed": false,
	"spriteSourceSize": {"x":0,"y":0,"w":57,"h":81},
	"sourceSize": {"w":57,"h":81}
},
"Spray instance 10023":
{
	"frame": {"x":171,"y":162,"w":57,"h":81},
	"rotated": false,
	"trimmed": false,
	"spriteSourceSize": {"x":0,"y":0,"w":57,"h":81},
	"sourceSize": {"w":57,"h":81}
}},
"meta": {
	"app": "Adobe Flash CS6",
	"version": "12.0.0.481",
	"image": "P07_Spray.png",
	"format": "RGBA8888",
	"size": {"w":256,"h":256},
	"scale": "1"
}
}
