{"frames": {

"P07_Berrykins instance 10000.png":
{
	"frame": {"x":437,"y":137,"w":91,"h":113},
	"rotated": false,
	"trimmed": true,
	"spriteSourceSize": {"x":0,"y":0,"w":91,"h":113},
	"sourceSize": {"w":161,"h":141}
},
"P07_Berrykins instance 10001.png":
{
	"frame": {"x":437,"y":137,"w":91,"h":113},
	"rotated": false,
	"trimmed": true,
	"spriteSourceSize": {"x":0,"y":0,"w":91,"h":113},
	"sourceSize": {"w":161,"h":141}
},
"P07_Berrykins instance 10002.png":
{
	"frame": {"x":184,"y":141,"w":89,"h":109},
	"rotated": false,
	"trimmed": true,
	"spriteSourceSize": {"x":2,"y":4,"w":89,"h":109},
	"sourceSize": {"w":161,"h":141}
},
"P07_Berrykins instance 10003.png":
{
	"frame": {"x":184,"y":141,"w":89,"h":109},
	"rotated": false,
	"trimmed": true,
	"spriteSourceSize": {"x":2,"y":4,"w":89,"h":109},
	"sourceSize": {"w":161,"h":141}
},
"P07_Berrykins instance 10004.png":
{
	"frame": {"x":292,"y":2,"w":143,"h":137},
	"rotated": false,
	"trimmed": true,
	"spriteSourceSize": {"x":3,"y":4,"w":143,"h":137},
	"sourceSize": {"w":161,"h":141}
},
"P07_Berrykins instance 10005.png":
{
	"frame": {"x":292,"y":2,"w":143,"h":137},
	"rotated": false,
	"trimmed": true,
	"spriteSourceSize": {"x":3,"y":4,"w":143,"h":137},
	"sourceSize": {"w":161,"h":141}
},
"P07_Berrykins instance 10006.png":
{
	"frame": {"x":739,"y":2,"w":149,"h":133},
	"rotated": false,
	"trimmed": true,
	"spriteSourceSize": {"x":2,"y":4,"w":149,"h":133},
	"sourceSize": {"w":161,"h":141}
},
"P07_Berrykins instance 10007.png":
{
	"frame": {"x":739,"y":2,"w":149,"h":133},
	"rotated": false,
	"trimmed": true,
	"spriteSourceSize": {"x":2,"y":4,"w":149,"h":133},
	"sourceSize": {"w":161,"h":141}
},
"P07_Berrykins instance 10008.png":
{
	"frame": {"x":739,"y":2,"w":149,"h":133},
	"rotated": false,
	"trimmed": true,
	"spriteSourceSize": {"x":2,"y":4,"w":149,"h":133},
	"sourceSize": {"w":161,"h":141}
},
"P07_Berrykins instance 10009.png":
{
	"frame": {"x":739,"y":2,"w":149,"h":133},
	"rotated": false,
	"trimmed": true,
	"spriteSourceSize": {"x":2,"y":4,"w":149,"h":133},
	"sourceSize": {"w":161,"h":141}
},
"P07_Berrykins instance 10010.png":
{
	"frame": {"x":292,"y":2,"w":143,"h":137},
	"rotated": false,
	"trimmed": true,
	"spriteSourceSize": {"x":3,"y":4,"w":143,"h":137},
	"sourceSize": {"w":161,"h":141}
},
"P07_Berrykins instance 10011.png":
{
	"frame": {"x":292,"y":2,"w":143,"h":137},
	"rotated": false,
	"trimmed": true,
	"spriteSourceSize": {"x":3,"y":4,"w":143,"h":137},
	"sourceSize": {"w":161,"h":141}
},
"P07_Berrykins instance 10012.png":
{
	"frame": {"x":184,"y":141,"w":89,"h":109},
	"rotated": false,
	"trimmed": true,
	"spriteSourceSize": {"x":2,"y":4,"w":89,"h":109},
	"sourceSize": {"w":161,"h":141}
},
"P07_Berrykins instance 10013.png":
{
	"frame": {"x":184,"y":141,"w":89,"h":109},
	"rotated": false,
	"trimmed": true,
	"spriteSourceSize": {"x":2,"y":4,"w":89,"h":109},
	"sourceSize": {"w":161,"h":141}
},
"P07_Berrykins instance 10014.png":
{
	"frame": {"x":437,"y":137,"w":91,"h":113},
	"rotated": false,
	"trimmed": true,
	"spriteSourceSize": {"x":0,"y":0,"w":91,"h":113},
	"sourceSize": {"w":161,"h":141}
},
"P07_Berrykins instance 10015.png":
{
	"frame": {"x":437,"y":137,"w":91,"h":113},
	"rotated": false,
	"trimmed": true,
	"spriteSourceSize": {"x":0,"y":0,"w":91,"h":113},
	"sourceSize": {"w":161,"h":141}
},
"P07_Berrykins instance 10016.png":
{
	"frame": {"x":437,"y":137,"w":91,"h":113},
	"rotated": false,
	"trimmed": true,
	"spriteSourceSize": {"x":0,"y":0,"w":91,"h":113},
	"sourceSize": {"w":161,"h":141}
},
"P07_Berrykins instance 10017.png":
{
	"frame": {"x":437,"y":137,"w":91,"h":113},
	"rotated": false,
	"trimmed": true,
	"spriteSourceSize": {"x":0,"y":0,"w":91,"h":113},
	"sourceSize": {"w":161,"h":141}
},
"P07_Berrykins instance 10018.png":
{
	"frame": {"x":93,"y":141,"w":89,"h":109},
	"rotated": false,
	"trimmed": true,
	"spriteSourceSize": {"x":2,"y":4,"w":89,"h":109},
	"sourceSize": {"w":161,"h":141}
},
"P07_Berrykins instance 10019.png":
{
	"frame": {"x":93,"y":141,"w":89,"h":109},
	"rotated": false,
	"trimmed": true,
	"spriteSourceSize": {"x":2,"y":4,"w":89,"h":109},
	"sourceSize": {"w":161,"h":141}
},
"P07_Berrykins instance 10020.png":
{
	"frame": {"x":147,"y":2,"w":143,"h":137},
	"rotated": false,
	"trimmed": true,
	"spriteSourceSize": {"x":3,"y":4,"w":143,"h":137},
	"sourceSize": {"w":161,"h":141}
},
"P07_Berrykins instance 10021.png":
{
	"frame": {"x":147,"y":2,"w":143,"h":137},
	"rotated": false,
	"trimmed": true,
	"spriteSourceSize": {"x":3,"y":4,"w":143,"h":137},
	"sourceSize": {"w":161,"h":141}
},
"P07_Berrykins instance 10022.png":
{
	"frame": {"x":588,"y":2,"w":149,"h":133},
	"rotated": false,
	"trimmed": true,
	"spriteSourceSize": {"x":2,"y":4,"w":149,"h":133},
	"sourceSize": {"w":161,"h":141}
},
"P07_Berrykins instance 10023.png":
{
	"frame": {"x":588,"y":2,"w":149,"h":133},
	"rotated": false,
	"trimmed": true,
	"spriteSourceSize": {"x":2,"y":4,"w":149,"h":133},
	"sourceSize": {"w":161,"h":141}
},
"P07_Berrykins instance 10024.png":
{
	"frame": {"x":588,"y":2,"w":149,"h":133},
	"rotated": false,
	"trimmed": true,
	"spriteSourceSize": {"x":2,"y":4,"w":149,"h":133},
	"sourceSize": {"w":161,"h":141}
},
"P07_Berrykins instance 10025.png":
{
	"frame": {"x":588,"y":2,"w":149,"h":133},
	"rotated": false,
	"trimmed": true,
	"spriteSourceSize": {"x":2,"y":4,"w":149,"h":133},
	"sourceSize": {"w":161,"h":141}
},
"P07_Berrykins instance 10026.png":
{
	"frame": {"x":147,"y":2,"w":143,"h":137},
	"rotated": false,
	"trimmed": true,
	"spriteSourceSize": {"x":3,"y":4,"w":143,"h":137},
	"sourceSize": {"w":161,"h":141}
},
"P07_Berrykins instance 10027.png":
{
	"frame": {"x":147,"y":2,"w":143,"h":137},
	"rotated": false,
	"trimmed": true,
	"spriteSourceSize": {"x":3,"y":4,"w":143,"h":137},
	"sourceSize": {"w":161,"h":141}
},
"P07_Berrykins instance 10028.png":
{
	"frame": {"x":93,"y":141,"w":89,"h":109},
	"rotated": false,
	"trimmed": true,
	"spriteSourceSize": {"x":2,"y":4,"w":89,"h":109},
	"sourceSize": {"w":161,"h":141}
},
"P07_Berrykins instance 10029.png":
{
	"frame": {"x":93,"y":141,"w":89,"h":109},
	"rotated": false,
	"trimmed": true,
	"spriteSourceSize": {"x":2,"y":4,"w":89,"h":109},
	"sourceSize": {"w":161,"h":141}
},
"P07_Berrykins instance 10030.png":
{
	"frame": {"x":437,"y":137,"w":91,"h":113},
	"rotated": false,
	"trimmed": true,
	"spriteSourceSize": {"x":0,"y":0,"w":91,"h":113},
	"sourceSize": {"w":161,"h":141}
},
"P07_Berrykins instance 10031.png":
{
	"frame": {"x":437,"y":137,"w":91,"h":113},
	"rotated": false,
	"trimmed": true,
	"spriteSourceSize": {"x":0,"y":0,"w":91,"h":113},
	"sourceSize": {"w":161,"h":141}
},
"P07_Berrykins instance 10032.png":
{
	"frame": {"x":437,"y":137,"w":91,"h":113},
	"rotated": false,
	"trimmed": true,
	"spriteSourceSize": {"x":0,"y":0,"w":91,"h":113},
	"sourceSize": {"w":161,"h":141}
},
"P07_Berrykins instance 10033.png":
{
	"frame": {"x":437,"y":137,"w":91,"h":113},
	"rotated": false,
	"trimmed": true,
	"spriteSourceSize": {"x":0,"y":0,"w":91,"h":113},
	"sourceSize": {"w":161,"h":141}
},
"P07_Berrykins instance 10034.png":
{
	"frame": {"x":437,"y":137,"w":91,"h":113},
	"rotated": false,
	"trimmed": true,
	"spriteSourceSize": {"x":0,"y":0,"w":91,"h":113},
	"sourceSize": {"w":161,"h":141}
},
"P07_Berrykins instance 10035.png":
{
	"frame": {"x":437,"y":137,"w":91,"h":113},
	"rotated": false,
	"trimmed": true,
	"spriteSourceSize": {"x":0,"y":0,"w":91,"h":113},
	"sourceSize": {"w":161,"h":141}
},
"P07_Berrykins instance 10036.png":
{
	"frame": {"x":2,"y":141,"w":89,"h":109},
	"rotated": false,
	"trimmed": true,
	"spriteSourceSize": {"x":2,"y":4,"w":89,"h":109},
	"sourceSize": {"w":161,"h":141}
},
"P07_Berrykins instance 10037.png":
{
	"frame": {"x":2,"y":141,"w":89,"h":109},
	"rotated": false,
	"trimmed": true,
	"spriteSourceSize": {"x":2,"y":4,"w":89,"h":109},
	"sourceSize": {"w":161,"h":141}
},
"P07_Berrykins instance 10038.png":
{
	"frame": {"x":2,"y":2,"w":143,"h":137},
	"rotated": false,
	"trimmed": true,
	"spriteSourceSize": {"x":3,"y":4,"w":143,"h":137},
	"sourceSize": {"w":161,"h":141}
},
"P07_Berrykins instance 10039.png":
{
	"frame": {"x":2,"y":2,"w":143,"h":137},
	"rotated": false,
	"trimmed": true,
	"spriteSourceSize": {"x":3,"y":4,"w":143,"h":137},
	"sourceSize": {"w":161,"h":141}
},
"P07_Berrykins instance 10040.png":
{
	"frame": {"x":437,"y":2,"w":149,"h":133},
	"rotated": false,
	"trimmed": true,
	"spriteSourceSize": {"x":2,"y":4,"w":149,"h":133},
	"sourceSize": {"w":161,"h":141}
},
"P07_Berrykins instance 10041.png":
{
	"frame": {"x":437,"y":2,"w":149,"h":133},
	"rotated": false,
	"trimmed": true,
	"spriteSourceSize": {"x":2,"y":4,"w":149,"h":133},
	"sourceSize": {"w":161,"h":141}
},
"P07_Berrykins instance 10042.png":
{
	"frame": {"x":437,"y":2,"w":149,"h":133},
	"rotated": false,
	"trimmed": true,
	"spriteSourceSize": {"x":2,"y":4,"w":149,"h":133},
	"sourceSize": {"w":161,"h":141}
},
"P07_Berrykins instance 10043.png":
{
	"frame": {"x":437,"y":2,"w":149,"h":133},
	"rotated": false,
	"trimmed": true,
	"spriteSourceSize": {"x":2,"y":4,"w":149,"h":133},
	"sourceSize": {"w":161,"h":141}
},
"P07_Berrykins instance 10044.png":
{
	"frame": {"x":2,"y":2,"w":143,"h":137},
	"rotated": false,
	"trimmed": true,
	"spriteSourceSize": {"x":3,"y":4,"w":143,"h":137},
	"sourceSize": {"w":161,"h":141}
},
"P07_Berrykins instance 10045.png":
{
	"frame": {"x":2,"y":2,"w":143,"h":137},
	"rotated": false,
	"trimmed": true,
	"spriteSourceSize": {"x":3,"y":4,"w":143,"h":137},
	"sourceSize": {"w":161,"h":141}
},
"P07_Berrykins instance 10046.png":
{
	"frame": {"x":2,"y":141,"w":89,"h":109},
	"rotated": false,
	"trimmed": true,
	"spriteSourceSize": {"x":2,"y":4,"w":89,"h":109},
	"sourceSize": {"w":161,"h":141}
},
"P07_Berrykins instance 10047.png":
{
	"frame": {"x":2,"y":141,"w":89,"h":109},
	"rotated": false,
	"trimmed": true,
	"spriteSourceSize": {"x":2,"y":4,"w":89,"h":109},
	"sourceSize": {"w":161,"h":141}
},
"P07_Berrykins instance 10048.png":
{
	"frame": {"x":437,"y":137,"w":91,"h":113},
	"rotated": false,
	"trimmed": true,
	"spriteSourceSize": {"x":0,"y":0,"w":91,"h":113},
	"sourceSize": {"w":161,"h":141}
},
"P07_Berrykins instance 10049.png":
{
	"frame": {"x":437,"y":137,"w":91,"h":113},
	"rotated": false,
	"trimmed": true,
	"spriteSourceSize": {"x":0,"y":0,"w":91,"h":113},
	"sourceSize": {"w":161,"h":141}
}},
"meta": {
	"app": "http://www.texturepacker.com",
	"version": "1.0",
	"image": "P07_Berrykin.png",
	"format": "RGBA8888",
	"size": {"w":890,"h":252},
	"scale": "1",
	"smartupdate": "$TexturePacker:SmartUpdate:9b12cf4f329f3335aec158b8031795c5$"
}
}
