{"frames": {

"P07_Henna0000.png":
{
	"frame": {"x":1122,"y":2,"w":178,"h":216},
	"rotated": false,
	"trimmed": true,
	"spriteSourceSize": {"x":12,"y":13,"w":178,"h":216},
	"sourceSize": {"w":200,"h":230}
},
"P07_Henna0001.png":
{
	"frame": {"x":1122,"y":2,"w":178,"h":216},
	"rotated": false,
	"trimmed": true,
	"spriteSourceSize": {"x":12,"y":13,"w":178,"h":216},
	"sourceSize": {"w":200,"h":230}
},
"P07_Henna0002.png":
{
	"frame": {"x":1864,"y":2,"w":180,"h":210},
	"rotated": false,
	"trimmed": true,
	"spriteSourceSize": {"x":12,"y":19,"w":180,"h":210},
	"sourceSize": {"w":200,"h":230}
},
"P07_Henna0003.png":
{
	"frame": {"x":1864,"y":2,"w":180,"h":210},
	"rotated": false,
	"trimmed": true,
	"spriteSourceSize": {"x":12,"y":19,"w":180,"h":210},
	"sourceSize": {"w":200,"h":230}
},
"P07_Henna0004.png":
{
	"frame": {"x":1678,"y":2,"w":184,"h":210},
	"rotated": false,
	"trimmed": true,
	"spriteSourceSize": {"x":12,"y":19,"w":184,"h":210},
	"sourceSize": {"w":200,"h":230}
},
"P07_Henna0005.png":
{
	"frame": {"x":1678,"y":2,"w":184,"h":210},
	"rotated": false,
	"trimmed": true,
	"spriteSourceSize": {"x":12,"y":19,"w":184,"h":210},
	"sourceSize": {"w":200,"h":230}
},
"P07_Henna0006.png":
{
	"frame": {"x":1490,"y":2,"w":186,"h":212},
	"rotated": false,
	"trimmed": true,
	"spriteSourceSize": {"x":12,"y":17,"w":186,"h":212},
	"sourceSize": {"w":200,"h":230}
},
"P07_Henna0007.png":
{
	"frame": {"x":1490,"y":2,"w":186,"h":212},
	"rotated": false,
	"trimmed": true,
	"spriteSourceSize": {"x":12,"y":17,"w":186,"h":212},
	"sourceSize": {"w":200,"h":230}
},
"P07_Henna0008.png":
{
	"frame": {"x":934,"y":2,"w":186,"h":218},
	"rotated": false,
	"trimmed": true,
	"spriteSourceSize": {"x":12,"y":11,"w":186,"h":218},
	"sourceSize": {"w":200,"h":230}
},
"P07_Henna0009.png":
{
	"frame": {"x":934,"y":2,"w":186,"h":218},
	"rotated": false,
	"trimmed": true,
	"spriteSourceSize": {"x":12,"y":11,"w":186,"h":218},
	"sourceSize": {"w":200,"h":230}
},
"P07_Henna0010.png":
{
	"frame": {"x":372,"y":2,"w":184,"h":222},
	"rotated": false,
	"trimmed": true,
	"spriteSourceSize": {"x":12,"y":7,"w":184,"h":222},
	"sourceSize": {"w":200,"h":230}
},
"P07_Henna0011.png":
{
	"frame": {"x":372,"y":2,"w":184,"h":222},
	"rotated": false,
	"trimmed": true,
	"spriteSourceSize": {"x":12,"y":7,"w":184,"h":222},
	"sourceSize": {"w":200,"h":230}
},
"P07_Henna0012.png":
{
	"frame": {"x":2,"y":2,"w":182,"h":224},
	"rotated": false,
	"trimmed": true,
	"spriteSourceSize": {"x":12,"y":5,"w":182,"h":224},
	"sourceSize": {"w":200,"h":230}
},
"P07_Henna0013.png":
{
	"frame": {"x":2,"y":2,"w":182,"h":224},
	"rotated": false,
	"trimmed": true,
	"spriteSourceSize": {"x":12,"y":5,"w":182,"h":224},
	"sourceSize": {"w":200,"h":230}
},
"P07_Henna0014.png":
{
	"frame": {"x":186,"y":2,"w":184,"h":222},
	"rotated": false,
	"trimmed": true,
	"spriteSourceSize": {"x":12,"y":7,"w":184,"h":222},
	"sourceSize": {"w":200,"h":230}
},
"P07_Henna0015.png":
{
	"frame": {"x":186,"y":2,"w":184,"h":222},
	"rotated": false,
	"trimmed": true,
	"spriteSourceSize": {"x":12,"y":7,"w":184,"h":222},
	"sourceSize": {"w":200,"h":230}
},
"P07_Henna0016.png":
{
	"frame": {"x":746,"y":2,"w":186,"h":218},
	"rotated": false,
	"trimmed": true,
	"spriteSourceSize": {"x":12,"y":11,"w":186,"h":218},
	"sourceSize": {"w":200,"h":230}
},
"P07_Henna0017.png":
{
	"frame": {"x":746,"y":2,"w":186,"h":218},
	"rotated": false,
	"trimmed": true,
	"spriteSourceSize": {"x":12,"y":11,"w":186,"h":218},
	"sourceSize": {"w":200,"h":230}
},
"P07_Henna0018.png":
{
	"frame": {"x":1302,"y":2,"w":186,"h":214},
	"rotated": false,
	"trimmed": true,
	"spriteSourceSize": {"x":13,"y":15,"w":186,"h":214},
	"sourceSize": {"w":200,"h":230}
},
"P07_Henna0019.png":
{
	"frame": {"x":1302,"y":2,"w":186,"h":214},
	"rotated": false,
	"trimmed": true,
	"spriteSourceSize": {"x":13,"y":15,"w":186,"h":214},
	"sourceSize": {"w":200,"h":230}
},
"P07_Henna0020.png":
{
	"frame": {"x":558,"y":2,"w":186,"h":218},
	"rotated": false,
	"trimmed": true,
	"spriteSourceSize": {"x":12,"y":11,"w":186,"h":218},
	"sourceSize": {"w":200,"h":230}
},
"P07_Henna0021.png":
{
	"frame": {"x":558,"y":2,"w":186,"h":218},
	"rotated": false,
	"trimmed": true,
	"spriteSourceSize": {"x":12,"y":11,"w":186,"h":218},
	"sourceSize": {"w":200,"h":230}
},
"P07_Henna0022.png":
{
	"frame": {"x":1490,"y":2,"w":186,"h":212},
	"rotated": false,
	"trimmed": true,
	"spriteSourceSize": {"x":12,"y":17,"w":186,"h":212},
	"sourceSize": {"w":200,"h":230}
},
"P07_Henna0023.png":
{
	"frame": {"x":1490,"y":2,"w":186,"h":212},
	"rotated": false,
	"trimmed": true,
	"spriteSourceSize": {"x":12,"y":17,"w":186,"h":212},
	"sourceSize": {"w":200,"h":230}
},
"P07_Henna0024.png":
{
	"frame": {"x":1678,"y":2,"w":184,"h":210},
	"rotated": false,
	"trimmed": true,
	"spriteSourceSize": {"x":12,"y":19,"w":184,"h":210},
	"sourceSize": {"w":200,"h":230}
},
"P07_Henna0025.png":
{
	"frame": {"x":1678,"y":2,"w":184,"h":210},
	"rotated": false,
	"trimmed": true,
	"spriteSourceSize": {"x":12,"y":19,"w":184,"h":210},
	"sourceSize": {"w":200,"h":230}
},
"P07_Henna0026.png":
{
	"frame": {"x":1864,"y":2,"w":180,"h":210},
	"rotated": false,
	"trimmed": true,
	"spriteSourceSize": {"x":12,"y":19,"w":180,"h":210},
	"sourceSize": {"w":200,"h":230}
},
"P07_Henna0027.png":
{
	"frame": {"x":1864,"y":2,"w":180,"h":210},
	"rotated": false,
	"trimmed": true,
	"spriteSourceSize": {"x":12,"y":19,"w":180,"h":210},
	"sourceSize": {"w":200,"h":230}
},
"P07_Henna0028.png":
{
	"frame": {"x":1122,"y":2,"w":178,"h":216},
	"rotated": false,
	"trimmed": true,
	"spriteSourceSize": {"x":12,"y":13,"w":178,"h":216},
	"sourceSize": {"w":200,"h":230}
},
"P07_Henna0029.png":
{
	"frame": {"x":1122,"y":2,"w":178,"h":216},
	"rotated": false,
	"trimmed": true,
	"spriteSourceSize": {"x":12,"y":13,"w":178,"h":216},
	"sourceSize": {"w":200,"h":230}
}},
"meta": {
	"app": "http://www.texturepacker.com",
	"version": "1.0",
	"image": "P07_Henna.png",
	"format": "RGBA8888",
	"size": {"w":2046,"h":228},
	"scale": "1",
	"smartupdate": "$TexturePacker:SmartUpdate:da9631cc4e41f4ef742bf2471707a394$"
}
}
