{"frames": {

"P11_Sparkle.png":
{
	"frame": {"x":2,"y":842,"w":46,"h":54},
	"rotated": false,
	"trimmed": true,
	"spriteSourceSize": {"x":2,"y":2,"w":46,"h":54},
	"sourceSize": {"w":50,"h":60}
},
"SS_P14_BERRY.png":
{
	"frame": {"x":2,"y":954,"w":30,"h":36},
	"rotated": false,
	"trimmed": false,
	"spriteSourceSize": {"x":0,"y":0,"w":30,"h":36},
	"sourceSize": {"w":30,"h":36}
},
"SS_P14_BLUEBERRY_0001.png":
{
	"frame": {"x":1040,"y":390,"w":180,"h":380},
	"rotated": false,
	"trimmed": true,
	"spriteSourceSize": {"x":22,"y":8,"w":180,"h":380},
	"sourceSize": {"w":202,"h":390}
},
"SS_P14_BLUEBERRY_0002.png":
{
	"frame": {"x":940,"y":780,"w":182,"h":380},
	"rotated": true,
	"trimmed": true,
	"spriteSourceSize": {"x":2,"y":8,"w":182,"h":380},
	"sourceSize": {"w":202,"h":390}
},
"SS_P14_CHERRY2_0001.png":
{
	"frame": {"x":540,"y":396,"w":156,"h":392},
	"rotated": false,
	"trimmed": true,
	"spriteSourceSize": {"x":48,"y":2,"w":156,"h":392},
	"sourceSize": {"w":212,"h":394}
},
"SS_P14_CHERRY2_0002.png":
{
	"frame": {"x":364,"y":2,"w":206,"h":392},
	"rotated": false,
	"trimmed": true,
	"spriteSourceSize": {"x":2,"y":0,"w":206,"h":392},
	"sourceSize": {"w":212,"h":394}
},
"SS_P14_CHERRY_0001.png":
{
	"frame": {"x":374,"y":396,"w":164,"h":392},
	"rotated": false,
	"trimmed": true,
	"spriteSourceSize": {"x":40,"y":2,"w":164,"h":392},
	"sourceSize": {"w":212,"h":394}
},
"SS_P14_CHERRY_0002.png":
{
	"frame": {"x":364,"y":2,"w":206,"h":392},
	"rotated": false,
	"trimmed": true,
	"spriteSourceSize": {"x":2,"y":0,"w":206,"h":392},
	"sourceSize": {"w":212,"h":394}
},
"SS_P14_CHERRY_0003.png":
{
	"frame": {"x":540,"y":396,"w":156,"h":392},
	"rotated": false,
	"trimmed": true,
	"spriteSourceSize": {"x":48,"y":2,"w":156,"h":392},
	"sourceSize": {"w":212,"h":394}
},
"SS_P14_DRESS.png":
{
	"frame": {"x":1124,"y":2,"w":322,"h":294},
	"rotated": true,
	"trimmed": true,
	"spriteSourceSize": {"x":0,"y":10,"w":322,"h":294},
	"sourceSize": {"w":322,"h":304}
},
"SS_P14_LEMON_0001.png":
{
	"frame": {"x":176,"y":814,"w":182,"h":388},
	"rotated": true,
	"trimmed": true,
	"spriteSourceSize": {"x":19,"y":2,"w":182,"h":388},
	"sourceSize": {"w":202,"h":390}
},
"SS_P14_LEMON_0002.png":
{
	"frame": {"x":698,"y":394,"w":166,"h":388},
	"rotated": false,
	"trimmed": true,
	"spriteSourceSize": {"x":16,"y":2,"w":166,"h":388},
	"sourceSize": {"w":202,"h":390}
},
"SS_P14_ORANGE2_0001.png":
{
	"frame": {"x":950,"y":2,"w":172,"h":386},
	"rotated": false,
	"trimmed": true,
	"spriteSourceSize": {"x":0,"y":11,"w":172,"h":386},
	"sourceSize": {"w":184,"h":400}
},
"SS_P14_ORANGE2_0002.png":
{
	"frame": {"x":788,"y":2,"w":160,"h":388},
	"rotated": false,
	"trimmed": true,
	"spriteSourceSize": {"x":21,"y":9,"w":160,"h":388},
	"sourceSize": {"w":184,"h":400}
},
"SS_P14_ORANGE_0001.png":
{
	"frame": {"x":866,"y":392,"w":172,"h":386},
	"rotated": false,
	"trimmed": true,
	"spriteSourceSize": {"x":0,"y":11,"w":172,"h":386},
	"sourceSize": {"w":184,"h":400}
},
"SS_P14_ORANGE_0002.png":
{
	"frame": {"x":788,"y":2,"w":160,"h":388},
	"rotated": false,
	"trimmed": true,
	"spriteSourceSize": {"x":21,"y":9,"w":160,"h":388},
	"sourceSize": {"w":184,"h":400}
},
"SS_P14_ORANGE_0003.png":
{
	"frame": {"x":950,"y":2,"w":172,"h":386},
	"rotated": false,
	"trimmed": true,
	"spriteSourceSize": {"x":0,"y":11,"w":172,"h":386},
	"sourceSize": {"w":184,"h":400}
},
"SS_P14_PLUM_0001.png":
{
	"frame": {"x":176,"y":2,"w":186,"h":410},
	"rotated": false,
	"trimmed": true,
	"spriteSourceSize": {"x":11,"y":2,"w":186,"h":410},
	"sourceSize": {"w":234,"h":418}
},
"SS_P14_PLUM_0002.png":
{
	"frame": {"x":572,"y":2,"w":214,"h":390},
	"rotated": false,
	"trimmed": true,
	"spriteSourceSize": {"x":8,"y":27,"w":214,"h":390},
	"sourceSize": {"w":234,"h":418}
},
"SS_P14_RASPBERRY_0001.png":
{
	"frame": {"x":566,"y":790,"w":190,"h":372},
	"rotated": true,
	"trimmed": true,
	"spriteSourceSize": {"x":9,"y":7,"w":190,"h":372},
	"sourceSize": {"w":220,"h":392}
},
"SS_P14_SLEEVE01.png":
{
	"frame": {"x":48,"y":898,"w":50,"h":50},
	"rotated": false,
	"trimmed": false,
	"spriteSourceSize": {"x":0,"y":0,"w":50,"h":50},
	"sourceSize": {"w":50,"h":50}
},
"SS_P14_SLEEVE02.png":
{
	"frame": {"x":2,"y":898,"w":44,"h":54},
	"rotated": false,
	"trimmed": false,
	"spriteSourceSize": {"x":0,"y":0,"w":44,"h":54},
	"sourceSize": {"w":44,"h":54}
},
"SS_P14_STRAWBERRY2_0001.png":
{
	"frame": {"x":2,"y":422,"w":172,"h":418},
	"rotated": false,
	"trimmed": true,
	"spriteSourceSize": {"x":21,"y":32,"w":172,"h":418},
	"sourceSize": {"w":216,"h":456}
},
"SS_P14_STRAWBERRY2_0002.png":
{
	"frame": {"x":176,"y":414,"w":196,"h":398},
	"rotated": false,
	"trimmed": true,
	"spriteSourceSize": {"x":16,"y":35,"w":196,"h":398},
	"sourceSize": {"w":216,"h":456}
},
"SS_P14_STRAWBERRY_0001.png":
{
	"frame": {"x":2,"y":2,"w":172,"h":418},
	"rotated": false,
	"trimmed": true,
	"spriteSourceSize": {"x":21,"y":32,"w":172,"h":418},
	"sourceSize": {"w":216,"h":456}
},
"SS_P14_STRAWBERRY_0002.png":
{
	"frame": {"x":176,"y":414,"w":196,"h":398},
	"rotated": false,
	"trimmed": true,
	"spriteSourceSize": {"x":16,"y":35,"w":196,"h":398},
	"sourceSize": {"w":216,"h":456}
},
"SS_P14_STRAWBERRY_0003.png":
{
	"frame": {"x":2,"y":422,"w":172,"h":418},
	"rotated": false,
	"trimmed": true,
	"spriteSourceSize": {"x":21,"y":32,"w":172,"h":418},
	"sourceSize": {"w":216,"h":456}
}},
"meta": {
	"app": "http://www.codeandweb.com/texturepacker ",
	"version": "1.0",
	"image": "Page.png",
	"format": "RGBA8888",
	"size": {"w":1420,"h":998},
	"scale": "1",
	"smartupdate": "$TexturePacker:SmartUpdate:04f2b7fd8f9ab0f953279d8a78fcdc99$"
}
}
