{"frames": {

"SS_P14_RASPBERRY0000.png":
{
	"frame": {"x":1176,"y":2,"w":190,"h":372},
	"rotated": false,
	"trimmed": true,
	"spriteSourceSize": {"x":9,"y":7,"w":190,"h":372},
	"sourceSize": {"w":220,"h":392}
},
"SS_P14_RASPBERRY0001.png":
{
	"frame": {"x":1176,"y":2,"w":190,"h":372},
	"rotated": false,
	"trimmed": true,
	"spriteSourceSize": {"x":9,"y":7,"w":190,"h":372},
	"sourceSize": {"w":220,"h":392}
},
"SS_P14_RASPBERRY0002.png":
{
	"frame": {"x":984,"y":2,"w":190,"h":372},
	"rotated": false,
	"trimmed": true,
	"spriteSourceSize": {"x":9,"y":7,"w":190,"h":372},
	"sourceSize": {"w":220,"h":392}
},
"SS_P14_RASPBERRY0003.png":
{
	"frame": {"x":984,"y":2,"w":190,"h":372},
	"rotated": false,
	"trimmed": true,
	"spriteSourceSize": {"x":9,"y":7,"w":190,"h":372},
	"sourceSize": {"w":220,"h":392}
},
"SS_P14_RASPBERRY0004.png":
{
	"frame": {"x":790,"y":2,"w":192,"h":370},
	"rotated": false,
	"trimmed": true,
	"spriteSourceSize": {"x":7,"y":9,"w":192,"h":370},
	"sourceSize": {"w":220,"h":392}
},
"SS_P14_RASPBERRY0005.png":
{
	"frame": {"x":790,"y":2,"w":192,"h":370},
	"rotated": false,
	"trimmed": true,
	"spriteSourceSize": {"x":7,"y":9,"w":192,"h":370},
	"sourceSize": {"w":220,"h":392}
},
"SS_P14_RASPBERRY0006.png":
{
	"frame": {"x":596,"y":2,"w":192,"h":370},
	"rotated": false,
	"trimmed": true,
	"spriteSourceSize": {"x":7,"y":9,"w":192,"h":370},
	"sourceSize": {"w":220,"h":392}
},
"SS_P14_RASPBERRY0007.png":
{
	"frame": {"x":596,"y":2,"w":192,"h":370},
	"rotated": false,
	"trimmed": true,
	"spriteSourceSize": {"x":7,"y":9,"w":192,"h":370},
	"sourceSize": {"w":220,"h":392}
},
"SS_P14_RASPBERRY0008.png":
{
	"frame": {"x":400,"y":2,"w":194,"h":368},
	"rotated": false,
	"trimmed": true,
	"spriteSourceSize": {"x":6,"y":11,"w":194,"h":368},
	"sourceSize": {"w":220,"h":392}
},
"SS_P14_RASPBERRY0009.png":
{
	"frame": {"x":400,"y":2,"w":194,"h":368},
	"rotated": false,
	"trimmed": true,
	"spriteSourceSize": {"x":6,"y":11,"w":194,"h":368},
	"sourceSize": {"w":220,"h":392}
},
"SS_P14_RASPBERRY0010.png":
{
	"frame": {"x":202,"y":2,"w":196,"h":364},
	"rotated": false,
	"trimmed": true,
	"spriteSourceSize": {"x":4,"y":15,"w":196,"h":364},
	"sourceSize": {"w":220,"h":392}
},
"SS_P14_RASPBERRY0011.png":
{
	"frame": {"x":202,"y":2,"w":196,"h":364},
	"rotated": false,
	"trimmed": true,
	"spriteSourceSize": {"x":4,"y":15,"w":196,"h":364},
	"sourceSize": {"w":220,"h":392}
},
"SS_P14_RASPBERRY0012.png":
{
	"frame": {"x":2,"y":2,"w":198,"h":360},
	"rotated": false,
	"trimmed": true,
	"spriteSourceSize": {"x":2,"y":19,"w":198,"h":360},
	"sourceSize": {"w":220,"h":392}
},
"SS_P14_RASPBERRY0013.png":
{
	"frame": {"x":2,"y":2,"w":198,"h":360},
	"rotated": false,
	"trimmed": true,
	"spriteSourceSize": {"x":2,"y":19,"w":198,"h":360},
	"sourceSize": {"w":220,"h":392}
},
"SS_P14_RASPBERRY0014.png":
{
	"frame": {"x":1452,"y":376,"w":182,"h":376},
	"rotated": false,
	"trimmed": true,
	"spriteSourceSize": {"x":32,"y":9,"w":182,"h":376},
	"sourceSize": {"w":220,"h":392}
},
"SS_P14_RASPBERRY0015.png":
{
	"frame": {"x":1452,"y":376,"w":182,"h":376},
	"rotated": false,
	"trimmed": true,
	"spriteSourceSize": {"x":32,"y":9,"w":182,"h":376},
	"sourceSize": {"w":220,"h":392}
},
"SS_P14_RASPBERRY0016.png":
{
	"frame": {"x":1268,"y":376,"w":182,"h":376},
	"rotated": false,
	"trimmed": true,
	"spriteSourceSize": {"x":30,"y":9,"w":182,"h":376},
	"sourceSize": {"w":220,"h":392}
},
"SS_P14_RASPBERRY0017.png":
{
	"frame": {"x":1268,"y":376,"w":182,"h":376},
	"rotated": false,
	"trimmed": true,
	"spriteSourceSize": {"x":30,"y":9,"w":182,"h":376},
	"sourceSize": {"w":220,"h":392}
},
"SS_P14_RASPBERRY0018.png":
{
	"frame": {"x":1086,"y":376,"w":180,"h":374},
	"rotated": false,
	"trimmed": true,
	"spriteSourceSize": {"x":29,"y":11,"w":180,"h":374},
	"sourceSize": {"w":220,"h":392}
},
"SS_P14_RASPBERRY0019.png":
{
	"frame": {"x":1086,"y":376,"w":180,"h":374},
	"rotated": false,
	"trimmed": true,
	"spriteSourceSize": {"x":29,"y":11,"w":180,"h":374},
	"sourceSize": {"w":220,"h":392}
},
"SS_P14_RASPBERRY0020.png":
{
	"frame": {"x":904,"y":376,"w":180,"h":374},
	"rotated": false,
	"trimmed": true,
	"spriteSourceSize": {"x":27,"y":11,"w":180,"h":374},
	"sourceSize": {"w":220,"h":392}
},
"SS_P14_RASPBERRY0021.png":
{
	"frame": {"x":904,"y":376,"w":180,"h":374},
	"rotated": false,
	"trimmed": true,
	"spriteSourceSize": {"x":27,"y":11,"w":180,"h":374},
	"sourceSize": {"w":220,"h":392}
},
"SS_P14_RASPBERRY0022.png":
{
	"frame": {"x":722,"y":374,"w":180,"h":374},
	"rotated": false,
	"trimmed": true,
	"spriteSourceSize": {"x":26,"y":11,"w":180,"h":374},
	"sourceSize": {"w":220,"h":392}
},
"SS_P14_RASPBERRY0023.png":
{
	"frame": {"x":722,"y":374,"w":180,"h":374},
	"rotated": false,
	"trimmed": true,
	"spriteSourceSize": {"x":26,"y":11,"w":180,"h":374},
	"sourceSize": {"w":220,"h":392}
},
"SS_P14_RASPBERRY0024.png":
{
	"frame": {"x":542,"y":374,"w":178,"h":372},
	"rotated": false,
	"trimmed": true,
	"spriteSourceSize": {"x":26,"y":13,"w":178,"h":372},
	"sourceSize": {"w":220,"h":392}
},
"SS_P14_RASPBERRY0025.png":
{
	"frame": {"x":542,"y":374,"w":178,"h":372},
	"rotated": false,
	"trimmed": true,
	"spriteSourceSize": {"x":26,"y":13,"w":178,"h":372},
	"sourceSize": {"w":220,"h":392}
},
"SS_P14_RASPBERRY0026.png":
{
	"frame": {"x":362,"y":372,"w":178,"h":372},
	"rotated": false,
	"trimmed": true,
	"spriteSourceSize": {"x":25,"y":13,"w":178,"h":372},
	"sourceSize": {"w":220,"h":392}
},
"SS_P14_RASPBERRY0027.png":
{
	"frame": {"x":362,"y":372,"w":178,"h":372},
	"rotated": false,
	"trimmed": true,
	"spriteSourceSize": {"x":25,"y":13,"w":178,"h":372},
	"sourceSize": {"w":220,"h":392}
},
"SS_P14_RASPBERRY0028.png":
{
	"frame": {"x":182,"y":368,"w":178,"h":372},
	"rotated": false,
	"trimmed": true,
	"spriteSourceSize": {"x":24,"y":13,"w":178,"h":372},
	"sourceSize": {"w":220,"h":392}
},
"SS_P14_RASPBERRY0029.png":
{
	"frame": {"x":182,"y":368,"w":178,"h":372},
	"rotated": false,
	"trimmed": true,
	"spriteSourceSize": {"x":24,"y":13,"w":178,"h":372},
	"sourceSize": {"w":220,"h":392}
},
"SS_P14_RASPBERRY0030.png":
{
	"frame": {"x":2,"y":364,"w":178,"h":372},
	"rotated": false,
	"trimmed": true,
	"spriteSourceSize": {"x":24,"y":13,"w":178,"h":372},
	"sourceSize": {"w":220,"h":392}
},
"SS_P14_RASPBERRY0031.png":
{
	"frame": {"x":2,"y":364,"w":178,"h":372},
	"rotated": false,
	"trimmed": true,
	"spriteSourceSize": {"x":24,"y":13,"w":178,"h":372},
	"sourceSize": {"w":220,"h":392}
},
"SS_P14_RASPBERRY0032.png":
{
	"frame": {"x":1368,"y":2,"w":178,"h":372},
	"rotated": false,
	"trimmed": true,
	"spriteSourceSize": {"x":24,"y":13,"w":178,"h":372},
	"sourceSize": {"w":220,"h":392}
},
"SS_P14_RASPBERRY0033.png":
{
	"frame": {"x":1368,"y":2,"w":178,"h":372},
	"rotated": false,
	"trimmed": true,
	"spriteSourceSize": {"x":24,"y":13,"w":178,"h":372},
	"sourceSize": {"w":220,"h":392}
},
"SS_P14_RASPBERRY0034.png":
{
	"frame": {"x":1368,"y":2,"w":178,"h":372},
	"rotated": false,
	"trimmed": true,
	"spriteSourceSize": {"x":24,"y":13,"w":178,"h":372},
	"sourceSize": {"w":220,"h":392}
},
"SS_P14_RASPBERRY0035.png":
{
	"frame": {"x":1368,"y":2,"w":178,"h":372},
	"rotated": false,
	"trimmed": true,
	"spriteSourceSize": {"x":24,"y":13,"w":178,"h":372},
	"sourceSize": {"w":220,"h":392}
},
"SS_P14_RASPBERRY0036.png":
{
	"frame": {"x":2,"y":364,"w":178,"h":372},
	"rotated": false,
	"trimmed": true,
	"spriteSourceSize": {"x":24,"y":13,"w":178,"h":372},
	"sourceSize": {"w":220,"h":392}
},
"SS_P14_RASPBERRY0037.png":
{
	"frame": {"x":2,"y":364,"w":178,"h":372},
	"rotated": false,
	"trimmed": true,
	"spriteSourceSize": {"x":24,"y":13,"w":178,"h":372},
	"sourceSize": {"w":220,"h":392}
},
"SS_P14_RASPBERRY0038.png":
{
	"frame": {"x":182,"y":368,"w":178,"h":372},
	"rotated": false,
	"trimmed": true,
	"spriteSourceSize": {"x":24,"y":13,"w":178,"h":372},
	"sourceSize": {"w":220,"h":392}
},
"SS_P14_RASPBERRY0039.png":
{
	"frame": {"x":182,"y":368,"w":178,"h":372},
	"rotated": false,
	"trimmed": true,
	"spriteSourceSize": {"x":24,"y":13,"w":178,"h":372},
	"sourceSize": {"w":220,"h":392}
},
"SS_P14_RASPBERRY0040.png":
{
	"frame": {"x":362,"y":372,"w":178,"h":372},
	"rotated": false,
	"trimmed": true,
	"spriteSourceSize": {"x":25,"y":13,"w":178,"h":372},
	"sourceSize": {"w":220,"h":392}
},
"SS_P14_RASPBERRY0041.png":
{
	"frame": {"x":362,"y":372,"w":178,"h":372},
	"rotated": false,
	"trimmed": true,
	"spriteSourceSize": {"x":25,"y":13,"w":178,"h":372},
	"sourceSize": {"w":220,"h":392}
},
"SS_P14_RASPBERRY0042.png":
{
	"frame": {"x":542,"y":374,"w":178,"h":372},
	"rotated": false,
	"trimmed": true,
	"spriteSourceSize": {"x":26,"y":13,"w":178,"h":372},
	"sourceSize": {"w":220,"h":392}
},
"SS_P14_RASPBERRY0043.png":
{
	"frame": {"x":542,"y":374,"w":178,"h":372},
	"rotated": false,
	"trimmed": true,
	"spriteSourceSize": {"x":26,"y":13,"w":178,"h":372},
	"sourceSize": {"w":220,"h":392}
},
"SS_P14_RASPBERRY0044.png":
{
	"frame": {"x":722,"y":374,"w":180,"h":374},
	"rotated": false,
	"trimmed": true,
	"spriteSourceSize": {"x":26,"y":11,"w":180,"h":374},
	"sourceSize": {"w":220,"h":392}
},
"SS_P14_RASPBERRY0045.png":
{
	"frame": {"x":722,"y":374,"w":180,"h":374},
	"rotated": false,
	"trimmed": true,
	"spriteSourceSize": {"x":26,"y":11,"w":180,"h":374},
	"sourceSize": {"w":220,"h":392}
},
"SS_P14_RASPBERRY0046.png":
{
	"frame": {"x":904,"y":376,"w":180,"h":374},
	"rotated": false,
	"trimmed": true,
	"spriteSourceSize": {"x":27,"y":11,"w":180,"h":374},
	"sourceSize": {"w":220,"h":392}
},
"SS_P14_RASPBERRY0047.png":
{
	"frame": {"x":904,"y":376,"w":180,"h":374},
	"rotated": false,
	"trimmed": true,
	"spriteSourceSize": {"x":27,"y":11,"w":180,"h":374},
	"sourceSize": {"w":220,"h":392}
},
"SS_P14_RASPBERRY0048.png":
{
	"frame": {"x":1086,"y":376,"w":180,"h":374},
	"rotated": false,
	"trimmed": true,
	"spriteSourceSize": {"x":29,"y":11,"w":180,"h":374},
	"sourceSize": {"w":220,"h":392}
},
"SS_P14_RASPBERRY0049.png":
{
	"frame": {"x":1086,"y":376,"w":180,"h":374},
	"rotated": false,
	"trimmed": true,
	"spriteSourceSize": {"x":29,"y":11,"w":180,"h":374},
	"sourceSize": {"w":220,"h":392}
},
"SS_P14_RASPBERRY0050.png":
{
	"frame": {"x":1268,"y":376,"w":182,"h":376},
	"rotated": false,
	"trimmed": true,
	"spriteSourceSize": {"x":30,"y":9,"w":182,"h":376},
	"sourceSize": {"w":220,"h":392}
},
"SS_P14_RASPBERRY0051.png":
{
	"frame": {"x":1268,"y":376,"w":182,"h":376},
	"rotated": false,
	"trimmed": true,
	"spriteSourceSize": {"x":30,"y":9,"w":182,"h":376},
	"sourceSize": {"w":220,"h":392}
},
"SS_P14_RASPBERRY0052.png":
{
	"frame": {"x":1452,"y":376,"w":182,"h":376},
	"rotated": false,
	"trimmed": true,
	"spriteSourceSize": {"x":32,"y":9,"w":182,"h":376},
	"sourceSize": {"w":220,"h":392}
},
"SS_P14_RASPBERRY0053.png":
{
	"frame": {"x":1452,"y":376,"w":182,"h":376},
	"rotated": false,
	"trimmed": true,
	"spriteSourceSize": {"x":32,"y":9,"w":182,"h":376},
	"sourceSize": {"w":220,"h":392}
},
"SS_P14_RASPBERRY0054.png":
{
	"frame": {"x":2,"y":2,"w":198,"h":360},
	"rotated": false,
	"trimmed": true,
	"spriteSourceSize": {"x":2,"y":19,"w":198,"h":360},
	"sourceSize": {"w":220,"h":392}
},
"SS_P14_RASPBERRY0055.png":
{
	"frame": {"x":2,"y":2,"w":198,"h":360},
	"rotated": false,
	"trimmed": true,
	"spriteSourceSize": {"x":2,"y":19,"w":198,"h":360},
	"sourceSize": {"w":220,"h":392}
},
"SS_P14_RASPBERRY0056.png":
{
	"frame": {"x":202,"y":2,"w":196,"h":364},
	"rotated": false,
	"trimmed": true,
	"spriteSourceSize": {"x":4,"y":15,"w":196,"h":364},
	"sourceSize": {"w":220,"h":392}
},
"SS_P14_RASPBERRY0057.png":
{
	"frame": {"x":202,"y":2,"w":196,"h":364},
	"rotated": false,
	"trimmed": true,
	"spriteSourceSize": {"x":4,"y":15,"w":196,"h":364},
	"sourceSize": {"w":220,"h":392}
},
"SS_P14_RASPBERRY0058.png":
{
	"frame": {"x":400,"y":2,"w":194,"h":368},
	"rotated": false,
	"trimmed": true,
	"spriteSourceSize": {"x":6,"y":11,"w":194,"h":368},
	"sourceSize": {"w":220,"h":392}
},
"SS_P14_RASPBERRY0059.png":
{
	"frame": {"x":400,"y":2,"w":194,"h":368},
	"rotated": false,
	"trimmed": true,
	"spriteSourceSize": {"x":6,"y":11,"w":194,"h":368},
	"sourceSize": {"w":220,"h":392}
},
"SS_P14_RASPBERRY0060.png":
{
	"frame": {"x":596,"y":2,"w":192,"h":370},
	"rotated": false,
	"trimmed": true,
	"spriteSourceSize": {"x":7,"y":9,"w":192,"h":370},
	"sourceSize": {"w":220,"h":392}
},
"SS_P14_RASPBERRY0061.png":
{
	"frame": {"x":596,"y":2,"w":192,"h":370},
	"rotated": false,
	"trimmed": true,
	"spriteSourceSize": {"x":7,"y":9,"w":192,"h":370},
	"sourceSize": {"w":220,"h":392}
},
"SS_P14_RASPBERRY0062.png":
{
	"frame": {"x":790,"y":2,"w":192,"h":370},
	"rotated": false,
	"trimmed": true,
	"spriteSourceSize": {"x":7,"y":9,"w":192,"h":370},
	"sourceSize": {"w":220,"h":392}
},
"SS_P14_RASPBERRY0063.png":
{
	"frame": {"x":790,"y":2,"w":192,"h":370},
	"rotated": false,
	"trimmed": true,
	"spriteSourceSize": {"x":7,"y":9,"w":192,"h":370},
	"sourceSize": {"w":220,"h":392}
},
"SS_P14_RASPBERRY0064.png":
{
	"frame": {"x":984,"y":2,"w":190,"h":372},
	"rotated": false,
	"trimmed": true,
	"spriteSourceSize": {"x":9,"y":7,"w":190,"h":372},
	"sourceSize": {"w":220,"h":392}
},
"SS_P14_RASPBERRY0065.png":
{
	"frame": {"x":984,"y":2,"w":190,"h":372},
	"rotated": false,
	"trimmed": true,
	"spriteSourceSize": {"x":9,"y":7,"w":190,"h":372},
	"sourceSize": {"w":220,"h":392}
}},
"meta": {
	"app": "http://www.texturepacker.com",
	"version": "1.0",
	"image": "SS_P14_RASPBERRY.png",
	"format": "RGBA8888",
	"size": {"w":1636,"h":754},
	"scale": "1",
	"smartupdate": "$TexturePacker:SmartUpdate:f336250782275f6af3f1389a79facc28$"
}
}
