{"frames": {

"SSC_NAILART_GAME_HAND_CHOICES_0001.png":
{
	"frame": {"x":86,"y":414,"w":82,"h":98},
	"rotated": false,
	"trimmed": false,
	"spriteSourceSize": {"x":0,"y":0,"w":82,"h":98},
	"sourceSize": {"w":82,"h":98}
},
"SSC_NAILART_GAME_HAND_CHOICES_0002.png":
{
	"frame": {"x":2,"y":330,"w":82,"h":98},
	"rotated": false,
	"trimmed": false,
	"spriteSourceSize": {"x":0,"y":0,"w":82,"h":98},
	"sourceSize": {"w":82,"h":98}
},
"SSC_NAILART_GAME_HAND_CHOICES_0003.png":
{
	"frame": {"x":107,"y":314,"w":82,"h":98},
	"rotated": false,
	"trimmed": false,
	"spriteSourceSize": {"x":0,"y":0,"w":82,"h":98},
	"sourceSize": {"w":82,"h":98}
},
"SSC_NAILART_GAME_HAND_CHOICES_0004.png":
{
	"frame": {"x":256,"y":268,"w":82,"h":98},
	"rotated": false,
	"trimmed": false,
	"spriteSourceSize": {"x":0,"y":0,"w":82,"h":98},
	"sourceSize": {"w":82,"h":98}
},
"SSC_NAILART_GAME_HAND_CHOICES_0005.png":
{
	"frame": {"x":364,"y":220,"w":82,"h":98},
	"rotated": false,
	"trimmed": false,
	"spriteSourceSize": {"x":0,"y":0,"w":82,"h":98},
	"sourceSize": {"w":82,"h":98}
},
"SSC_NAILART_GAME_HAND_CHOICES_0006.png":
{
	"frame": {"x":612,"y":314,"w":82,"h":98},
	"rotated": false,
	"trimmed": false,
	"spriteSourceSize": {"x":0,"y":0,"w":82,"h":98},
	"sourceSize": {"w":82,"h":98}
},
"SSC_NAILART_GAME_HAND_CHOICES_0007.png":
{
	"frame": {"x":696,"y":222,"w":82,"h":98},
	"rotated": false,
	"trimmed": false,
	"spriteSourceSize": {"x":0,"y":0,"w":82,"h":98},
	"sourceSize": {"w":82,"h":98}
},
"SSC_NAILART_GAME_HAND_CHOICES_0008.png":
{
	"frame": {"x":612,"y":214,"w":82,"h":98},
	"rotated": false,
	"trimmed": false,
	"spriteSourceSize": {"x":0,"y":0,"w":82,"h":98},
	"sourceSize": {"w":82,"h":98}
},
"SSC_NAILART_GAME_HAND_CHOICES_0009.png":
{
	"frame": {"x":480,"y":190,"w":82,"h":98},
	"rotated": false,
	"trimmed": false,
	"spriteSourceSize": {"x":0,"y":0,"w":82,"h":98},
	"sourceSize": {"w":82,"h":98}
},
"SSC_NAILART_GAME_HAND_CHOICES_0010.png":
{
	"frame": {"x":930,"y":152,"w":82,"h":98},
	"rotated": false,
	"trimmed": false,
	"spriteSourceSize": {"x":0,"y":0,"w":82,"h":98},
	"sourceSize": {"w":82,"h":98}
},
"SSC_NAILART_GAME_HUD_BUT_CLEAR.png":
{
	"frame": {"x":372,"y":112,"w":106,"h":106},
	"rotated": false,
	"trimmed": false,
	"spriteSourceSize": {"x":0,"y":0,"w":106,"h":106},
	"sourceSize": {"w":106,"h":106}
},
"SSC_NAILART_GAME_HUD_BUT_COLORS.png":
{
	"frame": {"x":2,"y":512,"w":78,"h":84},
	"rotated": false,
	"trimmed": false,
	"spriteSourceSize": {"x":0,"y":0,"w":78,"h":84},
	"sourceSize": {"w":78,"h":84}
},
"SSC_NAILART_GAME_HUD_BUT_DESIGN.png":
{
	"frame": {"x":448,"y":290,"w":78,"h":83},
	"rotated": false,
	"trimmed": false,
	"spriteSourceSize": {"x":0,"y":0,"w":78,"h":83},
	"sourceSize": {"w":78,"h":83}
},
"SSC_NAILART_GAME_HUD_BUT_HAND.png":
{
	"frame": {"x":340,"y":320,"w":77,"h":80},
	"rotated": false,
	"trimmed": false,
	"spriteSourceSize": {"x":0,"y":0,"w":77,"h":80},
	"sourceSize": {"w":77,"h":80}
},
"SSC_NAILART_GAME_HUD_BUT_HOME.png":
{
	"frame": {"x":2,"y":430,"w":81,"h":80},
	"rotated": false,
	"trimmed": true,
	"spriteSourceSize": {"x":0,"y":2,"w":81,"h":80},
	"sourceSize": {"w":81,"h":82}
},
"SSC_NAILART_GAME_HUD_BUT_PHOTO.png":
{
	"frame": {"x":504,"y":82,"w":106,"h":106},
	"rotated": false,
	"trimmed": false,
	"spriteSourceSize": {"x":0,"y":0,"w":106,"h":106},
	"sourceSize": {"w":106,"h":106}
},
"SSC_NAILART_GAME_HUD_BUT_UNDO.png":
{
	"frame": {"x":622,"y":42,"w":106,"h":106},
	"rotated": false,
	"trimmed": false,
	"spriteSourceSize": {"x":0,"y":0,"w":106,"h":106},
	"sourceSize": {"w":106,"h":106}
},
"SSC_NAILART_GAME_NAIL_01_0001.png":
{
	"frame": {"x":340,"y":675,"w":62,"h":56},
	"rotated": false,
	"trimmed": true,
	"spriteSourceSize": {"x":0,"y":0,"w":62,"h":56},
	"sourceSize": {"w":62,"h":58}
},
"SSC_NAILART_GAME_NAIL_01_0002.png":
{
	"frame": {"x":2,"y":742,"w":62,"h":56},
	"rotated": false,
	"trimmed": true,
	"spriteSourceSize": {"x":0,"y":0,"w":62,"h":56},
	"sourceSize": {"w":62,"h":58}
},
"SSC_NAILART_GAME_NAIL_01_0003.png":
{
	"frame": {"x":66,"y":734,"w":62,"h":56},
	"rotated": false,
	"trimmed": true,
	"spriteSourceSize": {"x":0,"y":0,"w":62,"h":56},
	"sourceSize": {"w":62,"h":58}
},
"SSC_NAILART_GAME_NAIL_01_0004.png":
{
	"frame": {"x":130,"y":698,"w":62,"h":56},
	"rotated": false,
	"trimmed": true,
	"spriteSourceSize": {"x":0,"y":0,"w":62,"h":56},
	"sourceSize": {"w":62,"h":58}
},
"SSC_NAILART_GAME_NAIL_01_0005.png":
{
	"frame": {"x":210,"y":648,"w":62,"h":56},
	"rotated": false,
	"trimmed": true,
	"spriteSourceSize": {"x":0,"y":0,"w":62,"h":56},
	"sourceSize": {"w":62,"h":58}
},
"SSC_NAILART_GAME_NAIL_01_0006.png":
{
	"frame": {"x":276,"y":642,"w":62,"h":56},
	"rotated": false,
	"trimmed": true,
	"spriteSourceSize": {"x":0,"y":0,"w":62,"h":56},
	"sourceSize": {"w":62,"h":58}
},
"SSC_NAILART_GAME_NAIL_01_0007.png":
{
	"frame": {"x":621,"y":724,"w":62,"h":56},
	"rotated": false,
	"trimmed": true,
	"spriteSourceSize": {"x":0,"y":0,"w":62,"h":56},
	"sourceSize": {"w":62,"h":58}
},
"SSC_NAILART_GAME_NAIL_01_0008.png":
{
	"frame": {"x":557,"y":702,"w":62,"h":56},
	"rotated": false,
	"trimmed": true,
	"spriteSourceSize": {"x":0,"y":0,"w":62,"h":56},
	"sourceSize": {"w":62,"h":58}
},
"SSC_NAILART_GAME_NAIL_01_0009.png":
{
	"frame": {"x":493,"y":668,"w":62,"h":56},
	"rotated": false,
	"trimmed": true,
	"spriteSourceSize": {"x":0,"y":0,"w":62,"h":56},
	"sourceSize": {"w":62,"h":58}
},
"SSC_NAILART_GAME_NAIL_01_0010.png":
{
	"frame": {"x":429,"y":617,"w":62,"h":56},
	"rotated": false,
	"trimmed": true,
	"spriteSourceSize": {"x":0,"y":0,"w":62,"h":56},
	"sourceSize": {"w":62,"h":58}
},
"SSC_NAILART_GAME_NAIL_01_0011.png":
{
	"frame": {"x":365,"y":617,"w":62,"h":56},
	"rotated": false,
	"trimmed": true,
	"spriteSourceSize": {"x":0,"y":0,"w":62,"h":56},
	"sourceSize": {"w":62,"h":58}
},
"SSC_NAILART_GAME_NAIL_01_0012.png":
{
	"frame": {"x":685,"y":668,"w":62,"h":56},
	"rotated": false,
	"trimmed": true,
	"spriteSourceSize": {"x":0,"y":0,"w":62,"h":56},
	"sourceSize": {"w":62,"h":58}
},
"SSC_NAILART_GAME_NAIL_01_0013.png":
{
	"frame": {"x":621,"y":666,"w":62,"h":56},
	"rotated": false,
	"trimmed": true,
	"spriteSourceSize": {"x":0,"y":0,"w":62,"h":56},
	"sourceSize": {"w":62,"h":58}
},
"SSC_NAILART_GAME_NAIL_01_0014.png":
{
	"frame": {"x":557,"y":644,"w":62,"h":56},
	"rotated": false,
	"trimmed": true,
	"spriteSourceSize": {"x":0,"y":0,"w":62,"h":56},
	"sourceSize": {"w":62,"h":58}
},
"SSC_NAILART_GAME_NAIL_01_0015.png":
{
	"frame": {"x":2,"y":684,"w":62,"h":56},
	"rotated": false,
	"trimmed": true,
	"spriteSourceSize": {"x":0,"y":0,"w":62,"h":56},
	"sourceSize": {"w":62,"h":58}
},
"SSC_NAILART_GAME_NAIL_01_0016.png":
{
	"frame": {"x":66,"y":676,"w":62,"h":56},
	"rotated": false,
	"trimmed": true,
	"spriteSourceSize": {"x":0,"y":0,"w":62,"h":56},
	"sourceSize": {"w":62,"h":58}
},
"SSC_NAILART_GAME_NAIL_01_0017.png":
{
	"frame": {"x":146,"y":640,"w":62,"h":56},
	"rotated": false,
	"trimmed": true,
	"spriteSourceSize": {"x":0,"y":0,"w":62,"h":56},
	"sourceSize": {"w":62,"h":58}
},
"SSC_NAILART_GAME_NAIL_01_0018.png":
{
	"frame": {"x":212,"y":590,"w":62,"h":56},
	"rotated": false,
	"trimmed": true,
	"spriteSourceSize": {"x":0,"y":0,"w":62,"h":56},
	"sourceSize": {"w":62,"h":58}
},
"SSC_NAILART_GAME_NAIL_01_0019.png":
{
	"frame": {"x":493,"y":610,"w":62,"h":56},
	"rotated": false,
	"trimmed": true,
	"spriteSourceSize": {"x":0,"y":0,"w":62,"h":56},
	"sourceSize": {"w":62,"h":58}
},
"SSC_NAILART_GAME_NAIL_01_0020.png":
{
	"frame": {"x":429,"y":559,"w":62,"h":56},
	"rotated": false,
	"trimmed": true,
	"spriteSourceSize": {"x":0,"y":0,"w":62,"h":56},
	"sourceSize": {"w":62,"h":58}
},
"SSC_NAILART_GAME_NAIL_01_0021.png":
{
	"frame": {"x":301,"y":584,"w":62,"h":56},
	"rotated": false,
	"trimmed": true,
	"spriteSourceSize": {"x":0,"y":0,"w":62,"h":56},
	"sourceSize": {"w":62,"h":58}
},
"SSC_NAILART_GAME_NAIL_01_0022.png":
{
	"frame": {"x":365,"y":559,"w":62,"h":56},
	"rotated": false,
	"trimmed": true,
	"spriteSourceSize": {"x":0,"y":0,"w":62,"h":56},
	"sourceSize": {"w":62,"h":58}
},
"SSC_NAILART_GAME_NAIL_01_0023.png":
{
	"frame": {"x":564,"y":586,"w":62,"h":56},
	"rotated": false,
	"trimmed": true,
	"spriteSourceSize": {"x":0,"y":0,"w":62,"h":56},
	"sourceSize": {"w":62,"h":58}
},
"SSC_NAILART_GAME_NAIL_01_0024.png":
{
	"frame": {"x":500,"y":552,"w":62,"h":56},
	"rotated": false,
	"trimmed": true,
	"spriteSourceSize": {"x":0,"y":0,"w":62,"h":56},
	"sourceSize": {"w":62,"h":58}
},
"SSC_NAILART_GAME_NAIL_01_0025.png":
{
	"frame": {"x":436,"y":501,"w":62,"h":56},
	"rotated": false,
	"trimmed": true,
	"spriteSourceSize": {"x":0,"y":0,"w":62,"h":56},
	"sourceSize": {"w":62,"h":58}
},
"SSC_NAILART_GAME_NAIL_01_0026.png":
{
	"frame": {"x":301,"y":526,"w":62,"h":56},
	"rotated": false,
	"trimmed": true,
	"spriteSourceSize": {"x":0,"y":0,"w":62,"h":56},
	"sourceSize": {"w":62,"h":58}
},
"SSC_NAILART_GAME_NAIL_01_0027.png":
{
	"frame": {"x":372,"y":501,"w":62,"h":56},
	"rotated": false,
	"trimmed": true,
	"spriteSourceSize": {"x":0,"y":0,"w":62,"h":56},
	"sourceSize": {"w":62,"h":58}
},
"SSC_NAILART_GAME_NAIL_01_0028.png":
{
	"frame": {"x":781,"y":664,"w":62,"h":56},
	"rotated": false,
	"trimmed": true,
	"spriteSourceSize": {"x":0,"y":0,"w":62,"h":56},
	"sourceSize": {"w":62,"h":58}
},
"SSC_NAILART_GAME_NAIL_01_0029.png":
{
	"frame": {"x":845,"y":650,"w":62,"h":56},
	"rotated": false,
	"trimmed": true,
	"spriteSourceSize": {"x":0,"y":0,"w":62,"h":56},
	"sourceSize": {"w":62,"h":58}
},
"SSC_NAILART_GAME_NAIL_01_0030.png":
{
	"frame": {"x":781,"y":606,"w":62,"h":56},
	"rotated": false,
	"trimmed": true,
	"spriteSourceSize": {"x":0,"y":0,"w":62,"h":56},
	"sourceSize": {"w":62,"h":58}
},
"SSC_NAILART_GAME_NAIL_02_0001.png":
{
	"frame": {"x":852,"y":1018,"w":40,"h":54},
	"rotated": false,
	"trimmed": false,
	"spriteSourceSize": {"x":0,"y":0,"w":40,"h":54},
	"sourceSize": {"w":40,"h":54}
},
"SSC_NAILART_GAME_NAIL_02_0002.png":
{
	"frame": {"x":2,"y":1262,"w":40,"h":54},
	"rotated": false,
	"trimmed": false,
	"spriteSourceSize": {"x":0,"y":0,"w":40,"h":54},
	"sourceSize": {"w":40,"h":54}
},
"SSC_NAILART_GAME_NAIL_02_0003.png":
{
	"frame": {"x":48,"y":1256,"w":40,"h":54},
	"rotated": false,
	"trimmed": false,
	"spriteSourceSize": {"x":0,"y":0,"w":40,"h":54},
	"sourceSize": {"w":40,"h":54}
},
"SSC_NAILART_GAME_NAIL_02_0004.png":
{
	"frame": {"x":94,"y":1210,"w":40,"h":54},
	"rotated": false,
	"trimmed": false,
	"spriteSourceSize": {"x":0,"y":0,"w":40,"h":54},
	"sourceSize": {"w":40,"h":54}
},
"SSC_NAILART_GAME_NAIL_02_0005.png":
{
	"frame": {"x":142,"y":1178,"w":40,"h":54},
	"rotated": false,
	"trimmed": false,
	"spriteSourceSize": {"x":0,"y":0,"w":40,"h":54},
	"sourceSize": {"w":40,"h":54}
},
"SSC_NAILART_GAME_NAIL_02_0006.png":
{
	"frame": {"x":194,"y":1158,"w":40,"h":54},
	"rotated": false,
	"trimmed": false,
	"spriteSourceSize": {"x":0,"y":0,"w":40,"h":54},
	"sourceSize": {"w":40,"h":54}
},
"SSC_NAILART_GAME_NAIL_02_0007.png":
{
	"frame": {"x":244,"y":1153,"w":40,"h":54},
	"rotated": false,
	"trimmed": false,
	"spriteSourceSize": {"x":0,"y":0,"w":40,"h":54},
	"sourceSize": {"w":40,"h":54}
},
"SSC_NAILART_GAME_NAIL_02_0008.png":
{
	"frame": {"x":290,"y":1139,"w":40,"h":54},
	"rotated": false,
	"trimmed": false,
	"spriteSourceSize": {"x":0,"y":0,"w":40,"h":54},
	"sourceSize": {"w":40,"h":54}
},
"SSC_NAILART_GAME_NAIL_02_0009.png":
{
	"frame": {"x":340,"y":1122,"w":40,"h":54},
	"rotated": false,
	"trimmed": false,
	"spriteSourceSize": {"x":0,"y":0,"w":40,"h":54},
	"sourceSize": {"w":40,"h":54}
},
"SSC_NAILART_GAME_NAIL_02_0010.png":
{
	"frame": {"x":390,"y":1092,"w":40,"h":54},
	"rotated": false,
	"trimmed": false,
	"spriteSourceSize": {"x":0,"y":0,"w":40,"h":54},
	"sourceSize": {"w":40,"h":54}
},
"SSC_NAILART_GAME_NAIL_02_0011.png":
{
	"frame": {"x":434,"y":1090,"w":40,"h":54},
	"rotated": false,
	"trimmed": false,
	"spriteSourceSize": {"x":0,"y":0,"w":40,"h":54},
	"sourceSize": {"w":40,"h":54}
},
"SSC_NAILART_GAME_NAIL_02_0012.png":
{
	"frame": {"x":548,"y":1046,"w":40,"h":54},
	"rotated": false,
	"trimmed": false,
	"spriteSourceSize": {"x":0,"y":0,"w":40,"h":54},
	"sourceSize": {"w":40,"h":54}
},
"SSC_NAILART_GAME_NAIL_02_0013.png":
{
	"frame": {"x":506,"y":1046,"w":40,"h":54},
	"rotated": false,
	"trimmed": false,
	"spriteSourceSize": {"x":0,"y":0,"w":40,"h":54},
	"sourceSize": {"w":40,"h":54}
},
"SSC_NAILART_GAME_NAIL_02_0014.png":
{
	"frame": {"x":700,"y":1042,"w":40,"h":54},
	"rotated": false,
	"trimmed": false,
	"spriteSourceSize": {"x":0,"y":0,"w":40,"h":54},
	"sourceSize": {"w":40,"h":54}
},
"SSC_NAILART_GAME_NAIL_02_0015.png":
{
	"frame": {"x":658,"y":1042,"w":40,"h":54},
	"rotated": false,
	"trimmed": false,
	"spriteSourceSize": {"x":0,"y":0,"w":40,"h":54},
	"sourceSize": {"w":40,"h":54}
},
"SSC_NAILART_GAME_NAIL_02_0016.png":
{
	"frame": {"x":616,"y":1042,"w":40,"h":54},
	"rotated": false,
	"trimmed": false,
	"spriteSourceSize": {"x":0,"y":0,"w":40,"h":54},
	"sourceSize": {"w":40,"h":54}
},
"SSC_NAILART_GAME_NAIL_02_0017.png":
{
	"frame": {"x":964,"y":962,"w":40,"h":54},
	"rotated": false,
	"trimmed": false,
	"spriteSourceSize": {"x":0,"y":0,"w":40,"h":54},
	"sourceSize": {"w":40,"h":54}
},
"SSC_NAILART_GAME_NAIL_02_0018.png":
{
	"frame": {"x":922,"y":962,"w":40,"h":54},
	"rotated": false,
	"trimmed": false,
	"spriteSourceSize": {"x":0,"y":0,"w":40,"h":54},
	"sourceSize": {"w":40,"h":54}
},
"SSC_NAILART_GAME_NAIL_02_0019.png":
{
	"frame": {"x":764,"y":1028,"w":40,"h":54},
	"rotated": false,
	"trimmed": false,
	"spriteSourceSize": {"x":0,"y":0,"w":40,"h":54},
	"sourceSize": {"w":40,"h":54}
},
"SSC_NAILART_GAME_NAIL_02_0020.png":
{
	"frame": {"x":810,"y":994,"w":40,"h":54},
	"rotated": false,
	"trimmed": false,
	"spriteSourceSize": {"x":0,"y":0,"w":40,"h":54},
	"sourceSize": {"w":40,"h":54}
},
"SSC_NAILART_GAME_NAIL_02_0021.png":
{
	"frame": {"x":880,"y":962,"w":40,"h":54},
	"rotated": false,
	"trimmed": false,
	"spriteSourceSize": {"x":0,"y":0,"w":40,"h":54},
	"sourceSize": {"w":40,"h":54}
},
"SSC_NAILART_GAME_NAIL_02_0022.png":
{
	"frame": {"x":722,"y":986,"w":40,"h":54},
	"rotated": false,
	"trimmed": false,
	"spriteSourceSize": {"x":0,"y":0,"w":40,"h":54},
	"sourceSize": {"w":40,"h":54}
},
"SSC_NAILART_GAME_NAIL_02_0023.png":
{
	"frame": {"x":680,"y":986,"w":40,"h":54},
	"rotated": false,
	"trimmed": false,
	"spriteSourceSize": {"x":0,"y":0,"w":40,"h":54},
	"sourceSize": {"w":40,"h":54}
},
"SSC_NAILART_GAME_NAIL_02_0024.png":
{
	"frame": {"x":574,"y":990,"w":40,"h":54},
	"rotated": false,
	"trimmed": false,
	"spriteSourceSize": {"x":0,"y":0,"w":40,"h":54},
	"sourceSize": {"w":40,"h":54}
},
"SSC_NAILART_GAME_NAIL_02_0025.png":
{
	"frame": {"x":638,"y":986,"w":40,"h":54},
	"rotated": false,
	"trimmed": false,
	"spriteSourceSize": {"x":0,"y":0,"w":40,"h":54},
	"sourceSize": {"w":40,"h":54}
},
"SSC_NAILART_GAME_NAIL_02_0026.png":
{
	"frame": {"x":966,"y":906,"w":40,"h":54},
	"rotated": false,
	"trimmed": false,
	"spriteSourceSize": {"x":0,"y":0,"w":40,"h":54},
	"sourceSize": {"w":40,"h":54}
},
"SSC_NAILART_GAME_NAIL_02_0027.png":
{
	"frame": {"x":924,"y":906,"w":40,"h":54},
	"rotated": false,
	"trimmed": false,
	"spriteSourceSize": {"x":0,"y":0,"w":40,"h":54},
	"sourceSize": {"w":40,"h":54}
},
"SSC_NAILART_GAME_NAIL_02_0028.png":
{
	"frame": {"x":768,"y":972,"w":40,"h":54},
	"rotated": false,
	"trimmed": false,
	"spriteSourceSize": {"x":0,"y":0,"w":40,"h":54},
	"sourceSize": {"w":40,"h":54}
},
"SSC_NAILART_GAME_NAIL_02_0029.png":
{
	"frame": {"x":838,"y":938,"w":40,"h":54},
	"rotated": false,
	"trimmed": false,
	"spriteSourceSize": {"x":0,"y":0,"w":40,"h":54},
	"sourceSize": {"w":40,"h":54}
},
"SSC_NAILART_GAME_NAIL_02_0030.png":
{
	"frame": {"x":882,"y":906,"w":40,"h":54},
	"rotated": false,
	"trimmed": false,
	"spriteSourceSize": {"x":0,"y":0,"w":40,"h":54},
	"sourceSize": {"w":40,"h":54}
},
"SSC_NAILART_GAME_NAIL_03_0001.png":
{
	"frame": {"x":100,"y":1078,"w":46,"h":64},
	"rotated": false,
	"trimmed": false,
	"spriteSourceSize": {"x":0,"y":0,"w":46,"h":64},
	"sourceSize": {"w":46,"h":64}
},
"SSC_NAILART_GAME_NAIL_03_0002.png":
{
	"frame": {"x":150,"y":1046,"w":46,"h":64},
	"rotated": false,
	"trimmed": false,
	"spriteSourceSize": {"x":0,"y":0,"w":46,"h":64},
	"sourceSize": {"w":46,"h":64}
},
"SSC_NAILART_GAME_NAIL_03_0003.png":
{
	"frame": {"x":200,"y":1026,"w":46,"h":64},
	"rotated": false,
	"trimmed": false,
	"spriteSourceSize": {"x":0,"y":0,"w":46,"h":64},
	"sourceSize": {"w":46,"h":64}
},
"SSC_NAILART_GAME_NAIL_03_0004.png":
{
	"frame": {"x":250,"y":997,"w":46,"h":64},
	"rotated": false,
	"trimmed": false,
	"spriteSourceSize": {"x":0,"y":0,"w":46,"h":64},
	"sourceSize": {"w":46,"h":64}
},
"SSC_NAILART_GAME_NAIL_03_0005.png":
{
	"frame": {"x":320,"y":939,"w":46,"h":64},
	"rotated": false,
	"trimmed": false,
	"spriteSourceSize": {"x":0,"y":0,"w":46,"h":64},
	"sourceSize": {"w":46,"h":64}
},
"SSC_NAILART_GAME_NAIL_03_0006.png":
{
	"frame": {"x":434,"y":924,"w":46,"h":64},
	"rotated": false,
	"trimmed": false,
	"spriteSourceSize": {"x":0,"y":0,"w":46,"h":64},
	"sourceSize": {"w":46,"h":64}
},
"SSC_NAILART_GAME_NAIL_03_0007.png":
{
	"frame": {"x":386,"y":924,"w":46,"h":64},
	"rotated": false,
	"trimmed": false,
	"spriteSourceSize": {"x":0,"y":0,"w":46,"h":64},
	"sourceSize": {"w":46,"h":64}
},
"SSC_NAILART_GAME_NAIL_03_0008.png":
{
	"frame": {"x":498,"y":892,"w":46,"h":64},
	"rotated": false,
	"trimmed": false,
	"spriteSourceSize": {"x":0,"y":0,"w":46,"h":64},
	"sourceSize": {"w":46,"h":64}
},
"SSC_NAILART_GAME_NAIL_03_0009.png":
{
	"frame": {"x":582,"y":848,"w":46,"h":64},
	"rotated": false,
	"trimmed": false,
	"spriteSourceSize": {"x":0,"y":0,"w":46,"h":64},
	"sourceSize": {"w":46,"h":64}
},
"SSC_NAILART_GAME_NAIL_03_0010.png":
{
	"frame": {"x":652,"y":792,"w":46,"h":64},
	"rotated": false,
	"trimmed": false,
	"spriteSourceSize": {"x":0,"y":0,"w":46,"h":64},
	"sourceSize": {"w":46,"h":64}
},
"SSC_NAILART_GAME_NAIL_03_0011.png":
{
	"frame": {"x":781,"y":788,"w":46,"h":64},
	"rotated": false,
	"trimmed": false,
	"spriteSourceSize": {"x":0,"y":0,"w":46,"h":64},
	"sourceSize": {"w":46,"h":64}
},
"SSC_NAILART_GAME_NAIL_03_0012.png":
{
	"frame": {"x":733,"y":788,"w":46,"h":64},
	"rotated": false,
	"trimmed": false,
	"spriteSourceSize": {"x":0,"y":0,"w":46,"h":64},
	"sourceSize": {"w":46,"h":64}
},
"SSC_NAILART_GAME_NAIL_03_0013.png":
{
	"frame": {"x":845,"y":774,"w":46,"h":64},
	"rotated": false,
	"trimmed": false,
	"spriteSourceSize": {"x":0,"y":0,"w":46,"h":64},
	"sourceSize": {"w":46,"h":64}
},
"SSC_NAILART_GAME_NAIL_03_0014.png":
{
	"frame": {"x":450,"y":858,"w":46,"h":64},
	"rotated": false,
	"trimmed": false,
	"spriteSourceSize": {"x":0,"y":0,"w":46,"h":64},
	"sourceSize": {"w":46,"h":64}
},
"SSC_NAILART_GAME_NAIL_03_0015.png":
{
	"frame": {"x":2,"y":1064,"w":46,"h":64},
	"rotated": false,
	"trimmed": false,
	"spriteSourceSize": {"x":0,"y":0,"w":46,"h":64},
	"sourceSize": {"w":46,"h":64}
},
"SSC_NAILART_GAME_NAIL_03_0016.png":
{
	"frame": {"x":52,"y":1058,"w":46,"h":64},
	"rotated": false,
	"trimmed": false,
	"spriteSourceSize": {"x":0,"y":0,"w":46,"h":64},
	"sourceSize": {"w":46,"h":64}
},
"SSC_NAILART_GAME_NAIL_03_0017.png":
{
	"frame": {"x":102,"y":1012,"w":46,"h":64},
	"rotated": false,
	"trimmed": false,
	"spriteSourceSize": {"x":0,"y":0,"w":46,"h":64},
	"sourceSize": {"w":46,"h":64}
},
"SSC_NAILART_GAME_NAIL_03_0018.png":
{
	"frame": {"x":152,"y":980,"w":46,"h":64},
	"rotated": false,
	"trimmed": false,
	"spriteSourceSize": {"x":0,"y":0,"w":46,"h":64},
	"sourceSize": {"w":46,"h":64}
},
"SSC_NAILART_GAME_NAIL_03_0019.png":
{
	"frame": {"x":202,"y":960,"w":46,"h":64},
	"rotated": false,
	"trimmed": false,
	"spriteSourceSize": {"x":0,"y":0,"w":46,"h":64},
	"sourceSize": {"w":46,"h":64}
},
"SSC_NAILART_GAME_NAIL_03_0020.png":
{
	"frame": {"x":272,"y":931,"w":46,"h":64},
	"rotated": false,
	"trimmed": false,
	"spriteSourceSize": {"x":0,"y":0,"w":46,"h":64},
	"sourceSize": {"w":46,"h":64}
},
"SSC_NAILART_GAME_NAIL_03_0021.png":
{
	"frame": {"x":338,"y":873,"w":46,"h":64},
	"rotated": false,
	"trimmed": false,
	"spriteSourceSize": {"x":0,"y":0,"w":46,"h":64},
	"sourceSize": {"w":46,"h":64}
},
"SSC_NAILART_GAME_NAIL_03_0022.png":
{
	"frame": {"x":402,"y":858,"w":46,"h":64},
	"rotated": false,
	"trimmed": false,
	"spriteSourceSize": {"x":0,"y":0,"w":46,"h":64},
	"sourceSize": {"w":46,"h":64}
},
"SSC_NAILART_GAME_NAIL_03_0023.png":
{
	"frame": {"x":943,"y":708,"w":46,"h":64},
	"rotated": false,
	"trimmed": false,
	"spriteSourceSize": {"x":0,"y":0,"w":46,"h":64},
	"sourceSize": {"w":46,"h":64}
},
"SSC_NAILART_GAME_NAIL_03_0024.png":
{
	"frame": {"x":895,"y":708,"w":46,"h":64},
	"rotated": false,
	"trimmed": false,
	"spriteSourceSize": {"x":0,"y":0,"w":46,"h":64},
	"sourceSize": {"w":46,"h":64}
},
"SSC_NAILART_GAME_NAIL_03_0025.png":
{
	"frame": {"x":534,"y":826,"w":46,"h":64},
	"rotated": false,
	"trimmed": false,
	"spriteSourceSize": {"x":0,"y":0,"w":46,"h":64},
	"sourceSize": {"w":46,"h":64}
},
"SSC_NAILART_GAME_NAIL_03_0026.png":
{
	"frame": {"x":604,"y":782,"w":46,"h":64},
	"rotated": false,
	"trimmed": false,
	"spriteSourceSize": {"x":0,"y":0,"w":46,"h":64},
	"sourceSize": {"w":46,"h":64}
},
"SSC_NAILART_GAME_NAIL_03_0027.png":
{
	"frame": {"x":685,"y":726,"w":46,"h":64},
	"rotated": false,
	"trimmed": false,
	"spriteSourceSize": {"x":0,"y":0,"w":46,"h":64},
	"sourceSize": {"w":46,"h":64}
},
"SSC_NAILART_GAME_NAIL_03_0028.png":
{
	"frame": {"x":564,"y":322,"w":46,"h":64},
	"rotated": false,
	"trimmed": false,
	"spriteSourceSize": {"x":0,"y":0,"w":46,"h":64},
	"sourceSize": {"w":46,"h":64}
},
"SSC_NAILART_GAME_NAIL_03_0029.png":
{
	"frame": {"x":564,"y":256,"w":46,"h":64},
	"rotated": false,
	"trimmed": false,
	"spriteSourceSize": {"x":0,"y":0,"w":46,"h":64},
	"sourceSize": {"w":46,"h":64}
},
"SSC_NAILART_GAME_NAIL_03_0030.png":
{
	"frame": {"x":564,"y":190,"w":46,"h":64},
	"rotated": false,
	"trimmed": false,
	"spriteSourceSize": {"x":0,"y":0,"w":46,"h":64},
	"sourceSize": {"w":46,"h":64}
},
"SSC_NAILART_GAME_NAIL_04_0001.png":
{
	"frame": {"x":344,"y":1056,"w":44,"h":64},
	"rotated": false,
	"trimmed": false,
	"spriteSourceSize": {"x":0,"y":0,"w":44,"h":64},
	"sourceSize": {"w":44,"h":64}
},
"SSC_NAILART_GAME_NAIL_04_0002.png":
{
	"frame": {"x":460,"y":1024,"w":44,"h":64},
	"rotated": false,
	"trimmed": false,
	"spriteSourceSize": {"x":0,"y":0,"w":44,"h":64},
	"sourceSize": {"w":44,"h":64}
},
"SSC_NAILART_GAME_NAIL_04_0003.png":
{
	"frame": {"x":528,"y":980,"w":44,"h":64},
	"rotated": false,
	"trimmed": false,
	"spriteSourceSize": {"x":0,"y":0,"w":44,"h":64},
	"sourceSize": {"w":44,"h":64}
},
"SSC_NAILART_GAME_NAIL_04_0004.png":
{
	"frame": {"x":592,"y":924,"w":44,"h":64},
	"rotated": false,
	"trimmed": false,
	"spriteSourceSize": {"x":0,"y":0,"w":44,"h":64},
	"sourceSize": {"w":44,"h":64}
},
"SSC_NAILART_GAME_NAIL_04_0005.png":
{
	"frame": {"x":722,"y":920,"w":44,"h":64},
	"rotated": false,
	"trimmed": false,
	"spriteSourceSize": {"x":0,"y":0,"w":44,"h":64},
	"sourceSize": {"w":44,"h":64}
},
"SSC_NAILART_GAME_NAIL_04_0006.png":
{
	"frame": {"x":676,"y":920,"w":44,"h":64},
	"rotated": false,
	"trimmed": false,
	"spriteSourceSize": {"x":0,"y":0,"w":44,"h":64},
	"sourceSize": {"w":44,"h":64}
},
"SSC_NAILART_GAME_NAIL_04_0007.png":
{
	"frame": {"x":792,"y":906,"w":44,"h":64},
	"rotated": false,
	"trimmed": false,
	"spriteSourceSize": {"x":0,"y":0,"w":44,"h":64},
	"sourceSize": {"w":44,"h":64}
},
"SSC_NAILART_GAME_NAIL_04_0008.png":
{
	"frame": {"x":967,"y":840,"w":44,"h":64},
	"rotated": false,
	"trimmed": false,
	"spriteSourceSize": {"x":0,"y":0,"w":44,"h":64},
	"sourceSize": {"w":44,"h":64}
},
"SSC_NAILART_GAME_NAIL_04_0009.png":
{
	"frame": {"x":921,"y":840,"w":44,"h":64},
	"rotated": false,
	"trimmed": false,
	"spriteSourceSize": {"x":0,"y":0,"w":44,"h":64},
	"sourceSize": {"w":44,"h":64}
},
"SSC_NAILART_GAME_NAIL_04_0010.png":
{
	"frame": {"x":875,"y":840,"w":44,"h":64},
	"rotated": false,
	"trimmed": false,
	"spriteSourceSize": {"x":0,"y":0,"w":44,"h":64},
	"sourceSize": {"w":44,"h":64}
},
"SSC_NAILART_GAME_NAIL_04_0011.png":
{
	"frame": {"x":2,"y":1196,"w":44,"h":64},
	"rotated": false,
	"trimmed": false,
	"spriteSourceSize": {"x":0,"y":0,"w":44,"h":64},
	"sourceSize": {"w":44,"h":64}
},
"SSC_NAILART_GAME_NAIL_04_0012.png":
{
	"frame": {"x":48,"y":1190,"w":44,"h":64},
	"rotated": false,
	"trimmed": false,
	"spriteSourceSize": {"x":0,"y":0,"w":44,"h":64},
	"sourceSize": {"w":44,"h":64}
},
"SSC_NAILART_GAME_NAIL_04_0013.png":
{
	"frame": {"x":96,"y":1144,"w":44,"h":64},
	"rotated": false,
	"trimmed": false,
	"spriteSourceSize": {"x":0,"y":0,"w":44,"h":64},
	"sourceSize": {"w":44,"h":64}
},
"SSC_NAILART_GAME_NAIL_04_0014.png":
{
	"frame": {"x":148,"y":1112,"w":44,"h":64},
	"rotated": false,
	"trimmed": false,
	"spriteSourceSize": {"x":0,"y":0,"w":44,"h":64},
	"sourceSize": {"w":44,"h":64}
},
"SSC_NAILART_GAME_NAIL_04_0015.png":
{
	"frame": {"x":198,"y":1092,"w":44,"h":64},
	"rotated": false,
	"trimmed": false,
	"spriteSourceSize": {"x":0,"y":0,"w":44,"h":64},
	"sourceSize": {"w":44,"h":64}
},
"SSC_NAILART_GAME_NAIL_04_0016.png":
{
	"frame": {"x":248,"y":1063,"w":44,"h":64},
	"rotated": false,
	"trimmed": false,
	"spriteSourceSize": {"x":0,"y":0,"w":44,"h":64},
	"sourceSize": {"w":44,"h":64}
},
"SSC_NAILART_GAME_NAIL_04_0017.png":
{
	"frame": {"x":298,"y":1005,"w":44,"h":64},
	"rotated": false,
	"trimmed": false,
	"spriteSourceSize": {"x":0,"y":0,"w":44,"h":64},
	"sourceSize": {"w":44,"h":64}
},
"SSC_NAILART_GAME_NAIL_04_0018.png":
{
	"frame": {"x":414,"y":990,"w":44,"h":64},
	"rotated": false,
	"trimmed": false,
	"spriteSourceSize": {"x":0,"y":0,"w":44,"h":64},
	"sourceSize": {"w":44,"h":64}
},
"SSC_NAILART_GAME_NAIL_04_0019.png":
{
	"frame": {"x":368,"y":990,"w":44,"h":64},
	"rotated": false,
	"trimmed": false,
	"spriteSourceSize": {"x":0,"y":0,"w":44,"h":64},
	"sourceSize": {"w":44,"h":64}
},
"SSC_NAILART_GAME_NAIL_04_0020.png":
{
	"frame": {"x":482,"y":958,"w":44,"h":64},
	"rotated": false,
	"trimmed": false,
	"spriteSourceSize": {"x":0,"y":0,"w":44,"h":64},
	"sourceSize": {"w":44,"h":64}
},
"SSC_NAILART_GAME_NAIL_04_0021.png":
{
	"frame": {"x":546,"y":914,"w":44,"h":64},
	"rotated": false,
	"trimmed": false,
	"spriteSourceSize": {"x":0,"y":0,"w":44,"h":64},
	"sourceSize": {"w":44,"h":64}
},
"SSC_NAILART_GAME_NAIL_04_0022.png":
{
	"frame": {"x":746,"y":854,"w":44,"h":64},
	"rotated": false,
	"trimmed": false,
	"spriteSourceSize": {"x":0,"y":0,"w":44,"h":64},
	"sourceSize": {"w":44,"h":64}
},
"SSC_NAILART_GAME_NAIL_04_0023.png":
{
	"frame": {"x":630,"y":858,"w":44,"h":64},
	"rotated": false,
	"trimmed": false,
	"spriteSourceSize": {"x":0,"y":0,"w":44,"h":64},
	"sourceSize": {"w":44,"h":64}
},
"SSC_NAILART_GAME_NAIL_04_0024.png":
{
	"frame": {"x":700,"y":854,"w":44,"h":64},
	"rotated": false,
	"trimmed": false,
	"spriteSourceSize": {"x":0,"y":0,"w":44,"h":64},
	"sourceSize": {"w":44,"h":64}
},
"SSC_NAILART_GAME_NAIL_04_0025.png":
{
	"frame": {"x":829,"y":840,"w":44,"h":64},
	"rotated": false,
	"trimmed": false,
	"spriteSourceSize": {"x":0,"y":0,"w":44,"h":64},
	"sourceSize": {"w":44,"h":64}
},
"SSC_NAILART_GAME_NAIL_04_0026.png":
{
	"frame": {"x":939,"y":774,"w":44,"h":64},
	"rotated": false,
	"trimmed": false,
	"spriteSourceSize": {"x":0,"y":0,"w":44,"h":64},
	"sourceSize": {"w":44,"h":64}
},
"SSC_NAILART_GAME_NAIL_04_0027.png":
{
	"frame": {"x":893,"y":774,"w":44,"h":64},
	"rotated": false,
	"trimmed": false,
	"spriteSourceSize": {"x":0,"y":0,"w":44,"h":64},
	"sourceSize": {"w":44,"h":64}
},
"SSC_NAILART_GAME_NAIL_04_0028.png":
{
	"frame": {"x":2,"y":1130,"w":44,"h":64},
	"rotated": false,
	"trimmed": false,
	"spriteSourceSize": {"x":0,"y":0,"w":44,"h":64},
	"sourceSize": {"w":44,"h":64}
},
"SSC_NAILART_GAME_NAIL_04_0029.png":
{
	"frame": {"x":50,"y":1124,"w":44,"h":64},
	"rotated": false,
	"trimmed": false,
	"spriteSourceSize": {"x":0,"y":0,"w":44,"h":64},
	"sourceSize": {"w":44,"h":64}
},
"SSC_NAILART_GAME_NAIL_04_0030.png":
{
	"frame": {"x":799,"y":722,"w":44,"h":64},
	"rotated": false,
	"trimmed": false,
	"spriteSourceSize": {"x":0,"y":0,"w":44,"h":64},
	"sourceSize": {"w":44,"h":64}
},
"SSC_NAILART_GAME_NAIL_05_0001.png":
{
	"frame": {"x":749,"y":722,"w":48,"h":64},
	"rotated": false,
	"trimmed": false,
	"spriteSourceSize": {"x":0,"y":0,"w":48,"h":64},
	"sourceSize": {"w":48,"h":64}
},
"SSC_NAILART_GAME_NAIL_05_0002.png":
{
	"frame": {"x":845,"y":708,"w":48,"h":64},
	"rotated": false,
	"trimmed": false,
	"spriteSourceSize": {"x":0,"y":0,"w":48,"h":64},
	"sourceSize": {"w":48,"h":64}
},
"SSC_NAILART_GAME_NAIL_05_0003.png":
{
	"frame": {"x":2,"y":998,"w":48,"h":64},
	"rotated": false,
	"trimmed": false,
	"spriteSourceSize": {"x":0,"y":0,"w":48,"h":64},
	"sourceSize": {"w":48,"h":64}
},
"SSC_NAILART_GAME_NAIL_05_0004.png":
{
	"frame": {"x":52,"y":992,"w":48,"h":64},
	"rotated": false,
	"trimmed": false,
	"spriteSourceSize": {"x":0,"y":0,"w":48,"h":64},
	"sourceSize": {"w":48,"h":64}
},
"SSC_NAILART_GAME_NAIL_05_0005.png":
{
	"frame": {"x":102,"y":946,"w":48,"h":64},
	"rotated": false,
	"trimmed": false,
	"spriteSourceSize": {"x":0,"y":0,"w":48,"h":64},
	"sourceSize": {"w":48,"h":64}
},
"SSC_NAILART_GAME_NAIL_05_0006.png":
{
	"frame": {"x":152,"y":914,"w":48,"h":64},
	"rotated": false,
	"trimmed": false,
	"spriteSourceSize": {"x":0,"y":0,"w":48,"h":64},
	"sourceSize": {"w":48,"h":64}
},
"SSC_NAILART_GAME_NAIL_05_0007.png":
{
	"frame": {"x":222,"y":894,"w":48,"h":64},
	"rotated": false,
	"trimmed": false,
	"spriteSourceSize": {"x":0,"y":0,"w":48,"h":64},
	"sourceSize": {"w":48,"h":64}
},
"SSC_NAILART_GAME_NAIL_05_0008.png":
{
	"frame": {"x":288,"y":865,"w":48,"h":64},
	"rotated": false,
	"trimmed": false,
	"spriteSourceSize": {"x":0,"y":0,"w":48,"h":64},
	"sourceSize": {"w":48,"h":64}
},
"SSC_NAILART_GAME_NAIL_05_0009.png":
{
	"frame": {"x":352,"y":807,"w":48,"h":64},
	"rotated": false,
	"trimmed": false,
	"spriteSourceSize": {"x":0,"y":0,"w":48,"h":64},
	"sourceSize": {"w":48,"h":64}
},
"SSC_NAILART_GAME_NAIL_05_0010.png":
{
	"frame": {"x":484,"y":792,"w":48,"h":64},
	"rotated": false,
	"trimmed": false,
	"spriteSourceSize": {"x":0,"y":0,"w":48,"h":64},
	"sourceSize": {"w":48,"h":64}
},
"SSC_NAILART_GAME_NAIL_05_0011.png":
{
	"frame": {"x":434,"y":792,"w":48,"h":64},
	"rotated": false,
	"trimmed": false,
	"spriteSourceSize": {"x":0,"y":0,"w":48,"h":64},
	"sourceSize": {"w":48,"h":64}
},
"SSC_NAILART_GAME_NAIL_05_0012.png":
{
	"frame": {"x":2,"y":932,"w":48,"h":64},
	"rotated": false,
	"trimmed": false,
	"spriteSourceSize": {"x":0,"y":0,"w":48,"h":64},
	"sourceSize": {"w":48,"h":64}
},
"SSC_NAILART_GAME_NAIL_05_0013.png":
{
	"frame": {"x":52,"y":926,"w":48,"h":64},
	"rotated": false,
	"trimmed": false,
	"spriteSourceSize": {"x":0,"y":0,"w":48,"h":64},
	"sourceSize": {"w":48,"h":64}
},
"SSC_NAILART_GAME_NAIL_05_0014.png":
{
	"frame": {"x":102,"y":880,"w":48,"h":64},
	"rotated": false,
	"trimmed": false,
	"spriteSourceSize": {"x":0,"y":0,"w":48,"h":64},
	"sourceSize": {"w":48,"h":64}
},
"SSC_NAILART_GAME_NAIL_05_0015.png":
{
	"frame": {"x":172,"y":848,"w":48,"h":64},
	"rotated": false,
	"trimmed": false,
	"spriteSourceSize": {"x":0,"y":0,"w":48,"h":64},
	"sourceSize": {"w":48,"h":64}
},
"SSC_NAILART_GAME_NAIL_05_0016.png":
{
	"frame": {"x":238,"y":828,"w":48,"h":64},
	"rotated": false,
	"trimmed": false,
	"spriteSourceSize": {"x":0,"y":0,"w":48,"h":64},
	"sourceSize": {"w":48,"h":64}
},
"SSC_NAILART_GAME_NAIL_05_0017.png":
{
	"frame": {"x":302,"y":799,"w":48,"h":64},
	"rotated": false,
	"trimmed": false,
	"spriteSourceSize": {"x":0,"y":0,"w":48,"h":64},
	"sourceSize": {"w":48,"h":64}
},
"SSC_NAILART_GAME_NAIL_05_0018.png":
{
	"frame": {"x":384,"y":741,"w":48,"h":64},
	"rotated": false,
	"trimmed": false,
	"spriteSourceSize": {"x":0,"y":0,"w":48,"h":64},
	"sourceSize": {"w":48,"h":64}
},
"SSC_NAILART_GAME_NAIL_05_0019.png":
{
	"frame": {"x":554,"y":760,"w":48,"h":64},
	"rotated": false,
	"trimmed": false,
	"spriteSourceSize": {"x":0,"y":0,"w":48,"h":64},
	"sourceSize": {"w":48,"h":64}
},
"SSC_NAILART_GAME_NAIL_05_0020.png":
{
	"frame": {"x":504,"y":726,"w":48,"h":64},
	"rotated": false,
	"trimmed": false,
	"spriteSourceSize": {"x":0,"y":0,"w":48,"h":64},
	"sourceSize": {"w":48,"h":64}
},
"SSC_NAILART_GAME_NAIL_05_0021.png":
{
	"frame": {"x":454,"y":726,"w":48,"h":64},
	"rotated": false,
	"trimmed": false,
	"spriteSourceSize": {"x":0,"y":0,"w":48,"h":64},
	"sourceSize": {"w":48,"h":64}
},
"SSC_NAILART_GAME_NAIL_05_0022.png":
{
	"frame": {"x":2,"y":866,"w":48,"h":64},
	"rotated": false,
	"trimmed": false,
	"spriteSourceSize": {"x":0,"y":0,"w":48,"h":64},
	"sourceSize": {"w":48,"h":64}
},
"SSC_NAILART_GAME_NAIL_05_0023.png":
{
	"frame": {"x":52,"y":860,"w":48,"h":64},
	"rotated": false,
	"trimmed": false,
	"spriteSourceSize": {"x":0,"y":0,"w":48,"h":64},
	"sourceSize": {"w":48,"h":64}
},
"SSC_NAILART_GAME_NAIL_05_0024.png":
{
	"frame": {"x":122,"y":814,"w":48,"h":64},
	"rotated": false,
	"trimmed": false,
	"spriteSourceSize": {"x":0,"y":0,"w":48,"h":64},
	"sourceSize": {"w":48,"h":64}
},
"SSC_NAILART_GAME_NAIL_05_0025.png":
{
	"frame": {"x":188,"y":782,"w":48,"h":64},
	"rotated": false,
	"trimmed": false,
	"spriteSourceSize": {"x":0,"y":0,"w":48,"h":64},
	"sourceSize": {"w":48,"h":64}
},
"SSC_NAILART_GAME_NAIL_05_0026.png":
{
	"frame": {"x":252,"y":762,"w":48,"h":64},
	"rotated": false,
	"trimmed": false,
	"spriteSourceSize": {"x":0,"y":0,"w":48,"h":64},
	"sourceSize": {"w":48,"h":64}
},
"SSC_NAILART_GAME_NAIL_05_0027.png":
{
	"frame": {"x":334,"y":733,"w":48,"h":64},
	"rotated": false,
	"trimmed": false,
	"spriteSourceSize": {"x":0,"y":0,"w":48,"h":64},
	"sourceSize": {"w":48,"h":64}
},
"SSC_NAILART_GAME_NAIL_05_0028.png":
{
	"frame": {"x":404,"y":675,"w":48,"h":64},
	"rotated": false,
	"trimmed": false,
	"spriteSourceSize": {"x":0,"y":0,"w":48,"h":64},
	"sourceSize": {"w":48,"h":64}
},
"SSC_NAILART_GAME_NAIL_05_0029.png":
{
	"frame": {"x":2,"y":800,"w":48,"h":64},
	"rotated": false,
	"trimmed": false,
	"spriteSourceSize": {"x":0,"y":0,"w":48,"h":64},
	"sourceSize": {"w":48,"h":64}
},
"SSC_NAILART_GAME_NAIL_05_0030.png":
{
	"frame": {"x":972,"y":384,"w":48,"h":64},
	"rotated": false,
	"trimmed": false,
	"spriteSourceSize": {"x":0,"y":0,"w":48,"h":64},
	"sourceSize": {"w":48,"h":64}
},
"SSC_NAILART_GAME_NAIL_CHOICES_0001.png":
{
	"frame": {"x":931,"y":622,"w":62,"h":84},
	"rotated": false,
	"trimmed": false,
	"spriteSourceSize": {"x":0,"y":0,"w":62,"h":84},
	"sourceSize": {"w":62,"h":84}
},
"SSC_NAILART_GAME_NAIL_CHOICES_0002.png":
{
	"frame": {"x":653,"y":580,"w":62,"h":84},
	"rotated": false,
	"trimmed": false,
	"spriteSourceSize": {"x":0,"y":0,"w":62,"h":84},
	"sourceSize": {"w":62,"h":84}
},
"SSC_NAILART_GAME_NAIL_CHOICES_0003.png":
{
	"frame": {"x":867,"y":564,"w":62,"h":84},
	"rotated": false,
	"trimmed": false,
	"spriteSourceSize": {"x":0,"y":0,"w":62,"h":84},
	"sourceSize": {"w":62,"h":84}
},
"SSC_NAILART_GAME_NAIL_CHOICES_0004.png":
{
	"frame": {"x":803,"y":520,"w":62,"h":84},
	"rotated": false,
	"trimmed": false,
	"spriteSourceSize": {"x":0,"y":0,"w":62,"h":84},
	"sourceSize": {"w":62,"h":84}
},
"SSC_NAILART_GAME_NAIL_CHOICES_0005.png":
{
	"frame": {"x":739,"y":520,"w":62,"h":84},
	"rotated": false,
	"trimmed": false,
	"spriteSourceSize": {"x":0,"y":0,"w":62,"h":84},
	"sourceSize": {"w":62,"h":84}
},
"SSC_NAILART_GAME_NAIL_CHOICES_0006.png":
{
	"frame": {"x":589,"y":500,"w":62,"h":84},
	"rotated": false,
	"trimmed": false,
	"spriteSourceSize": {"x":0,"y":0,"w":62,"h":84},
	"sourceSize": {"w":62,"h":84}
},
"SSC_NAILART_GAME_NAIL_CHOICES_0007.png":
{
	"frame": {"x":675,"y":494,"w":62,"h":84},
	"rotated": false,
	"trimmed": false,
	"spriteSourceSize": {"x":0,"y":0,"w":62,"h":84},
	"sourceSize": {"w":62,"h":84}
},
"SSC_NAILART_GAME_NAIL_CHOICES_0008.png":
{
	"frame": {"x":952,"y":536,"w":62,"h":84},
	"rotated": false,
	"trimmed": false,
	"spriteSourceSize": {"x":0,"y":0,"w":62,"h":84},
	"sourceSize": {"w":62,"h":84}
},
"SSC_NAILART_GAME_NAIL_CHOICES_0009.png":
{
	"frame": {"x":888,"y":478,"w":62,"h":84},
	"rotated": false,
	"trimmed": false,
	"spriteSourceSize": {"x":0,"y":0,"w":62,"h":84},
	"sourceSize": {"w":62,"h":84}
},
"SSC_NAILART_GAME_NAIL_CHOICES_0010.png":
{
	"frame": {"x":824,"y":434,"w":62,"h":84},
	"rotated": false,
	"trimmed": false,
	"spriteSourceSize": {"x":0,"y":0,"w":62,"h":84},
	"sourceSize": {"w":62,"h":84}
},
"SSC_NAILART_GAME_NAIL_CHOICES_0011.png":
{
	"frame": {"x":760,"y":434,"w":62,"h":84},
	"rotated": false,
	"trimmed": false,
	"spriteSourceSize": {"x":0,"y":0,"w":62,"h":84},
	"sourceSize": {"w":62,"h":84}
},
"SSC_NAILART_GAME_NAIL_CHOICES_0012.png":
{
	"frame": {"x":525,"y":466,"w":62,"h":84},
	"rotated": false,
	"trimmed": false,
	"spriteSourceSize": {"x":0,"y":0,"w":62,"h":84},
	"sourceSize": {"w":62,"h":84}
},
"SSC_NAILART_GAME_NAIL_CHOICES_0013.png":
{
	"frame": {"x":611,"y":414,"w":62,"h":84},
	"rotated": false,
	"trimmed": false,
	"spriteSourceSize": {"x":0,"y":0,"w":62,"h":84},
	"sourceSize": {"w":62,"h":84}
},
"SSC_NAILART_GAME_NAIL_CHOICES_0014.png":
{
	"frame": {"x":952,"y":450,"w":62,"h":84},
	"rotated": false,
	"trimmed": false,
	"spriteSourceSize": {"x":0,"y":0,"w":62,"h":84},
	"sourceSize": {"w":62,"h":84}
},
"SSC_NAILART_GAME_NAIL_CHOICES_0015.png":
{
	"frame": {"x":888,"y":392,"w":62,"h":84},
	"rotated": false,
	"trimmed": false,
	"spriteSourceSize": {"x":0,"y":0,"w":62,"h":84},
	"sourceSize": {"w":62,"h":84}
},
"SSC_NAILART_GAME_NAIL_CHOICES_0016.png":
{
	"frame": {"x":824,"y":348,"w":62,"h":84},
	"rotated": false,
	"trimmed": false,
	"spriteSourceSize": {"x":0,"y":0,"w":62,"h":84},
	"sourceSize": {"w":62,"h":84}
},
"SSC_NAILART_GAME_NAIL_CHOICES_0017.png":
{
	"frame": {"x":696,"y":408,"w":62,"h":84},
	"rotated": false,
	"trimmed": false,
	"spriteSourceSize": {"x":0,"y":0,"w":62,"h":84},
	"sourceSize": {"w":62,"h":84}
},
"SSC_NAILART_GAME_NAIL_CHOICES_0018.png":
{
	"frame": {"x":760,"y":348,"w":62,"h":84},
	"rotated": false,
	"trimmed": false,
	"spriteSourceSize": {"x":0,"y":0,"w":62,"h":84},
	"sourceSize": {"w":62,"h":84}
},
"SSC_NAILART_GAME_NAIL_CHOICES_0019.png":
{
	"frame": {"x":908,"y":306,"w":62,"h":84},
	"rotated": false,
	"trimmed": false,
	"spriteSourceSize": {"x":0,"y":0,"w":62,"h":84},
	"sourceSize": {"w":62,"h":84}
},
"SSC_NAILART_GAME_NAIL_CHOICES_0020.png":
{
	"frame": {"x":696,"y":322,"w":62,"h":84},
	"rotated": false,
	"trimmed": false,
	"spriteSourceSize": {"x":0,"y":0,"w":62,"h":84},
	"sourceSize": {"w":62,"h":84}
},
"SSC_NAILART_GAME_NAIL_CHOICES_0021.png":
{
	"frame": {"x":844,"y":262,"w":62,"h":84},
	"rotated": false,
	"trimmed": false,
	"spriteSourceSize": {"x":0,"y":0,"w":62,"h":84},
	"sourceSize": {"w":62,"h":84}
},
"SSC_NAILART_GAME_NAIL_CHOICES_0022.png":
{
	"frame": {"x":780,"y":262,"w":62,"h":84},
	"rotated": false,
	"trimmed": false,
	"spriteSourceSize": {"x":0,"y":0,"w":62,"h":84},
	"sourceSize": {"w":62,"h":84}
},
"SSC_NAILART_GAME_NAIL_CHOICES_0023.png":
{
	"frame": {"x":2,"y":598,"w":62,"h":84},
	"rotated": false,
	"trimmed": false,
	"spriteSourceSize": {"x":0,"y":0,"w":62,"h":84},
	"sourceSize": {"w":62,"h":84}
},
"SSC_NAILART_GAME_NAIL_CHOICES_0024.png":
{
	"frame": {"x":82,"y":590,"w":62,"h":84},
	"rotated": false,
	"trimmed": false,
	"spriteSourceSize": {"x":0,"y":0,"w":62,"h":84},
	"sourceSize": {"w":62,"h":84}
},
"SSC_NAILART_GAME_NAIL_CHOICES_0025.png":
{
	"frame": {"x":148,"y":554,"w":62,"h":84},
	"rotated": false,
	"trimmed": false,
	"spriteSourceSize": {"x":0,"y":0,"w":62,"h":84},
	"sourceSize": {"w":62,"h":84}
},
"SSC_NAILART_GAME_NAIL_CHOICES_0026.png":
{
	"frame": {"x":237,"y":504,"w":62,"h":84},
	"rotated": false,
	"trimmed": false,
	"spriteSourceSize": {"x":0,"y":0,"w":62,"h":84},
	"sourceSize": {"w":62,"h":84}
},
"SSC_NAILART_GAME_NAIL_CHOICES_0027.png":
{
	"frame": {"x":308,"y":440,"w":62,"h":84},
	"rotated": false,
	"trimmed": false,
	"spriteSourceSize": {"x":0,"y":0,"w":62,"h":84},
	"sourceSize": {"w":62,"h":84}
},
"SSC_NAILART_GAME_NAIL_CHOICES_0028.png":
{
	"frame": {"x":461,"y":415,"w":62,"h":84},
	"rotated": false,
	"trimmed": false,
	"spriteSourceSize": {"x":0,"y":0,"w":62,"h":84},
	"sourceSize": {"w":62,"h":84}
},
"SSC_NAILART_GAME_NAIL_CHOICES_0029.png":
{
	"frame": {"x":397,"y":415,"w":62,"h":84},
	"rotated": false,
	"trimmed": false,
	"spriteSourceSize": {"x":0,"y":0,"w":62,"h":84},
	"sourceSize": {"w":62,"h":84}
},
"SSC_NAILART_GAME_NAIL_CHOICES_0030.png":
{
	"frame": {"x":191,"y":330,"w":62,"h":84},
	"rotated": false,
	"trimmed": false,
	"spriteSourceSize": {"x":0,"y":0,"w":62,"h":84},
	"sourceSize": {"w":62,"h":84}
},
"SSC_NAILART_GAME_PATTERNS_BUTTON.png":
{
	"frame": {"x":138,"y":2,"w":130,"h":100},
	"rotated": false,
	"trimmed": false,
	"spriteSourceSize": {"x":0,"y":0,"w":130,"h":100},
	"sourceSize": {"w":130,"h":100}
},
"SSC_NAILART_GAME_RINGS_0001.png":
{
	"frame": {"x":812,"y":172,"w":98,"h":44},
	"rotated": false,
	"trimmed": true,
	"spriteSourceSize": {"x":19,"y":28,"w":98,"h":44},
	"sourceSize": {"w":124,"h":88}
},
"SSC_NAILART_GAME_RINGS_0002.png":
{
	"frame": {"x":812,"y":218,"w":98,"h":42},
	"rotated": false,
	"trimmed": true,
	"spriteSourceSize": {"x":19,"y":30,"w":98,"h":42},
	"sourceSize": {"w":124,"h":88}
},
"SSC_NAILART_GAME_RINGS_0003.png":
{
	"frame": {"x":712,"y":160,"w":98,"h":60},
	"rotated": false,
	"trimmed": true,
	"spriteSourceSize": {"x":19,"y":18,"w":98,"h":60},
	"sourceSize": {"w":124,"h":88}
},
"SSC_NAILART_GAME_RINGS_0004.png":
{
	"frame": {"x":912,"y":252,"w":94,"h":52},
	"rotated": false,
	"trimmed": true,
	"spriteSourceSize": {"x":22,"y":20,"w":94,"h":52},
	"sourceSize": {"w":124,"h":88}
},
"SSC_NAILART_GAME_RINGS_0005.png":
{
	"frame": {"x":622,"y":2,"w":112,"h":38},
	"rotated": false,
	"trimmed": true,
	"spriteSourceSize": {"x":5,"y":36,"w":112,"h":38},
	"sourceSize": {"w":124,"h":88}
},
"SSC_NAILART_GAME_RINGS_0006.png":
{
	"frame": {"x":390,"y":46,"w":112,"h":64},
	"rotated": false,
	"trimmed": true,
	"spriteSourceSize": {"x":12,"y":3,"w":112,"h":64},
	"sourceSize": {"w":124,"h":88}
},
"SSC_NAILART_GAME_RINGS_0007.png":
{
	"frame": {"x":258,"y":110,"w":112,"h":48},
	"rotated": false,
	"trimmed": true,
	"spriteSourceSize": {"x":1,"y":16,"w":112,"h":48},
	"sourceSize": {"w":124,"h":88}
},
"SSC_NAILART_GAME_RINGS_0008.png":
{
	"frame": {"x":612,"y":150,"w":98,"h":62},
	"rotated": false,
	"trimmed": true,
	"spriteSourceSize": {"x":19,"y":19,"w":98,"h":62},
	"sourceSize": {"w":124,"h":88}
},
"SSC_NAILART_GAME_RINGS_0009.png":
{
	"frame": {"x":830,"y":110,"w":98,"h":60},
	"rotated": false,
	"trimmed": true,
	"spriteSourceSize": {"x":19,"y":17,"w":98,"h":60},
	"sourceSize": {"w":124,"h":88}
},
"SSC_NAILART_GAME_RINGS_0010.png":
{
	"frame": {"x":138,"y":104,"w":118,"h":74},
	"rotated": false,
	"trimmed": true,
	"spriteSourceSize": {"x":0,"y":11,"w":118,"h":74},
	"sourceSize": {"w":124,"h":88}
},
"SSC_NAILART_GAME_RINGS_BUTTON.png":
{
	"frame": {"x":730,"y":56,"w":98,"h":102},
	"rotated": false,
	"trimmed": false,
	"spriteSourceSize": {"x":0,"y":0,"w":98,"h":102},
	"sourceSize": {"w":98,"h":102}
},
"SSC_NAILART_GAME_RING_CHOICES_0001.png":
{
	"frame": {"x":849,"y":2,"w":103,"h":48},
	"rotated": false,
	"trimmed": true,
	"spriteSourceSize": {"x":10,"y":18,"w":103,"h":48},
	"sourceSize": {"w":125,"h":80}
},
"SSC_NAILART_GAME_RING_CHOICES_0002.png":
{
	"frame": {"x":2,"y":280,"w":103,"h":48},
	"rotated": false,
	"trimmed": true,
	"spriteSourceSize": {"x":10,"y":18,"w":103,"h":48},
	"sourceSize": {"w":125,"h":80}
},
"SSC_NAILART_GAME_RING_CHOICES_0003.png":
{
	"frame": {"x":107,"y":248,"w":103,"h":64},
	"rotated": false,
	"trimmed": true,
	"spriteSourceSize": {"x":10,"y":8,"w":103,"h":64},
	"sourceSize": {"w":125,"h":80}
},
"SSC_NAILART_GAME_RING_CHOICES_0004.png":
{
	"frame": {"x":849,"y":52,"w":99,"h":56},
	"rotated": false,
	"trimmed": true,
	"spriteSourceSize": {"x":12,"y":14,"w":99,"h":56},
	"sourceSize": {"w":125,"h":80}
},
"SSC_NAILART_GAME_RING_CHOICES_0005.png":
{
	"frame": {"x":390,"y":2,"w":115,"h":42},
	"rotated": false,
	"trimmed": true,
	"spriteSourceSize": {"x":0,"y":25,"w":115,"h":42},
	"sourceSize": {"w":125,"h":80}
},
"SSC_NAILART_GAME_RING_CHOICES_0006.png":
{
	"frame": {"x":2,"y":138,"w":117,"h":72},
	"rotated": false,
	"trimmed": true,
	"spriteSourceSize": {"x":5,"y":0,"w":117,"h":72},
	"sourceSize": {"w":125,"h":80}
},
"SSC_NAILART_GAME_RING_CHOICES_0007.png":
{
	"frame": {"x":736,"y":2,"w":111,"h":52},
	"rotated": false,
	"trimmed": true,
	"spriteSourceSize": {"x":0,"y":19,"w":111,"h":52},
	"sourceSize": {"w":125,"h":80}
},
"SSC_NAILART_GAME_RING_CHOICES_0008.png":
{
	"frame": {"x":2,"y":212,"w":103,"h":66},
	"rotated": false,
	"trimmed": true,
	"spriteSourceSize": {"x":11,"y":8,"w":103,"h":66},
	"sourceSize": {"w":125,"h":80}
},
"SSC_NAILART_GAME_RING_CHOICES_0009.png":
{
	"frame": {"x":121,"y":180,"w":103,"h":66},
	"rotated": false,
	"trimmed": true,
	"spriteSourceSize": {"x":11,"y":4,"w":103,"h":66},
	"sourceSize": {"w":125,"h":80}
},
"SSC_NAILART_GAME_RING_CHOICES_0010.png":
{
	"frame": {"x":507,"y":2,"w":113,"h":78},
	"rotated": false,
	"trimmed": true,
	"spriteSourceSize": {"x":1,"y":1,"w":113,"h":78},
	"sourceSize": {"w":125,"h":80}
},
"SSC_NAILART_GAME_SELECTION_UL.png":
{
	"frame": {"x":2,"y":2,"w":134,"h":134},
	"rotated": false,
	"trimmed": false,
	"spriteSourceSize": {"x":0,"y":0,"w":134,"h":134},
	"sourceSize": {"w":134,"h":134}
},
"SSC_NAILART_GAME_SKIN_BUTTON.png":
{
	"frame": {"x":258,"y":160,"w":104,"h":106},
	"rotated": false,
	"trimmed": true,
	"spriteSourceSize": {"x":10,"y":2,"w":104,"h":106},
	"sourceSize": {"w":124,"h":112}
},
"SSC_NAILART_GAME_STICKERS_0001.png":
{
	"frame": {"x":244,"y":1129,"w":44,"h":22},
	"rotated": false,
	"trimmed": true,
	"spriteSourceSize": {"x":9,"y":5,"w":44,"h":22},
	"sourceSize": {"w":66,"h":70}
},
"SSC_NAILART_GAME_STICKERS_0002.png":
{
	"frame": {"x":294,"y":1115,"w":44,"h":22},
	"rotated": false,
	"trimmed": true,
	"spriteSourceSize": {"x":9,"y":5,"w":44,"h":22},
	"sourceSize": {"w":66,"h":70}
},
"SSC_NAILART_GAME_STICKERS_0003.png":
{
	"frame": {"x":528,"y":340,"w":34,"h":34},
	"rotated": false,
	"trimmed": true,
	"spriteSourceSize": {"x":14,"y":8,"w":34,"h":34},
	"sourceSize": {"w":66,"h":70}
},
"SSC_NAILART_GAME_STICKERS_0004.png":
{
	"frame": {"x":294,"y":1071,"w":44,"h":42},
	"rotated": false,
	"trimmed": true,
	"spriteSourceSize": {"x":9,"y":15,"w":44,"h":42},
	"sourceSize": {"w":66,"h":70}
},
"SSC_NAILART_GAME_STICKERS_0005.png":
{
	"frame": {"x":528,"y":290,"w":34,"h":48},
	"rotated": false,
	"trimmed": true,
	"spriteSourceSize": {"x":14,"y":11,"w":34,"h":48},
	"sourceSize": {"w":66,"h":70}
},
"SSC_NAILART_GAME_STICKERS_0006.png":
{
	"frame": {"x":489,"y":375,"w":36,"h":36},
	"rotated": false,
	"trimmed": true,
	"spriteSourceSize": {"x":13,"y":10,"w":36,"h":36},
	"sourceSize": {"w":66,"h":70}
},
"SSC_NAILART_GAME_STICKERS_0007.png":
{
	"frame": {"x":226,"y":180,"w":28,"h":48},
	"rotated": false,
	"trimmed": true,
	"spriteSourceSize": {"x":14,"y":10,"w":28,"h":48},
	"sourceSize": {"w":66,"h":70}
},
"SSC_NAILART_GAME_STICKERS_0008.png":
{
	"frame": {"x":226,"y":230,"w":28,"h":46},
	"rotated": false,
	"trimmed": true,
	"spriteSourceSize": {"x":14,"y":9,"w":28,"h":46},
	"sourceSize": {"w":66,"h":70}
},
"SSC_NAILART_GAME_STICKERS_0009.png":
{
	"frame": {"x":894,"y":1018,"w":40,"h":38},
	"rotated": false,
	"trimmed": true,
	"spriteSourceSize": {"x":10,"y":14,"w":40,"h":38},
	"sourceSize": {"w":66,"h":70}
},
"SSC_NAILART_GAME_STICKERS_0010.png":
{
	"frame": {"x":390,"y":1056,"w":42,"h":34},
	"rotated": false,
	"trimmed": true,
	"spriteSourceSize": {"x":10,"y":21,"w":42,"h":34},
	"sourceSize": {"w":66,"h":70}
},
"SSC_NAILART_GAME_STICKERS_0011.png":
{
	"frame": {"x":527,"y":376,"w":32,"h":42},
	"rotated": false,
	"trimmed": true,
	"spriteSourceSize": {"x":15,"y":8,"w":32,"h":42},
	"sourceSize": {"w":66,"h":70}
},
"SSC_NAILART_GAME_STICKERS_0012.png":
{
	"frame": {"x":838,"y":906,"w":42,"h":30},
	"rotated": false,
	"trimmed": true,
	"spriteSourceSize": {"x":10,"y":16,"w":42,"h":30},
	"sourceSize": {"w":66,"h":70}
},
"SSC_NAILART_GAME_STICKERS_0013.png":
{
	"frame": {"x":806,"y":1050,"w":40,"h":52},
	"rotated": false,
	"trimmed": true,
	"spriteSourceSize": {"x":11,"y":6,"w":40,"h":52},
	"sourceSize": {"w":66,"h":70}
},
"SSC_NAILART_GAME_STICKERS_0014.png":
{
	"frame": {"x":742,"y":1084,"w":40,"h":46},
	"rotated": false,
	"trimmed": true,
	"spriteSourceSize": {"x":10,"y":13,"w":40,"h":46},
	"sourceSize": {"w":66,"h":70}
},
"SSC_NAILART_GAME_STICKERS_0015.png":
{
	"frame": {"x":212,"y":278,"w":42,"h":50},
	"rotated": false,
	"trimmed": true,
	"spriteSourceSize": {"x":11,"y":10,"w":42,"h":50},
	"sourceSize": {"w":66,"h":70}
},
"SSC_NAILART_GAME_STICKER_BUTTON.png":
{
	"frame": {"x":270,"y":2,"w":118,"h":106},
	"rotated": false,
	"trimmed": true,
	"spriteSourceSize": {"x":1,"y":0,"w":118,"h":106},
	"sourceSize": {"w":124,"h":112}
},
"SSC_NAILART_GAME_STICKER_CHOICES_0001.png":
{
	"frame": {"x":327,"y":402,"w":68,"h":36},
	"rotated": false,
	"trimmed": true,
	"spriteSourceSize": {"x":10,"y":18,"w":68,"h":36},
	"sourceSize": {"w":90,"h":90}
},
"SSC_NAILART_GAME_STICKER_CHOICES_0002.png":
{
	"frame": {"x":419,"y":375,"w":68,"h":38},
	"rotated": false,
	"trimmed": true,
	"spriteSourceSize": {"x":10,"y":16,"w":68,"h":38},
	"sourceSize": {"w":90,"h":90}
},
"SSC_NAILART_GAME_STICKER_CHOICES_0003.png":
{
	"frame": {"x":130,"y":756,"w":56,"h":56},
	"rotated": false,
	"trimmed": true,
	"spriteSourceSize": {"x":15,"y":13,"w":56,"h":56},
	"sourceSize": {"w":90,"h":90}
},
"SSC_NAILART_GAME_STICKER_CHOICES_0004.png":
{
	"frame": {"x":950,"y":84,"w":70,"h":66},
	"rotated": false,
	"trimmed": true,
	"spriteSourceSize": {"x":9,"y":7,"w":70,"h":66},
	"sourceSize": {"w":90,"h":90}
},
"SSC_NAILART_GAME_STICKER_CHOICES_0005.png":
{
	"frame": {"x":194,"y":706,"w":56,"h":74},
	"rotated": false,
	"trimmed": true,
	"spriteSourceSize": {"x":17,"y":4,"w":56,"h":74},
	"sourceSize": {"w":90,"h":90}
},
"SSC_NAILART_GAME_STICKER_CHOICES_0006.png":
{
	"frame": {"x":274,"y":700,"w":58,"h":60},
	"rotated": false,
	"trimmed": true,
	"spriteSourceSize": {"x":15,"y":15,"w":58,"h":60},
	"sourceSize": {"w":90,"h":90}
},
"SSC_NAILART_GAME_STICKER_CHOICES_0007.png":
{
	"frame": {"x":972,"y":306,"w":48,"h":76},
	"rotated": false,
	"trimmed": true,
	"spriteSourceSize": {"x":15,"y":5,"w":48,"h":76},
	"sourceSize": {"w":90,"h":90}
},
"SSC_NAILART_GAME_STICKER_CHOICES_0008.png":
{
	"frame": {"x":561,"y":388,"w":48,"h":76},
	"rotated": false,
	"trimmed": true,
	"spriteSourceSize": {"x":15,"y":5,"w":48,"h":76},
	"sourceSize": {"w":90,"h":90}
},
"SSC_NAILART_GAME_STICKER_CHOICES_0009.png":
{
	"frame": {"x":717,"y":606,"w":62,"h":60},
	"rotated": false,
	"trimmed": true,
	"spriteSourceSize": {"x":13,"y":16,"w":62,"h":60},
	"sourceSize": {"w":90,"h":90}
},
"SSC_NAILART_GAME_STICKER_CHOICES_0010.png":
{
	"frame": {"x":170,"y":416,"w":68,"h":56},
	"rotated": false,
	"trimmed": true,
	"spriteSourceSize": {"x":10,"y":18,"w":68,"h":56},
	"sourceSize": {"w":90,"h":90}
},
"SSC_NAILART_GAME_STICKER_CHOICES_0011.png":
{
	"frame": {"x":66,"y":792,"w":54,"h":66},
	"rotated": false,
	"trimmed": true,
	"spriteSourceSize": {"x":15,"y":8,"w":54,"h":66},
	"sourceSize": {"w":90,"h":90}
},
"SSC_NAILART_GAME_STICKER_CHOICES_0012.png":
{
	"frame": {"x":255,"y":368,"w":70,"h":50},
	"rotated": false,
	"trimmed": true,
	"spriteSourceSize": {"x":8,"y":19,"w":70,"h":50},
	"sourceSize": {"w":90,"h":90}
},
"SSC_NAILART_GAME_STICKER_CHOICES_0013.png":
{
	"frame": {"x":240,"y":420,"w":66,"h":82},
	"rotated": false,
	"trimmed": true,
	"spriteSourceSize": {"x":14,"y":2,"w":66,"h":82},
	"sourceSize": {"w":90,"h":90}
},
"SSC_NAILART_GAME_STICKER_CHOICES_0014.png":
{
	"frame": {"x":82,"y":514,"w":64,"h":74},
	"rotated": false,
	"trimmed": true,
	"spriteSourceSize": {"x":14,"y":14,"w":64,"h":74},
	"sourceSize": {"w":90,"h":90}
},
"SSC_NAILART_GAME_STICKER_CHOICES_0015.png":
{
	"frame": {"x":954,"y":2,"w":68,"h":80},
	"rotated": false,
	"trimmed": true,
	"spriteSourceSize": {"x":16,"y":9,"w":68,"h":80},
	"sourceSize": {"w":90,"h":90}
},
"SSC_Trash.png":
{
	"frame": {"x":170,"y":474,"w":65,"h":78},
	"rotated": false,
	"trimmed": true,
	"spriteSourceSize": {"x":5,"y":2,"w":65,"h":78},
	"sourceSize": {"w":79,"h":82}
}},
"meta": {
	"app": "http://www.texturepacker.com",
	"version": "1.0",
	"image": "Page.png",
	"format": "RGBA8888",
	"size": {"w":1024,"h":1318},
	"scale": "1",
	"smartupdate": "$TexturePacker:SmartUpdate:e4e7ebd1e2d48ec705566ea6529c2363$"
}
}
