{"frames": {

"P11_Lemon_Eyes0000":
{
	"frame": {"x":0,"y":0,"w":52,"h":22},
	"rotated": false,
	"trimmed": false,
	"spriteSourceSize": {"x":0,"y":0,"w":52,"h":22},
	"sourceSize": {"w":52,"h":22}
},
"P11_Lemon_Eyes0001":
{
	"frame": {"x":0,"y":22,"w":52,"h":22},
	"rotated": false,
	"trimmed": false,
	"spriteSourceSize": {"x":0,"y":0,"w":52,"h":22},
	"sourceSize": {"w":52,"h":22}
},
"P11_Lemon_Eyes0002":
{
	"frame": {"x":0,"y":44,"w":52,"h":22},
	"rotated": false,
	"trimmed": false,
	"spriteSourceSize": {"x":0,"y":0,"w":52,"h":22},
	"sourceSize": {"w":52,"h":22}
},
"P11_Lemon_Eyes0003":
{
	"frame": {"x":0,"y":66,"w":52,"h":22},
	"rotated": false,
	"trimmed": false,
	"spriteSourceSize": {"x":0,"y":0,"w":52,"h":22},
	"sourceSize": {"w":52,"h":22}
},
"P11_Lemon_Eyes0004":
{
	"frame": {"x":0,"y":66,"w":52,"h":22},
	"rotated": false,
	"trimmed": false,
	"spriteSourceSize": {"x":0,"y":0,"w":52,"h":22},
	"sourceSize": {"w":52,"h":22}
},
"P11_Lemon_Eyes0005":
{
	"frame": {"x":0,"y":44,"w":52,"h":22},
	"rotated": false,
	"trimmed": false,
	"spriteSourceSize": {"x":0,"y":0,"w":52,"h":22},
	"sourceSize": {"w":52,"h":22}
},
"P11_Lemon_Eyes0006":
{
	"frame": {"x":0,"y":22,"w":52,"h":22},
	"rotated": false,
	"trimmed": false,
	"spriteSourceSize": {"x":0,"y":0,"w":52,"h":22},
	"sourceSize": {"w":52,"h":22}
},
"P11_Lemon_Eyes0007":
{
	"frame": {"x":0,"y":0,"w":52,"h":22},
	"rotated": false,
	"trimmed": false,
	"spriteSourceSize": {"x":0,"y":0,"w":52,"h":22},
	"sourceSize": {"w":52,"h":22}
}},
"meta": {
	"app": "Adobe Flash CS6",
	"version": "12.0.2.529",
	"image": "P11_Lemon_Eyes.png",
	"format": "RGBA8888",
	"size": {"w":64,"h":128},
	"scale": "1"
}
}
