{"frames": {

"P11_Cherry instance 10000.png":
{
	"frame": {"x":151,"y":2,"w":139,"h":277},
	"rotated": false,
	"trimmed": true,
	"spriteSourceSize": {"x":40,"y":6,"w":139,"h":277},
	"sourceSize": {"w":201,"h":301}
},
"P11_Cherry instance 10001.png":
{
	"frame": {"x":151,"y":2,"w":139,"h":277},
	"rotated": false,
	"trimmed": true,
	"spriteSourceSize": {"x":40,"y":6,"w":139,"h":277},
	"sourceSize": {"w":201,"h":301}
},
"P11_Cherry instance 10002.png":
{
	"frame": {"x":2,"y":2,"w":147,"h":275},
	"rotated": false,
	"trimmed": true,
	"spriteSourceSize": {"x":34,"y":7,"w":147,"h":275},
	"sourceSize": {"w":201,"h":301}
},
"P11_Cherry instance 10003.png":
{
	"frame": {"x":2,"y":2,"w":147,"h":275},
	"rotated": false,
	"trimmed": true,
	"spriteSourceSize": {"x":34,"y":7,"w":147,"h":275},
	"sourceSize": {"w":201,"h":301}
},
"P11_Cherry instance 10004.png":
{
	"frame": {"x":2,"y":281,"w":175,"h":279},
	"rotated": false,
	"trimmed": true,
	"spriteSourceSize": {"x":13,"y":4,"w":175,"h":279},
	"sourceSize": {"w":201,"h":301}
},
"P11_Cherry instance 10005.png":
{
	"frame": {"x":2,"y":281,"w":175,"h":279},
	"rotated": false,
	"trimmed": true,
	"spriteSourceSize": {"x":13,"y":4,"w":175,"h":279},
	"sourceSize": {"w":201,"h":301}
},
"P11_Cherry instance 10006.png":
{
	"frame": {"x":183,"y":1700,"w":177,"h":281},
	"rotated": false,
	"trimmed": true,
	"spriteSourceSize": {"x":17,"y":2,"w":177,"h":281},
	"sourceSize": {"w":201,"h":301}
},
"P11_Cherry instance 10007.png":
{
	"frame": {"x":183,"y":1700,"w":177,"h":281},
	"rotated": false,
	"trimmed": true,
	"spriteSourceSize": {"x":17,"y":2,"w":177,"h":281},
	"sourceSize": {"w":201,"h":301}
},
"P11_Cherry instance 10008.png":
{
	"frame": {"x":181,"y":1417,"w":177,"h":281},
	"rotated": false,
	"trimmed": true,
	"spriteSourceSize": {"x":18,"y":2,"w":177,"h":281},
	"sourceSize": {"w":201,"h":301}
},
"P11_Cherry instance 10009.png":
{
	"frame": {"x":181,"y":1417,"w":177,"h":281},
	"rotated": false,
	"trimmed": true,
	"spriteSourceSize": {"x":18,"y":2,"w":177,"h":281},
	"sourceSize": {"w":201,"h":301}
},
"P11_Cherry instance 10010.png":
{
	"frame": {"x":2,"y":1417,"w":177,"h":281},
	"rotated": false,
	"trimmed": true,
	"spriteSourceSize": {"x":18,"y":2,"w":177,"h":281},
	"sourceSize": {"w":201,"h":301}
},
"P11_Cherry instance 10011.png":
{
	"frame": {"x":2,"y":1417,"w":177,"h":281},
	"rotated": false,
	"trimmed": true,
	"spriteSourceSize": {"x":18,"y":2,"w":177,"h":281},
	"sourceSize": {"w":201,"h":301}
},
"P11_Cherry instance 10012.png":
{
	"frame": {"x":2,"y":1700,"w":179,"h":281},
	"rotated": false,
	"trimmed": true,
	"spriteSourceSize": {"x":16,"y":2,"w":179,"h":281},
	"sourceSize": {"w":201,"h":301}
},
"P11_Cherry instance 10013.png":
{
	"frame": {"x":2,"y":1700,"w":179,"h":281},
	"rotated": false,
	"trimmed": true,
	"spriteSourceSize": {"x":16,"y":2,"w":179,"h":281},
	"sourceSize": {"w":201,"h":301}
},
"P11_Cherry instance 10014.png":
{
	"frame": {"x":183,"y":1134,"w":181,"h":281},
	"rotated": false,
	"trimmed": true,
	"spriteSourceSize": {"x":14,"y":2,"w":181,"h":281},
	"sourceSize": {"w":201,"h":301}
},
"P11_Cherry instance 10015.png":
{
	"frame": {"x":183,"y":1134,"w":181,"h":281},
	"rotated": false,
	"trimmed": true,
	"spriteSourceSize": {"x":14,"y":2,"w":181,"h":281},
	"sourceSize": {"w":201,"h":301}
},
"P11_Cherry instance 10016.png":
{
	"frame": {"x":2,"y":845,"w":175,"h":281},
	"rotated": false,
	"trimmed": true,
	"spriteSourceSize": {"x":20,"y":2,"w":175,"h":281},
	"sourceSize": {"w":201,"h":301}
},
"P11_Cherry instance 10017.png":
{
	"frame": {"x":2,"y":845,"w":175,"h":281},
	"rotated": false,
	"trimmed": true,
	"spriteSourceSize": {"x":20,"y":2,"w":175,"h":281},
	"sourceSize": {"w":201,"h":301}
},
"P11_Cherry instance 10018.png":
{
	"frame": {"x":292,"y":2,"w":173,"h":281},
	"rotated": false,
	"trimmed": true,
	"spriteSourceSize": {"x":22,"y":2,"w":173,"h":281},
	"sourceSize": {"w":201,"h":301}
},
"P11_Cherry instance 10019.png":
{
	"frame": {"x":292,"y":2,"w":173,"h":281},
	"rotated": false,
	"trimmed": true,
	"spriteSourceSize": {"x":22,"y":2,"w":173,"h":281},
	"sourceSize": {"w":201,"h":301}
},
"P11_Cherry instance 10020.png":
{
	"frame": {"x":2,"y":562,"w":175,"h":281},
	"rotated": false,
	"trimmed": true,
	"spriteSourceSize": {"x":20,"y":2,"w":175,"h":281},
	"sourceSize": {"w":201,"h":301}
},
"P11_Cherry instance 10021.png":
{
	"frame": {"x":2,"y":562,"w":175,"h":281},
	"rotated": false,
	"trimmed": true,
	"spriteSourceSize": {"x":20,"y":2,"w":175,"h":281},
	"sourceSize": {"w":201,"h":301}
},
"P11_Cherry instance 10022.png":
{
	"frame": {"x":179,"y":851,"w":177,"h":281},
	"rotated": false,
	"trimmed": true,
	"spriteSourceSize": {"x":18,"y":2,"w":177,"h":281},
	"sourceSize": {"w":201,"h":301}
},
"P11_Cherry instance 10023.png":
{
	"frame": {"x":179,"y":851,"w":177,"h":281},
	"rotated": false,
	"trimmed": true,
	"spriteSourceSize": {"x":18,"y":2,"w":177,"h":281},
	"sourceSize": {"w":201,"h":301}
},
"P11_Cherry instance 10024.png":
{
	"frame": {"x":179,"y":568,"w":177,"h":281},
	"rotated": false,
	"trimmed": true,
	"spriteSourceSize": {"x":18,"y":2,"w":177,"h":281},
	"sourceSize": {"w":201,"h":301}
},
"P11_Cherry instance 10025.png":
{
	"frame": {"x":179,"y":568,"w":177,"h":281},
	"rotated": false,
	"trimmed": true,
	"spriteSourceSize": {"x":18,"y":2,"w":177,"h":281},
	"sourceSize": {"w":201,"h":301}
},
"P11_Cherry instance 10026.png":
{
	"frame": {"x":2,"y":1134,"w":179,"h":281},
	"rotated": false,
	"trimmed": true,
	"spriteSourceSize": {"x":16,"y":2,"w":179,"h":281},
	"sourceSize": {"w":201,"h":301}
},
"P11_Cherry instance 10027.png":
{
	"frame": {"x":2,"y":1134,"w":179,"h":281},
	"rotated": false,
	"trimmed": true,
	"spriteSourceSize": {"x":16,"y":2,"w":179,"h":281},
	"sourceSize": {"w":201,"h":301}
},
"P11_Cherry instance 10028.png":
{
	"frame": {"x":179,"y":285,"w":177,"h":281},
	"rotated": false,
	"trimmed": true,
	"spriteSourceSize": {"x":18,"y":2,"w":177,"h":281},
	"sourceSize": {"w":201,"h":301}
},
"P11_Cherry instance 10029.png":
{
	"frame": {"x":179,"y":285,"w":177,"h":281},
	"rotated": false,
	"trimmed": true,
	"spriteSourceSize": {"x":18,"y":2,"w":177,"h":281},
	"sourceSize": {"w":201,"h":301}
},
"P11_Cherry instance 10030.png":
{
	"frame": {"x":183,"y":1700,"w":177,"h":281},
	"rotated": false,
	"trimmed": true,
	"spriteSourceSize": {"x":17,"y":2,"w":177,"h":281},
	"sourceSize": {"w":201,"h":301}
},
"P11_Cherry instance 10031.png":
{
	"frame": {"x":183,"y":1700,"w":177,"h":281},
	"rotated": false,
	"trimmed": true,
	"spriteSourceSize": {"x":17,"y":2,"w":177,"h":281},
	"sourceSize": {"w":201,"h":301}
},
"P11_Cherry instance 10032.png":
{
	"frame": {"x":2,"y":281,"w":175,"h":279},
	"rotated": false,
	"trimmed": true,
	"spriteSourceSize": {"x":13,"y":4,"w":175,"h":279},
	"sourceSize": {"w":201,"h":301}
},
"P11_Cherry instance 10033.png":
{
	"frame": {"x":2,"y":281,"w":175,"h":279},
	"rotated": false,
	"trimmed": true,
	"spriteSourceSize": {"x":13,"y":4,"w":175,"h":279},
	"sourceSize": {"w":201,"h":301}
},
"P11_Cherry instance 10034.png":
{
	"frame": {"x":2,"y":2,"w":147,"h":275},
	"rotated": false,
	"trimmed": true,
	"spriteSourceSize": {"x":34,"y":7,"w":147,"h":275},
	"sourceSize": {"w":201,"h":301}
},
"P11_Cherry instance 10035.png":
{
	"frame": {"x":2,"y":2,"w":147,"h":275},
	"rotated": false,
	"trimmed": true,
	"spriteSourceSize": {"x":34,"y":7,"w":147,"h":275},
	"sourceSize": {"w":201,"h":301}
},
"P11_Cherry instance 10036.png":
{
	"frame": {"x":151,"y":2,"w":139,"h":277},
	"rotated": false,
	"trimmed": true,
	"spriteSourceSize": {"x":40,"y":6,"w":139,"h":277},
	"sourceSize": {"w":201,"h":301}
},
"P11_Cherry instance 10037.png":
{
	"frame": {"x":151,"y":2,"w":139,"h":277},
	"rotated": false,
	"trimmed": true,
	"spriteSourceSize": {"x":40,"y":6,"w":139,"h":277},
	"sourceSize": {"w":201,"h":301}
}},
"meta": {
	"app": "http://www.texturepacker.com",
	"version": "1.0",
	"image": "P11_Cherry.png",
	"format": "RGBA8888",
	"size": {"w":467,"h":1983},
	"scale": "1",
	"smartupdate": "$TexturePacker:SmartUpdate:0379ac4a9a3ee508352a3cdb5029708f$"
}
}
