{"frames": {

"Berrykin_1_001.png":
{
	"frame": {"x":720,"y":968,"w":54,"h":66},
	"rotated": true,
	"trimmed": true,
	"spriteSourceSize": {"x":1,"y":4,"w":54,"h":66},
	"sourceSize": {"w":60,"h":70}
},
"Berrykin_1_002.png":
{
	"frame": {"x":980,"y":1228,"w":58,"h":66},
	"rotated": false,
	"trimmed": true,
	"spriteSourceSize": {"x":1,"y":4,"w":58,"h":66},
	"sourceSize": {"w":60,"h":70}
},
"Berrykin_2_001.png":
{
	"frame": {"x":652,"y":968,"w":54,"h":66},
	"rotated": true,
	"trimmed": true,
	"spriteSourceSize": {"x":5,"y":4,"w":54,"h":66},
	"sourceSize": {"w":60,"h":70}
},
"Berrykin_2_002.png":
{
	"frame": {"x":920,"y":1228,"w":58,"h":66},
	"rotated": false,
	"trimmed": true,
	"spriteSourceSize": {"x":1,"y":4,"w":58,"h":66},
	"sourceSize": {"w":60,"h":70}
},
"P11_BG_UL.png":
{
	"frame": {"x":2,"y":2,"w":1020,"h":648},
	"rotated": true,
	"trimmed": true,
	"spriteSourceSize": {"x":171,"y":69,"w":1020,"h":648},
	"sourceSize": {"w":1366,"h":768}
},
"P11_Blueberry2_001.png":
{
	"frame": {"x":920,"y":1098,"w":128,"h":264},
	"rotated": true,
	"trimmed": true,
	"spriteSourceSize": {"x":11,"y":23,"w":128,"h":264},
	"sourceSize": {"w":140,"h":300}
},
"P11_Blueberry2_002.png":
{
	"frame": {"x":1756,"y":1070,"w":130,"h":256},
	"rotated": true,
	"trimmed": true,
	"spriteSourceSize": {"x":7,"y":22,"w":130,"h":256},
	"sourceSize": {"w":140,"h":300}
},
"P11_Blueberry_001.png":
{
	"frame": {"x":920,"y":968,"w":128,"h":264},
	"rotated": true,
	"trimmed": true,
	"spriteSourceSize": {"x":11,"y":23,"w":128,"h":264},
	"sourceSize": {"w":140,"h":300}
},
"P11_Blueberry_002.png":
{
	"frame": {"x":608,"y":1024,"w":126,"h":276},
	"rotated": false,
	"trimmed": true,
	"spriteSourceSize": {"x":0,"y":4,"w":126,"h":276},
	"sourceSize": {"w":140,"h":300}
},
"P11_Blueberry_003.png":
{
	"frame": {"x":920,"y":1098,"w":128,"h":264},
	"rotated": true,
	"trimmed": true,
	"spriteSourceSize": {"x":11,"y":23,"w":128,"h":264},
	"sourceSize": {"w":140,"h":300}
},
"P11_Cherry_0001.png":
{
	"frame": {"x":466,"y":1024,"w":140,"h":276},
	"rotated": false,
	"trimmed": true,
	"spriteSourceSize": {"x":39,"y":7,"w":140,"h":276},
	"sourceSize": {"w":200,"h":300}
},
"P11_Gem.png":
{
	"frame": {"x":736,"y":1300,"w":22,"h":28},
	"rotated": true,
	"trimmed": true,
	"spriteSourceSize": {"x":4,"y":0,"w":22,"h":28},
	"sourceSize": {"w":30,"h":30}
},
"P11_Light_1.png":
{
	"frame": {"x":1186,"y":2,"w":818,"h":532},
	"rotated": false,
	"trimmed": true,
	"spriteSourceSize": {"x":1,"y":1,"w":818,"h":532},
	"sourceSize": {"w":822,"h":536}
},
"P11_Light_2.png":
{
	"frame": {"x":1186,"y":536,"w":810,"h":532},
	"rotated": false,
	"trimmed": true,
	"spriteSourceSize": {"x":5,"y":2,"w":810,"h":532},
	"sourceSize": {"w":822,"h":536}
},
"P11_Lights.png":
{
	"frame": {"x":652,"y":2,"w":964,"h":532},
	"rotated": true,
	"trimmed": true,
	"spriteSourceSize": {"x":6,"y":1,"w":964,"h":532},
	"sourceSize": {"w":980,"h":534}
},
"P11_Plum2_001.png":
{
	"frame": {"x":330,"y":1024,"w":134,"h":290},
	"rotated": false,
	"trimmed": true,
	"spriteSourceSize": {"x":54,"y":11,"w":134,"h":290},
	"sourceSize": {"w":272,"h":312}
},
"P11_Plum2_002.png":
{
	"frame": {"x":736,"y":1024,"w":182,"h":274},
	"rotated": false,
	"trimmed": true,
	"spriteSourceSize": {"x":12,"y":38,"w":182,"h":274},
	"sourceSize": {"w":272,"h":312}
},
"P11_Plum_001.png":
{
	"frame": {"x":184,"y":1024,"w":144,"h":290},
	"rotated": false,
	"trimmed": true,
	"spriteSourceSize": {"x":55,"y":11,"w":144,"h":290},
	"sourceSize": {"w":272,"h":312}
},
"P11_Plum_002.png":
{
	"frame": {"x":2,"y":1024,"w":180,"h":296},
	"rotated": false,
	"trimmed": true,
	"spriteSourceSize": {"x":53,"y":6,"w":180,"h":296},
	"sourceSize": {"w":272,"h":312}
},
"P11_Plum_003.png":
{
	"frame": {"x":330,"y":1024,"w":134,"h":290},
	"rotated": false,
	"trimmed": true,
	"spriteSourceSize": {"x":54,"y":11,"w":134,"h":290},
	"sourceSize": {"w":272,"h":312}
},
"P11_Raspberry_0001.png":
{
	"frame": {"x":1492,"y":1070,"w":138,"h":262},
	"rotated": true,
	"trimmed": true,
	"spriteSourceSize": {"x":17,"y":7,"w":138,"h":262},
	"sourceSize": {"w":200,"h":300}
},
"P11_Sparkle.png":
{
	"frame": {"x":788,"y":968,"w":46,"h":54},
	"rotated": false,
	"trimmed": true,
	"spriteSourceSize": {"x":2,"y":2,"w":46,"h":54},
	"sourceSize": {"w":50,"h":60}
},
"P11_Strawberry_0001.png":
{
	"frame": {"x":1186,"y":1070,"w":236,"h":304},
	"rotated": true,
	"trimmed": true,
	"spriteSourceSize": {"x":24,"y":55,"w":236,"h":304},
	"sourceSize": {"w":268,"h":370}
}},
"meta": {
	"app": "http://www.codeandweb.com/texturepacker ",
	"version": "1.0",
	"image": "Page.png",
	"format": "RGBA8888",
	"size": {"w":2023,"h":1324},
	"scale": "1",
	"smartupdate": "$TexturePacker:SmartUpdate:7fbe1130acfaa637dca550b5e1ed7c8c$"
}
}
