{"frames": {

"P13_LIGHT_010000.png":
{
	"frame": {"x":172,"y":74,"w":60,"h":50},
	"rotated": false,
	"trimmed": true,
	"spriteSourceSize": {"x":25,"y":19,"w":60,"h":50},
	"sourceSize": {"w":86,"h":88}
},
"P13_LIGHT_010001.png":
{
	"frame": {"x":172,"y":74,"w":60,"h":50},
	"rotated": false,
	"trimmed": true,
	"spriteSourceSize": {"x":25,"y":19,"w":60,"h":50},
	"sourceSize": {"w":86,"h":88}
},
"P13_LIGHT_010002.png":
{
	"frame": {"x":172,"y":2,"w":74,"h":70},
	"rotated": false,
	"trimmed": true,
	"spriteSourceSize": {"x":11,"y":11,"w":74,"h":70},
	"sourceSize": {"w":86,"h":88}
},
"P13_LIGHT_010003.png":
{
	"frame": {"x":172,"y":2,"w":74,"h":70},
	"rotated": false,
	"trimmed": true,
	"spriteSourceSize": {"x":11,"y":11,"w":74,"h":70},
	"sourceSize": {"w":86,"h":88}
},
"P13_LIGHT_010004.png":
{
	"frame": {"x":90,"y":2,"w":80,"h":82},
	"rotated": false,
	"trimmed": true,
	"spriteSourceSize": {"x":5,"y":5,"w":80,"h":82},
	"sourceSize": {"w":86,"h":88}
},
"P13_LIGHT_010005.png":
{
	"frame": {"x":90,"y":2,"w":80,"h":82},
	"rotated": false,
	"trimmed": true,
	"spriteSourceSize": {"x":5,"y":5,"w":80,"h":82},
	"sourceSize": {"w":86,"h":88}
},
"P13_LIGHT_010006.png":
{
	"frame": {"x":2,"y":2,"w":86,"h":88},
	"rotated": false,
	"trimmed": false,
	"spriteSourceSize": {"x":0,"y":0,"w":86,"h":88},
	"sourceSize": {"w":86,"h":88}
},
"P13_LIGHT_010007.png":
{
	"frame": {"x":2,"y":2,"w":86,"h":88},
	"rotated": false,
	"trimmed": false,
	"spriteSourceSize": {"x":0,"y":0,"w":86,"h":88},
	"sourceSize": {"w":86,"h":88}
},
"P13_LIGHT_010008.png":
{
	"frame": {"x":2,"y":2,"w":86,"h":88},
	"rotated": false,
	"trimmed": false,
	"spriteSourceSize": {"x":0,"y":0,"w":86,"h":88},
	"sourceSize": {"w":86,"h":88}
},
"P13_LIGHT_010009.png":
{
	"frame": {"x":2,"y":2,"w":86,"h":88},
	"rotated": false,
	"trimmed": false,
	"spriteSourceSize": {"x":0,"y":0,"w":86,"h":88},
	"sourceSize": {"w":86,"h":88}
},
"P13_LIGHT_010010.png":
{
	"frame": {"x":90,"y":2,"w":80,"h":82},
	"rotated": false,
	"trimmed": true,
	"spriteSourceSize": {"x":5,"y":5,"w":80,"h":82},
	"sourceSize": {"w":86,"h":88}
},
"P13_LIGHT_010011.png":
{
	"frame": {"x":90,"y":2,"w":80,"h":82},
	"rotated": false,
	"trimmed": true,
	"spriteSourceSize": {"x":5,"y":5,"w":80,"h":82},
	"sourceSize": {"w":86,"h":88}
},
"P13_LIGHT_010012.png":
{
	"frame": {"x":172,"y":2,"w":74,"h":70},
	"rotated": false,
	"trimmed": true,
	"spriteSourceSize": {"x":11,"y":11,"w":74,"h":70},
	"sourceSize": {"w":86,"h":88}
},
"P13_LIGHT_010013.png":
{
	"frame": {"x":172,"y":2,"w":74,"h":70},
	"rotated": false,
	"trimmed": true,
	"spriteSourceSize": {"x":11,"y":11,"w":74,"h":70},
	"sourceSize": {"w":86,"h":88}
},
"P13_LIGHT_010014.png":
{
	"frame": {"x":172,"y":74,"w":60,"h":50},
	"rotated": false,
	"trimmed": true,
	"spriteSourceSize": {"x":25,"y":19,"w":60,"h":50},
	"sourceSize": {"w":86,"h":88}
},
"P13_LIGHT_010015.png":
{
	"frame": {"x":172,"y":74,"w":60,"h":50},
	"rotated": false,
	"trimmed": true,
	"spriteSourceSize": {"x":25,"y":19,"w":60,"h":50},
	"sourceSize": {"w":86,"h":88}
}},
"meta": {
	"app": "http://www.texturepacker.com",
	"version": "1.0",
	"image": "P13_LIGHT_01.png",
	"format": "RGBA8888",
	"size": {"w":248,"h":126},
	"scale": "1",
	"smartupdate": "$TexturePacker:SmartUpdate:d188646275962a4dd76a64c7bc106b29$"
}
}
