{"frames": {

"P10_Waterfall_2 instance 10000":
{
	"frame": {"x":0,"y":0,"w":231,"h":105},
	"rotated": false,
	"trimmed": false,
	"spriteSourceSize": {"x":0,"y":0,"w":231,"h":105},
	"sourceSize": {"w":231,"h":105}
},
"P10_Waterfall_2 instance 10001":
{
	"frame": {"x":0,"y":0,"w":231,"h":105},
	"rotated": false,
	"trimmed": false,
	"spriteSourceSize": {"x":0,"y":0,"w":231,"h":105},
	"sourceSize": {"w":231,"h":105}
},
"P10_Waterfall_2 instance 10002":
{
	"frame": {"x":0,"y":105,"w":231,"h":105},
	"rotated": false,
	"trimmed": false,
	"spriteSourceSize": {"x":0,"y":0,"w":231,"h":105},
	"sourceSize": {"w":231,"h":105}
},
"P10_Waterfall_2 instance 10003":
{
	"frame": {"x":0,"y":105,"w":231,"h":105},
	"rotated": false,
	"trimmed": false,
	"spriteSourceSize": {"x":0,"y":0,"w":231,"h":105},
	"sourceSize": {"w":231,"h":105}
},
"P10_Waterfall_2 instance 10004":
{
	"frame": {"x":0,"y":210,"w":231,"h":105},
	"rotated": false,
	"trimmed": false,
	"spriteSourceSize": {"x":0,"y":0,"w":231,"h":105},
	"sourceSize": {"w":231,"h":105}
},
"P10_Waterfall_2 instance 10005":
{
	"frame": {"x":0,"y":210,"w":231,"h":105},
	"rotated": false,
	"trimmed": false,
	"spriteSourceSize": {"x":0,"y":0,"w":231,"h":105},
	"sourceSize": {"w":231,"h":105}
},
"P10_Waterfall_2 instance 10006":
{
	"frame": {"x":0,"y":315,"w":231,"h":105},
	"rotated": false,
	"trimmed": false,
	"spriteSourceSize": {"x":0,"y":0,"w":231,"h":105},
	"sourceSize": {"w":231,"h":105}
},
"P10_Waterfall_2 instance 10007":
{
	"frame": {"x":0,"y":315,"w":231,"h":105},
	"rotated": false,
	"trimmed": false,
	"spriteSourceSize": {"x":0,"y":0,"w":231,"h":105},
	"sourceSize": {"w":231,"h":105}
}},
"meta": {
	"app": "Adobe Flash CS6",
	"version": "12.0.0.481",
	"image": "P10_Waterfall_2.png",
	"format": "RGBA8888",
	"size": {"w":256,"h":512},
	"scale": "1"
}
}
