{"frames": {

"P10_Berrykin_1 instance 10000":
{
	"frame": {"x":0,"y":0,"w":201,"h":341},
	"rotated": false,
	"trimmed": false,
	"spriteSourceSize": {"x":0,"y":0,"w":201,"h":341},
	"sourceSize": {"w":201,"h":341}
},
"P10_Berrykin_1 instance 10001":
{
	"frame": {"x":0,"y":0,"w":201,"h":341},
	"rotated": false,
	"trimmed": false,
	"spriteSourceSize": {"x":0,"y":0,"w":201,"h":341},
	"sourceSize": {"w":201,"h":341}
},
"P10_Berrykin_1 instance 10002":
{
	"frame": {"x":0,"y":341,"w":201,"h":341},
	"rotated": false,
	"trimmed": false,
	"spriteSourceSize": {"x":0,"y":0,"w":201,"h":341},
	"sourceSize": {"w":201,"h":341}
},
"P10_Berrykin_1 instance 10003":
{
	"frame": {"x":0,"y":341,"w":201,"h":341},
	"rotated": false,
	"trimmed": false,
	"spriteSourceSize": {"x":0,"y":0,"w":201,"h":341},
	"sourceSize": {"w":201,"h":341}
},
"P10_Berrykin_1 instance 10004":
{
	"frame": {"x":0,"y":682,"w":201,"h":341},
	"rotated": false,
	"trimmed": false,
	"spriteSourceSize": {"x":0,"y":0,"w":201,"h":341},
	"sourceSize": {"w":201,"h":341}
},
"P10_Berrykin_1 instance 10005":
{
	"frame": {"x":0,"y":682,"w":201,"h":341},
	"rotated": false,
	"trimmed": false,
	"spriteSourceSize": {"x":0,"y":0,"w":201,"h":341},
	"sourceSize": {"w":201,"h":341}
},
"P10_Berrykin_1 instance 10006":
{
	"frame": {"x":201,"y":0,"w":201,"h":341},
	"rotated": false,
	"trimmed": false,
	"spriteSourceSize": {"x":0,"y":0,"w":201,"h":341},
	"sourceSize": {"w":201,"h":341}
},
"P10_Berrykin_1 instance 10007":
{
	"frame": {"x":201,"y":0,"w":201,"h":341},
	"rotated": false,
	"trimmed": false,
	"spriteSourceSize": {"x":0,"y":0,"w":201,"h":341},
	"sourceSize": {"w":201,"h":341}
},
"P10_Berrykin_1 instance 10008":
{
	"frame": {"x":201,"y":341,"w":201,"h":341},
	"rotated": false,
	"trimmed": false,
	"spriteSourceSize": {"x":0,"y":0,"w":201,"h":341},
	"sourceSize": {"w":201,"h":341}
},
"P10_Berrykin_1 instance 10009":
{
	"frame": {"x":201,"y":341,"w":201,"h":341},
	"rotated": false,
	"trimmed": false,
	"spriteSourceSize": {"x":0,"y":0,"w":201,"h":341},
	"sourceSize": {"w":201,"h":341}
},
"P10_Berrykin_1 instance 10010":
{
	"frame": {"x":201,"y":682,"w":201,"h":341},
	"rotated": false,
	"trimmed": false,
	"spriteSourceSize": {"x":0,"y":0,"w":201,"h":341},
	"sourceSize": {"w":201,"h":341}
},
"P10_Berrykin_1 instance 10011":
{
	"frame": {"x":201,"y":682,"w":201,"h":341},
	"rotated": false,
	"trimmed": false,
	"spriteSourceSize": {"x":0,"y":0,"w":201,"h":341},
	"sourceSize": {"w":201,"h":341}
},
"P10_Berrykin_1 instance 10012":
{
	"frame": {"x":402,"y":0,"w":201,"h":341},
	"rotated": false,
	"trimmed": false,
	"spriteSourceSize": {"x":0,"y":0,"w":201,"h":341},
	"sourceSize": {"w":201,"h":341}
},
"P10_Berrykin_1 instance 10013":
{
	"frame": {"x":402,"y":0,"w":201,"h":341},
	"rotated": false,
	"trimmed": false,
	"spriteSourceSize": {"x":0,"y":0,"w":201,"h":341},
	"sourceSize": {"w":201,"h":341}
},
"P10_Berrykin_1 instance 10014":
{
	"frame": {"x":603,"y":0,"w":201,"h":341},
	"rotated": false,
	"trimmed": false,
	"spriteSourceSize": {"x":0,"y":0,"w":201,"h":341},
	"sourceSize": {"w":201,"h":341}
},
"P10_Berrykin_1 instance 10015":
{
	"frame": {"x":603,"y":0,"w":201,"h":341},
	"rotated": false,
	"trimmed": false,
	"spriteSourceSize": {"x":0,"y":0,"w":201,"h":341},
	"sourceSize": {"w":201,"h":341}
},
"P10_Berrykin_1 instance 10016":
{
	"frame": {"x":804,"y":0,"w":201,"h":341},
	"rotated": false,
	"trimmed": false,
	"spriteSourceSize": {"x":0,"y":0,"w":201,"h":341},
	"sourceSize": {"w":201,"h":341}
},
"P10_Berrykin_1 instance 10017":
{
	"frame": {"x":804,"y":0,"w":201,"h":341},
	"rotated": false,
	"trimmed": false,
	"spriteSourceSize": {"x":0,"y":0,"w":201,"h":341},
	"sourceSize": {"w":201,"h":341}
},
"P10_Berrykin_1 instance 10018":
{
	"frame": {"x":402,"y":341,"w":201,"h":341},
	"rotated": false,
	"trimmed": false,
	"spriteSourceSize": {"x":0,"y":0,"w":201,"h":341},
	"sourceSize": {"w":201,"h":341}
},
"P10_Berrykin_1 instance 10019":
{
	"frame": {"x":402,"y":341,"w":201,"h":341},
	"rotated": false,
	"trimmed": false,
	"spriteSourceSize": {"x":0,"y":0,"w":201,"h":341},
	"sourceSize": {"w":201,"h":341}
},
"P10_Berrykin_1 instance 10020":
{
	"frame": {"x":402,"y":682,"w":201,"h":341},
	"rotated": false,
	"trimmed": false,
	"spriteSourceSize": {"x":0,"y":0,"w":201,"h":341},
	"sourceSize": {"w":201,"h":341}
},
"P10_Berrykin_1 instance 10021":
{
	"frame": {"x":402,"y":682,"w":201,"h":341},
	"rotated": false,
	"trimmed": false,
	"spriteSourceSize": {"x":0,"y":0,"w":201,"h":341},
	"sourceSize": {"w":201,"h":341}
},
"P10_Berrykin_1 instance 10022":
{
	"frame": {"x":603,"y":341,"w":201,"h":341},
	"rotated": false,
	"trimmed": false,
	"spriteSourceSize": {"x":0,"y":0,"w":201,"h":341},
	"sourceSize": {"w":201,"h":341}
},
"P10_Berrykin_1 instance 10023":
{
	"frame": {"x":603,"y":341,"w":201,"h":341},
	"rotated": false,
	"trimmed": false,
	"spriteSourceSize": {"x":0,"y":0,"w":201,"h":341},
	"sourceSize": {"w":201,"h":341}
},
"P10_Berrykin_1 instance 10024":
{
	"frame": {"x":603,"y":682,"w":201,"h":341},
	"rotated": false,
	"trimmed": false,
	"spriteSourceSize": {"x":0,"y":0,"w":201,"h":341},
	"sourceSize": {"w":201,"h":341}
},
"P10_Berrykin_1 instance 10025":
{
	"frame": {"x":603,"y":682,"w":201,"h":341},
	"rotated": false,
	"trimmed": false,
	"spriteSourceSize": {"x":0,"y":0,"w":201,"h":341},
	"sourceSize": {"w":201,"h":341}
},
"P10_Berrykin_1 instance 10026":
{
	"frame": {"x":804,"y":341,"w":201,"h":341},
	"rotated": false,
	"trimmed": false,
	"spriteSourceSize": {"x":0,"y":0,"w":201,"h":341},
	"sourceSize": {"w":201,"h":341}
},
"P10_Berrykin_1 instance 10027":
{
	"frame": {"x":804,"y":341,"w":201,"h":341},
	"rotated": false,
	"trimmed": false,
	"spriteSourceSize": {"x":0,"y":0,"w":201,"h":341},
	"sourceSize": {"w":201,"h":341}
}},
"meta": {
	"app": "Adobe Flash CS6",
	"version": "12.0.0.481",
	"image": "P10_Berrykin_1.png",
	"format": "RGBA8888",
	"size": {"w":1024,"h":1024},
	"scale": "1"
}
}
