{"frames": {

"P10_Waterfall_1 instance 10000":
{
	"frame": {"x":0,"y":0,"w":231,"h":229},
	"rotated": false,
	"trimmed": false,
	"spriteSourceSize": {"x":0,"y":0,"w":231,"h":229},
	"sourceSize": {"w":231,"h":229}
},
"P10_Waterfall_1 instance 10001":
{
	"frame": {"x":0,"y":0,"w":231,"h":229},
	"rotated": false,
	"trimmed": false,
	"spriteSourceSize": {"x":0,"y":0,"w":231,"h":229},
	"sourceSize": {"w":231,"h":229}
},
"P10_Waterfall_1 instance 10002":
{
	"frame": {"x":231,"y":0,"w":231,"h":229},
	"rotated": false,
	"trimmed": false,
	"spriteSourceSize": {"x":0,"y":0,"w":231,"h":229},
	"sourceSize": {"w":231,"h":229}
},
"P10_Waterfall_1 instance 10003":
{
	"frame": {"x":231,"y":0,"w":231,"h":229},
	"rotated": false,
	"trimmed": false,
	"spriteSourceSize": {"x":0,"y":0,"w":231,"h":229},
	"sourceSize": {"w":231,"h":229}
},
"P10_Waterfall_1 instance 10004":
{
	"frame": {"x":0,"y":229,"w":231,"h":229},
	"rotated": false,
	"trimmed": false,
	"spriteSourceSize": {"x":0,"y":0,"w":231,"h":229},
	"sourceSize": {"w":231,"h":229}
},
"P10_Waterfall_1 instance 10005":
{
	"frame": {"x":0,"y":229,"w":231,"h":229},
	"rotated": false,
	"trimmed": false,
	"spriteSourceSize": {"x":0,"y":0,"w":231,"h":229},
	"sourceSize": {"w":231,"h":229}
},
"P10_Waterfall_1 instance 10006":
{
	"frame": {"x":231,"y":229,"w":231,"h":229},
	"rotated": false,
	"trimmed": false,
	"spriteSourceSize": {"x":0,"y":0,"w":231,"h":229},
	"sourceSize": {"w":231,"h":229}
},
"P10_Waterfall_1 instance 10007":
{
	"frame": {"x":231,"y":229,"w":231,"h":229},
	"rotated": false,
	"trimmed": false,
	"spriteSourceSize": {"x":0,"y":0,"w":231,"h":229},
	"sourceSize": {"w":231,"h":229}
}},
"meta": {
	"app": "Adobe Flash CS6",
	"version": "12.0.0.481",
	"image": "P10_Waterfall_1.png",
	"format": "RGBA8888",
	"size": {"w":512,"h":512},
	"scale": "1"
}
}
