{"frames": {

"SS_P06_BERYYKIN_PINK instance 10000.png":
{
	"frame": {"x":60,"y":1042,"w":56,"h":92},
	"rotated": false,
	"trimmed": true,
	"spriteSourceSize": {"x":25,"y":91,"w":56,"h":92},
	"sourceSize": {"w":100,"h":186}
},
"SS_P06_BERYYKIN_PINK instance 10001.png":
{
	"frame": {"x":60,"y":1042,"w":56,"h":92},
	"rotated": false,
	"trimmed": true,
	"spriteSourceSize": {"x":25,"y":91,"w":56,"h":92},
	"sourceSize": {"w":100,"h":186}
},
"SS_P06_BERYYKIN_PINK instance 10002.png":
{
	"frame": {"x":2,"y":1324,"w":56,"h":92},
	"rotated": false,
	"trimmed": true,
	"spriteSourceSize": {"x":25,"y":91,"w":56,"h":92},
	"sourceSize": {"w":100,"h":186}
},
"SS_P06_BERYYKIN_PINK instance 10003.png":
{
	"frame": {"x":2,"y":1324,"w":56,"h":92},
	"rotated": false,
	"trimmed": true,
	"spriteSourceSize": {"x":25,"y":91,"w":56,"h":92},
	"sourceSize": {"w":100,"h":186}
},
"SS_P06_BERYYKIN_PINK instance 10004.png":
{
	"frame": {"x":60,"y":1136,"w":56,"h":90},
	"rotated": false,
	"trimmed": true,
	"spriteSourceSize": {"x":24,"y":93,"w":56,"h":90},
	"sourceSize": {"w":100,"h":186}
},
"SS_P06_BERYYKIN_PINK instance 10005.png":
{
	"frame": {"x":60,"y":1136,"w":56,"h":90},
	"rotated": false,
	"trimmed": true,
	"spriteSourceSize": {"x":24,"y":93,"w":56,"h":90},
	"sourceSize": {"w":100,"h":186}
},
"SS_P06_BERYYKIN_PINK instance 10006.png":
{
	"frame": {"x":62,"y":942,"w":56,"h":90},
	"rotated": false,
	"trimmed": true,
	"spriteSourceSize": {"x":24,"y":93,"w":56,"h":90},
	"sourceSize": {"w":100,"h":186}
},
"SS_P06_BERYYKIN_PINK instance 10007.png":
{
	"frame": {"x":62,"y":942,"w":56,"h":90},
	"rotated": false,
	"trimmed": true,
	"spriteSourceSize": {"x":24,"y":93,"w":56,"h":90},
	"sourceSize": {"w":100,"h":186}
},
"SS_P06_BERYYKIN_PINK instance 10008.png":
{
	"frame": {"x":2,"y":1230,"w":56,"h":92},
	"rotated": false,
	"trimmed": true,
	"spriteSourceSize": {"x":24,"y":91,"w":56,"h":92},
	"sourceSize": {"w":100,"h":186}
},
"SS_P06_BERYYKIN_PINK instance 10009.png":
{
	"frame": {"x":2,"y":1230,"w":56,"h":92},
	"rotated": false,
	"trimmed": true,
	"spriteSourceSize": {"x":24,"y":91,"w":56,"h":92},
	"sourceSize": {"w":100,"h":186}
},
"SS_P06_BERYYKIN_PINK instance 10010.png":
{
	"frame": {"x":2,"y":946,"w":58,"h":94},
	"rotated": false,
	"trimmed": true,
	"spriteSourceSize": {"x":20,"y":89,"w":58,"h":94},
	"sourceSize": {"w":100,"h":186}
},
"SS_P06_BERYYKIN_PINK instance 10011.png":
{
	"frame": {"x":2,"y":946,"w":58,"h":94},
	"rotated": false,
	"trimmed": true,
	"spriteSourceSize": {"x":20,"y":89,"w":58,"h":94},
	"sourceSize": {"w":100,"h":186}
},
"SS_P06_BERYYKIN_PINK instance 10012.png":
{
	"frame": {"x":2,"y":848,"w":56,"h":96},
	"rotated": false,
	"trimmed": true,
	"spriteSourceSize": {"x":18,"y":87,"w":56,"h":96},
	"sourceSize": {"w":100,"h":186}
},
"SS_P06_BERYYKIN_PINK instance 10013.png":
{
	"frame": {"x":2,"y":848,"w":56,"h":96},
	"rotated": false,
	"trimmed": true,
	"spriteSourceSize": {"x":18,"y":87,"w":56,"h":96},
	"sourceSize": {"w":100,"h":186}
},
"SS_P06_BERYYKIN_PINK instance 10014.png":
{
	"frame": {"x":60,"y":846,"w":56,"h":94},
	"rotated": false,
	"trimmed": true,
	"spriteSourceSize": {"x":14,"y":89,"w":56,"h":94},
	"sourceSize": {"w":100,"h":186}
},
"SS_P06_BERYYKIN_PINK instance 10015.png":
{
	"frame": {"x":60,"y":846,"w":56,"h":94},
	"rotated": false,
	"trimmed": true,
	"spriteSourceSize": {"x":14,"y":89,"w":56,"h":94},
	"sourceSize": {"w":100,"h":186}
},
"SS_P06_BERYYKIN_PINK instance 10016.png":
{
	"frame": {"x":62,"y":646,"w":56,"h":94},
	"rotated": false,
	"trimmed": true,
	"spriteSourceSize": {"x":14,"y":89,"w":56,"h":94},
	"sourceSize": {"w":100,"h":186}
},
"SS_P06_BERYYKIN_PINK instance 10017.png":
{
	"frame": {"x":62,"y":646,"w":56,"h":94},
	"rotated": false,
	"trimmed": true,
	"spriteSourceSize": {"x":14,"y":89,"w":56,"h":94},
	"sourceSize": {"w":100,"h":186}
},
"SS_P06_BERYYKIN_PINK instance 10018.png":
{
	"frame": {"x":60,"y":750,"w":56,"h":94},
	"rotated": false,
	"trimmed": true,
	"spriteSourceSize": {"x":18,"y":89,"w":56,"h":94},
	"sourceSize": {"w":100,"h":186}
},
"SS_P06_BERYYKIN_PINK instance 10019.png":
{
	"frame": {"x":60,"y":750,"w":56,"h":94},
	"rotated": false,
	"trimmed": true,
	"spriteSourceSize": {"x":18,"y":89,"w":56,"h":94},
	"sourceSize": {"w":100,"h":186}
},
"SS_P06_BERYYKIN_PINK instance 10020.png":
{
	"frame": {"x":2,"y":750,"w":56,"h":96},
	"rotated": false,
	"trimmed": true,
	"spriteSourceSize": {"x":20,"y":87,"w":56,"h":96},
	"sourceSize": {"w":100,"h":186}
},
"SS_P06_BERYYKIN_PINK instance 10021.png":
{
	"frame": {"x":2,"y":750,"w":56,"h":96},
	"rotated": false,
	"trimmed": true,
	"spriteSourceSize": {"x":20,"y":87,"w":56,"h":96},
	"sourceSize": {"w":100,"h":186}
},
"SS_P06_BERYYKIN_PINK instance 10022.png":
{
	"frame": {"x":2,"y":1230,"w":56,"h":92},
	"rotated": false,
	"trimmed": true,
	"spriteSourceSize": {"x":24,"y":91,"w":56,"h":92},
	"sourceSize": {"w":100,"h":186}
},
"SS_P06_BERYYKIN_PINK instance 10023.png":
{
	"frame": {"x":2,"y":1230,"w":56,"h":92},
	"rotated": false,
	"trimmed": true,
	"spriteSourceSize": {"x":24,"y":91,"w":56,"h":92},
	"sourceSize": {"w":100,"h":186}
},
"SS_P06_BERYYKIN_PINK instance 10024.png":
{
	"frame": {"x":62,"y":942,"w":56,"h":90},
	"rotated": false,
	"trimmed": true,
	"spriteSourceSize": {"x":24,"y":93,"w":56,"h":90},
	"sourceSize": {"w":100,"h":186}
},
"SS_P06_BERYYKIN_PINK instance 10025.png":
{
	"frame": {"x":62,"y":942,"w":56,"h":90},
	"rotated": false,
	"trimmed": true,
	"spriteSourceSize": {"x":24,"y":93,"w":56,"h":90},
	"sourceSize": {"w":100,"h":186}
},
"SS_P06_BERYYKIN_PINK instance 10026.png":
{
	"frame": {"x":60,"y":1136,"w":56,"h":90},
	"rotated": false,
	"trimmed": true,
	"spriteSourceSize": {"x":24,"y":93,"w":56,"h":90},
	"sourceSize": {"w":100,"h":186}
},
"SS_P06_BERYYKIN_PINK instance 10027.png":
{
	"frame": {"x":60,"y":1136,"w":56,"h":90},
	"rotated": false,
	"trimmed": true,
	"spriteSourceSize": {"x":24,"y":93,"w":56,"h":90},
	"sourceSize": {"w":100,"h":186}
},
"SS_P06_BERYYKIN_PINK instance 10028.png":
{
	"frame": {"x":2,"y":1324,"w":56,"h":92},
	"rotated": false,
	"trimmed": true,
	"spriteSourceSize": {"x":25,"y":91,"w":56,"h":92},
	"sourceSize": {"w":100,"h":186}
},
"SS_P06_BERYYKIN_PINK instance 10029.png":
{
	"frame": {"x":2,"y":1324,"w":56,"h":92},
	"rotated": false,
	"trimmed": true,
	"spriteSourceSize": {"x":25,"y":91,"w":56,"h":92},
	"sourceSize": {"w":100,"h":186}
},
"SS_P06_BERYYKIN_PINK instance 10030.png":
{
	"frame": {"x":60,"y":1042,"w":56,"h":92},
	"rotated": false,
	"trimmed": true,
	"spriteSourceSize": {"x":25,"y":91,"w":56,"h":92},
	"sourceSize": {"w":100,"h":186}
},
"SS_P06_BERYYKIN_PINK instance 10031.png":
{
	"frame": {"x":60,"y":1042,"w":56,"h":92},
	"rotated": false,
	"trimmed": true,
	"spriteSourceSize": {"x":25,"y":91,"w":56,"h":92},
	"sourceSize": {"w":100,"h":186}
},
"SS_P06_BERYYKIN_PINK instance 10032.png":
{
	"frame": {"x":2,"y":1136,"w":56,"h":92},
	"rotated": false,
	"trimmed": true,
	"spriteSourceSize": {"x":25,"y":91,"w":56,"h":92},
	"sourceSize": {"w":100,"h":186}
},
"SS_P06_BERYYKIN_PINK instance 10033.png":
{
	"frame": {"x":2,"y":1136,"w":56,"h":92},
	"rotated": false,
	"trimmed": true,
	"spriteSourceSize": {"x":25,"y":91,"w":56,"h":92},
	"sourceSize": {"w":100,"h":186}
},
"SS_P06_BERYYKIN_PINK instance 10034.png":
{
	"frame": {"x":60,"y":1318,"w":58,"h":84},
	"rotated": false,
	"trimmed": true,
	"spriteSourceSize": {"x":21,"y":99,"w":58,"h":84},
	"sourceSize": {"w":100,"h":186}
},
"SS_P06_BERYYKIN_PINK instance 10035.png":
{
	"frame": {"x":60,"y":1318,"w":58,"h":84},
	"rotated": false,
	"trimmed": true,
	"spriteSourceSize": {"x":21,"y":99,"w":58,"h":84},
	"sourceSize": {"w":100,"h":186}
},
"SS_P06_BERYYKIN_PINK instance 10036.png":
{
	"frame": {"x":64,"y":432,"w":60,"h":80},
	"rotated": false,
	"trimmed": true,
	"spriteSourceSize": {"x":18,"y":103,"w":60,"h":80},
	"sourceSize": {"w":100,"h":186}
},
"SS_P06_BERYYKIN_PINK instance 10037.png":
{
	"frame": {"x":64,"y":432,"w":60,"h":80},
	"rotated": false,
	"trimmed": true,
	"spriteSourceSize": {"x":18,"y":103,"w":60,"h":80},
	"sourceSize": {"w":100,"h":186}
},
"SS_P06_BERYYKIN_PINK instance 10038.png":
{
	"frame": {"x":60,"y":180,"w":60,"h":128},
	"rotated": false,
	"trimmed": true,
	"spriteSourceSize": {"x":30,"y":55,"w":60,"h":128},
	"sourceSize": {"w":100,"h":186}
},
"SS_P06_BERYYKIN_PINK instance 10039.png":
{
	"frame": {"x":60,"y":180,"w":60,"h":128},
	"rotated": false,
	"trimmed": true,
	"spriteSourceSize": {"x":30,"y":55,"w":60,"h":128},
	"sourceSize": {"w":100,"h":186}
},
"SS_P06_BERYYKIN_PINK instance 10040.png":
{
	"frame": {"x":2,"y":350,"w":60,"h":164},
	"rotated": false,
	"trimmed": true,
	"spriteSourceSize": {"x":23,"y":19,"w":60,"h":164},
	"sourceSize": {"w":100,"h":186}
},
"SS_P06_BERYYKIN_PINK instance 10041.png":
{
	"frame": {"x":2,"y":350,"w":60,"h":164},
	"rotated": false,
	"trimmed": true,
	"spriteSourceSize": {"x":23,"y":19,"w":60,"h":164},
	"sourceSize": {"w":100,"h":186}
},
"SS_P06_BERYYKIN_PINK instance 10042.png":
{
	"frame": {"x":2,"y":2,"w":74,"h":176},
	"rotated": false,
	"trimmed": true,
	"spriteSourceSize": {"x":3,"y":7,"w":74,"h":176},
	"sourceSize": {"w":100,"h":186}
},
"SS_P06_BERYYKIN_PINK instance 10043.png":
{
	"frame": {"x":2,"y":2,"w":74,"h":176},
	"rotated": false,
	"trimmed": true,
	"spriteSourceSize": {"x":3,"y":7,"w":74,"h":176},
	"sourceSize": {"w":100,"h":186}
},
"SS_P06_BERYYKIN_PINK instance 10044.png":
{
	"frame": {"x":2,"y":180,"w":56,"h":168},
	"rotated": false,
	"trimmed": true,
	"spriteSourceSize": {"x":10,"y":15,"w":56,"h":168},
	"sourceSize": {"w":100,"h":186}
},
"SS_P06_BERYYKIN_PINK instance 10045.png":
{
	"frame": {"x":2,"y":180,"w":56,"h":168},
	"rotated": false,
	"trimmed": true,
	"spriteSourceSize": {"x":10,"y":15,"w":56,"h":168},
	"sourceSize": {"w":100,"h":186}
},
"SS_P06_BERYYKIN_PINK instance 10046.png":
{
	"frame": {"x":2,"y":516,"w":72,"h":128},
	"rotated": false,
	"trimmed": true,
	"spriteSourceSize": {"x":16,"y":55,"w":72,"h":128},
	"sourceSize": {"w":100,"h":186}
},
"SS_P06_BERYYKIN_PINK instance 10047.png":
{
	"frame": {"x":2,"y":516,"w":72,"h":128},
	"rotated": false,
	"trimmed": true,
	"spriteSourceSize": {"x":16,"y":55,"w":72,"h":128},
	"sourceSize": {"w":100,"h":186}
},
"SS_P06_BERYYKIN_PINK instance 10048.png":
{
	"frame": {"x":64,"y":310,"w":62,"h":120},
	"rotated": false,
	"trimmed": true,
	"spriteSourceSize": {"x":23,"y":63,"w":62,"h":120},
	"sourceSize": {"w":100,"h":186}
},
"SS_P06_BERYYKIN_PINK instance 10049.png":
{
	"frame": {"x":64,"y":310,"w":62,"h":120},
	"rotated": false,
	"trimmed": true,
	"spriteSourceSize": {"x":23,"y":63,"w":62,"h":120},
	"sourceSize": {"w":100,"h":186}
},
"SS_P06_BERYYKIN_PINK instance 10050.png":
{
	"frame": {"x":2,"y":646,"w":58,"h":102},
	"rotated": false,
	"trimmed": true,
	"spriteSourceSize": {"x":21,"y":81,"w":58,"h":102},
	"sourceSize": {"w":100,"h":186}
},
"SS_P06_BERYYKIN_PINK instance 10051.png":
{
	"frame": {"x":2,"y":646,"w":58,"h":102},
	"rotated": false,
	"trimmed": true,
	"spriteSourceSize": {"x":21,"y":81,"w":58,"h":102},
	"sourceSize": {"w":100,"h":186}
},
"SS_P06_BERYYKIN_PINK instance 10052.png":
{
	"frame": {"x":2,"y":1042,"w":56,"h":92},
	"rotated": false,
	"trimmed": true,
	"spriteSourceSize": {"x":22,"y":91,"w":56,"h":92},
	"sourceSize": {"w":100,"h":186}
},
"SS_P06_BERYYKIN_PINK instance 10053.png":
{
	"frame": {"x":2,"y":1042,"w":56,"h":92},
	"rotated": false,
	"trimmed": true,
	"spriteSourceSize": {"x":22,"y":91,"w":56,"h":92},
	"sourceSize": {"w":100,"h":186}
},
"SS_P06_BERYYKIN_PINK instance 10054.png":
{
	"frame": {"x":2,"y":1418,"w":60,"h":78},
	"rotated": false,
	"trimmed": true,
	"spriteSourceSize": {"x":22,"y":105,"w":60,"h":78},
	"sourceSize": {"w":100,"h":186}
},
"SS_P06_BERYYKIN_PINK instance 10055.png":
{
	"frame": {"x":2,"y":1418,"w":60,"h":78},
	"rotated": false,
	"trimmed": true,
	"spriteSourceSize": {"x":22,"y":105,"w":60,"h":78},
	"sourceSize": {"w":100,"h":186}
},
"SS_P06_BERYYKIN_PINK instance 10056.png":
{
	"frame": {"x":64,"y":1404,"w":58,"h":80},
	"rotated": false,
	"trimmed": true,
	"spriteSourceSize": {"x":24,"y":103,"w":58,"h":80},
	"sourceSize": {"w":100,"h":186}
},
"SS_P06_BERYYKIN_PINK instance 10057.png":
{
	"frame": {"x":64,"y":1404,"w":58,"h":80},
	"rotated": false,
	"trimmed": true,
	"spriteSourceSize": {"x":24,"y":103,"w":58,"h":80},
	"sourceSize": {"w":100,"h":186}
},
"SS_P06_BERYYKIN_PINK instance 10058.png":
{
	"frame": {"x":60,"y":1228,"w":58,"h":88},
	"rotated": false,
	"trimmed": true,
	"spriteSourceSize": {"x":24,"y":95,"w":58,"h":88},
	"sourceSize": {"w":100,"h":186}
},
"SS_P06_BERYYKIN_PINK instance 10059.png":
{
	"frame": {"x":60,"y":1228,"w":58,"h":88},
	"rotated": false,
	"trimmed": true,
	"spriteSourceSize": {"x":24,"y":95,"w":58,"h":88},
	"sourceSize": {"w":100,"h":186}
},
"SS_P06_BERYYKIN_PINK instance 10060.png":
{
	"frame": {"x":60,"y":1042,"w":56,"h":92},
	"rotated": false,
	"trimmed": true,
	"spriteSourceSize": {"x":25,"y":91,"w":56,"h":92},
	"sourceSize": {"w":100,"h":186}
},
"SS_P06_BERYYKIN_PINK instance 10061.png":
{
	"frame": {"x":60,"y":1042,"w":56,"h":92},
	"rotated": false,
	"trimmed": true,
	"spriteSourceSize": {"x":25,"y":91,"w":56,"h":92},
	"sourceSize": {"w":100,"h":186}
}},
"meta": {
	"app": "http://www.texturepacker.com",
	"version": "1.0",
	"image": "SS_P06_BERYYKIN_PINK.png",
	"format": "RGBA8888",
	"size": {"w":128,"h":1498},
	"scale": "1",
	"smartupdate": "$TexturePacker:SmartUpdate:68793d1c36a374d5760b679baef399b2$"
}
}
