{"frames": {

"SS_P06_LIGHT03 instance 10000":
{
	"frame": {"x":0,"y":0,"w":27,"h":144},
	"rotated": false,
	"trimmed": false,
	"spriteSourceSize": {"x":0,"y":0,"w":27,"h":144},
	"sourceSize": {"w":27,"h":144}
},
"SS_P06_LIGHT03 instance 10001":
{
	"frame": {"x":27,"y":0,"w":27,"h":144},
	"rotated": false,
	"trimmed": false,
	"spriteSourceSize": {"x":0,"y":0,"w":27,"h":144},
	"sourceSize": {"w":27,"h":144}
},
"SS_P06_LIGHT03 instance 10002":
{
	"frame": {"x":54,"y":0,"w":27,"h":144},
	"rotated": false,
	"trimmed": false,
	"spriteSourceSize": {"x":0,"y":0,"w":27,"h":144},
	"sourceSize": {"w":27,"h":144}
},
"SS_P06_LIGHT03 instance 10003":
{
	"frame": {"x":81,"y":0,"w":27,"h":144},
	"rotated": false,
	"trimmed": false,
	"spriteSourceSize": {"x":0,"y":0,"w":27,"h":144},
	"sourceSize": {"w":27,"h":144}
},
"SS_P06_LIGHT03 instance 10004":
{
	"frame": {"x":108,"y":0,"w":27,"h":144},
	"rotated": false,
	"trimmed": false,
	"spriteSourceSize": {"x":0,"y":0,"w":27,"h":144},
	"sourceSize": {"w":27,"h":144}
}},
"meta": {
	"app": "Adobe Flash CS6",
	"version": "12.0.0.481",
	"image": "SS_P06_LIGHT03.png",
	"format": "RGBA8888",
	"size": {"w":256,"h":256},
	"scale": "1"
}
}
