{"frames": {

"SS_P06_LIGHT02 instance 10000":
{
	"frame": {"x":0,"y":0,"w":42,"h":219},
	"rotated": false,
	"trimmed": false,
	"spriteSourceSize": {"x":0,"y":0,"w":42,"h":219},
	"sourceSize": {"w":42,"h":219}
},
"SS_P06_LIGHT02 instance 10001":
{
	"frame": {"x":42,"y":0,"w":42,"h":219},
	"rotated": false,
	"trimmed": false,
	"spriteSourceSize": {"x":0,"y":0,"w":42,"h":219},
	"sourceSize": {"w":42,"h":219}
},
"SS_P06_LIGHT02 instance 10002":
{
	"frame": {"x":84,"y":0,"w":42,"h":219},
	"rotated": false,
	"trimmed": false,
	"spriteSourceSize": {"x":0,"y":0,"w":42,"h":219},
	"sourceSize": {"w":42,"h":219}
},
"SS_P06_LIGHT02 instance 10003":
{
	"frame": {"x":126,"y":0,"w":42,"h":219},
	"rotated": false,
	"trimmed": false,
	"spriteSourceSize": {"x":0,"y":0,"w":42,"h":219},
	"sourceSize": {"w":42,"h":219}
},
"SS_P06_LIGHT02 instance 10004":
{
	"frame": {"x":168,"y":0,"w":42,"h":219},
	"rotated": false,
	"trimmed": false,
	"spriteSourceSize": {"x":0,"y":0,"w":42,"h":219},
	"sourceSize": {"w":42,"h":219}
}},
"meta": {
	"app": "Adobe Flash CS6",
	"version": "12.0.0.481",
	"image": "SS_P06_LIGHT02.png",
	"format": "RGBA8888",
	"size": {"w":256,"h":256},
	"scale": "1"
}
}
