{"frames": {

"STAGELIGHTS_LIGHTS0000.png":
{
	"frame": {"x":1413,"y":2,"w":1,"h":1},
	"rotated": false,
	"trimmed": true,
	"spriteSourceSize": {"x":0,"y":0,"w":1,"h":1},
	"sourceSize": {"w":1413,"h":135}
},
"STAGELIGHTS_LIGHTS0001.png":
{
	"frame": {"x":2,"y":526,"w":1409,"h":129},
	"rotated": false,
	"trimmed": true,
	"spriteSourceSize": {"x":1,"y":3,"w":1409,"h":129},
	"sourceSize": {"w":1413,"h":135}
},
"STAGELIGHTS_LIGHTS0002.png":
{
	"frame": {"x":2,"y":395,"w":1409,"h":129},
	"rotated": false,
	"trimmed": true,
	"spriteSourceSize": {"x":1,"y":3,"w":1409,"h":129},
	"sourceSize": {"w":1413,"h":135}
},
"STAGELIGHTS_LIGHTS0003.png":
{
	"frame": {"x":2,"y":264,"w":1409,"h":129},
	"rotated": false,
	"trimmed": true,
	"spriteSourceSize": {"x":1,"y":3,"w":1409,"h":129},
	"sourceSize": {"w":1413,"h":135}
},
"STAGELIGHTS_LIGHTS0004.png":
{
	"frame": {"x":2,"y":133,"w":1409,"h":129},
	"rotated": false,
	"trimmed": true,
	"spriteSourceSize": {"x":1,"y":3,"w":1409,"h":129},
	"sourceSize": {"w":1413,"h":135}
},
"STAGELIGHTS_LIGHTS0005.png":
{
	"frame": {"x":2,"y":2,"w":1409,"h":129},
	"rotated": false,
	"trimmed": true,
	"spriteSourceSize": {"x":1,"y":3,"w":1409,"h":129},
	"sourceSize": {"w":1413,"h":135}
}},
"meta": {
	"app": "http://www.texturepacker.com",
	"version": "1.0",
	"image": "P16_STAGELIGHTS_LIGHTS.png",
	"format": "RGBA8888",
	"size": {"w":1416,"h":657},
	"scale": "1",
	"smartupdate": "$TexturePacker:SmartUpdate:6081f83de4a9f305742fc2c68b03ec18$"
}
}
