{"frames": {

"P16_BACKGROUND.png":
{
	"frame": {"x":2,"y":2,"w":1366,"h":768},
	"rotated": false,
	"trimmed": false,
	"spriteSourceSize": {"x":0,"y":0,"w":1366,"h":768},
	"sourceSize": {"w":1366,"h":768}
},
"P16_BLUEBERRYKIN_0001.png":
{
	"frame": {"x":1744,"y":884,"w":124,"h":198},
	"rotated": false,
	"trimmed": true,
	"spriteSourceSize": {"x":4,"y":50,"w":124,"h":198},
	"sourceSize": {"w":150,"h":250}
},
"P16_BLUEBERRYKIN_0002.png":
{
	"frame": {"x":1590,"y":616,"w":140,"h":208},
	"rotated": true,
	"trimmed": true,
	"spriteSourceSize": {"x":0,"y":6,"w":140,"h":208},
	"sourceSize": {"w":150,"h":250}
},
"P16_BOUQUET.png":
{
	"frame": {"x":1386,"y":972,"w":156,"h":100},
	"rotated": false,
	"trimmed": true,
	"spriteSourceSize": {"x":0,"y":0,"w":156,"h":100},
	"sourceSize": {"w":158,"h":102}
},
"P16_CHAIRS.png":
{
	"frame": {"x":2,"y":772,"w":1454,"h":198},
	"rotated": false,
	"trimmed": true,
	"spriteSourceSize": {"x":0,"y":0,"w":1454,"h":198},
	"sourceSize": {"w":1456,"h":200}
},
"P16_CHERRY_0001.png":
{
	"frame": {"x":1544,"y":2,"w":204,"h":406},
	"rotated": false,
	"trimmed": true,
	"spriteSourceSize": {"x":9,"y":11,"w":204,"h":406},
	"sourceSize": {"w":228,"h":418}
},
"P16_ORANGEBERRYKIN_0001.png":
{
	"frame": {"x":1668,"y":758,"w":124,"h":198},
	"rotated": true,
	"trimmed": true,
	"spriteSourceSize": {"x":14,"y":41,"w":124,"h":198},
	"sourceSize": {"w":142,"h":240}
},
"P16_ORANGEBERRYKIN_0002.png":
{
	"frame": {"x":1458,"y":764,"w":140,"h":208},
	"rotated": true,
	"trimmed": true,
	"spriteSourceSize": {"x":0,"y":0,"w":140,"h":208},
	"sourceSize": {"w":142,"h":240}
},
"P16_PINKBERRYKIN_0001.png":
{
	"frame": {"x":1544,"y":906,"w":124,"h":198},
	"rotated": true,
	"trimmed": true,
	"spriteSourceSize": {"x":14,"y":60,"w":124,"h":198},
	"sourceSize": {"w":148,"h":260}
},
"P16_PINKBERRYKIN_0002.png":
{
	"frame": {"x":1370,"y":408,"w":148,"h":210},
	"rotated": false,
	"trimmed": true,
	"spriteSourceSize": {"x":0,"y":1,"w":148,"h":210},
	"sourceSize": {"w":148,"h":260}
},
"P16_PURPLEBERRYKIN_0001.png":
{
	"frame": {"x":1750,"y":2,"w":122,"h":198},
	"rotated": false,
	"trimmed": true,
	"spriteSourceSize": {"x":12,"y":47,"w":122,"h":198},
	"sourceSize": {"w":146,"h":248}
},
"P16_PURPLEBERRYKIN_0002.png":
{
	"frame": {"x":1370,"y":620,"w":142,"h":218},
	"rotated": true,
	"trimmed": true,
	"spriteSourceSize": {"x":1,"y":2,"w":142,"h":218},
	"sourceSize": {"w":146,"h":248}
},
"P16_ROSE.png":
{
	"frame": {"x":1672,"y":536,"w":106,"h":46},
	"rotated": false,
	"trimmed": true,
	"spriteSourceSize": {"x":0,"y":0,"w":106,"h":46},
	"sourceSize": {"w":108,"h":48}
},
"P16_STRAWBERRYSTAGELIGHTS.png":
{
	"frame": {"x":2,"y":972,"w":1382,"h":118},
	"rotated": false,
	"trimmed": true,
	"spriteSourceSize": {"x":0,"y":0,"w":1382,"h":118},
	"sourceSize": {"w":1384,"h":120}
},
"P16_STRAWBERRY_0001.png":
{
	"frame": {"x":1370,"y":2,"w":172,"h":404},
	"rotated": false,
	"trimmed": true,
	"spriteSourceSize": {"x":44,"y":34,"w":172,"h":404},
	"sourceSize": {"w":240,"h":442}
},
"P16_YELLOWBERRYKIN_0001.png":
{
	"frame": {"x":1672,"y":410,"w":124,"h":200},
	"rotated": true,
	"trimmed": true,
	"spriteSourceSize": {"x":13,"y":37,"w":124,"h":200},
	"sourceSize": {"w":152,"h":238}
},
"P16_YELLOWBERRYKIN_0002.png":
{
	"frame": {"x":1520,"y":410,"w":150,"h":204},
	"rotated": false,
	"trimmed": true,
	"spriteSourceSize": {"x":0,"y":2,"w":150,"h":204},
	"sourceSize": {"w":152,"h":238}
}},
"meta": {
	"app": "http://www.codeandweb.com/texturepacker ",
	"version": "1.0",
	"image": "Page.png",
	"format": "RGBA8888",
	"size": {"w":1874,"h":1092},
	"scale": "1",
	"smartupdate": "$TexturePacker:SmartUpdate:2884c8d248ece5b47924b8871ecca9b4$"
}
}
